<?xml version="1.0" encoding="utf-8"?>
<!-- Generator: Adobe Illustrator 19.0.0, SVG Export Plug-In . SVG Version: 6.00 Build 0)  -->
<svg version="1.1" id="Layer_1" xmlns="http://www.w3.org/2000/svg" xmlns:xlink="http://www.w3.org/1999/xlink" x="0px" y="0px"
	 viewBox="852.8427734 -33.6191406 1556.8076172 856.109375"
	 style="enable-background:new 852.8427734 -33.6191406 1556.8076172 856.109375;" xml:space="preserve">
<style type="text/css">
	
		.st0{fill:none;stroke:#FFFFFF;stroke-width:0.6667;stroke-linejoin:bevel;stroke-miterlimit:1;stroke-opacity:0.502;stroke-dasharray:1,3;}
	.st1{fill:none;stroke:#000000;stroke-width:0.6667;stroke-linecap:square;stroke-linejoin:round;stroke-miterlimit:10;}
	.st2{font-family:'ArialMT';}
	.st3{font-size:13px;}
	.st4{font-size:15px;}
	.st5{font-family:'Arial-BoldMT';}
	.st6{fill:none;stroke:#FF8000;stroke-width:0.6667;stroke-linejoin:round;stroke-miterlimit:10;}
</style>
<g>
	<g>
		<path d="M904,772h1488V-14H904V772z"/>
	</g>
	<g>
		<line class="st0" x1="904" y1="772" x2="904" y2="-14"/>
		<line class="st0" x1="1152" y1="772" x2="1152" y2="-14"/>
		<line class="st0" x1="1400" y1="772" x2="1400" y2="-14"/>
		<line class="st0" x1="1648" y1="772" x2="1648" y2="-14"/>
		<line class="st0" x1="1896" y1="772" x2="1896" y2="-14"/>
		<line class="st0" x1="2144" y1="772" x2="2144" y2="-14"/>
		<line class="st0" x1="2392" y1="772" x2="2392" y2="-14"/>
		<line class="st0" x1="2392" y1="772" x2="904" y2="772"/>
		<line class="st0" x1="2392" y1="684.666687" x2="904" y2="684.666687"/>
		<line class="st0" x1="2392" y1="597.333313" x2="904" y2="597.333313"/>
		<line class="st0" x1="2392" y1="510" x2="904" y2="510"/>
		<line class="st0" x1="2392" y1="422.666687" x2="904" y2="422.666687"/>
		<line class="st0" x1="2392" y1="335.333313" x2="904" y2="335.333313"/>
		<line class="st0" x1="2392" y1="248" x2="904" y2="248"/>
		<line class="st0" x1="2392" y1="160.6667023" x2="904" y2="160.6667023"/>
		<line class="st0" x1="2392" y1="73.3332977" x2="904" y2="73.3332977"/>
		<line class="st0" x1="2392" y1="-14" x2="904" y2="-14"/>
	</g>
	<g>
		<line class="st1" x1="904" y1="772" x2="2392" y2="772"/>
		<line class="st1" x1="904" y1="766.0479736" x2="904" y2="777.9520264"/>
		<line class="st1" x1="1152" y1="766.0479736" x2="1152" y2="777.9520264"/>
		<line class="st1" x1="1400" y1="766.0479736" x2="1400" y2="777.9520264"/>
		<line class="st1" x1="1648" y1="766.0479736" x2="1648" y2="777.9520264"/>
		<line class="st1" x1="1896" y1="766.0479736" x2="1896" y2="777.9520264"/>
		<line class="st1" x1="2144" y1="766.0479736" x2="2144" y2="777.9520264"/>
		<line class="st1" x1="2392" y1="766.0479736" x2="2392" y2="777.9520264"/>
		<line class="st1" x1="928.7999878" y1="769.0239868" x2="928.7999878" y2="774.9760132"/>
		<line class="st1" x1="953.5999756" y1="769.0239868" x2="953.5999756" y2="774.9760132"/>
		<line class="st1" x1="978.4000244" y1="769.0239868" x2="978.4000244" y2="774.9760132"/>
		<line class="st1" x1="1003.2000122" y1="769.0239868" x2="1003.2000122" y2="774.9760132"/>
		<line class="st1" x1="1028" y1="769.0239868" x2="1028" y2="774.9760132"/>
		<line class="st1" x1="1052.8000488" y1="769.0239868" x2="1052.8000488" y2="774.9760132"/>
		<line class="st1" x1="1077.5999756" y1="769.0239868" x2="1077.5999756" y2="774.9760132"/>
		<line class="st1" x1="1102.4000244" y1="769.0239868" x2="1102.4000244" y2="774.9760132"/>
		<line class="st1" x1="1127.1999512" y1="769.0239868" x2="1127.1999512" y2="774.9760132"/>
		<line class="st1" x1="1176.8000488" y1="769.0239868" x2="1176.8000488" y2="774.9760132"/>
		<line class="st1" x1="1201.5999756" y1="769.0239868" x2="1201.5999756" y2="774.9760132"/>
		<line class="st1" x1="1226.4000244" y1="769.0239868" x2="1226.4000244" y2="774.9760132"/>
		<line class="st1" x1="1251.1999512" y1="769.0239868" x2="1251.1999512" y2="774.9760132"/>
		<line class="st1" x1="1276" y1="769.0239868" x2="1276" y2="774.9760132"/>
		<line class="st1" x1="1300.8000488" y1="769.0239868" x2="1300.8000488" y2="774.9760132"/>
		<line class="st1" x1="1325.5999756" y1="769.0239868" x2="1325.5999756" y2="774.9760132"/>
		<line class="st1" x1="1350.4000244" y1="769.0239868" x2="1350.4000244" y2="774.9760132"/>
		<line class="st1" x1="1375.1999512" y1="769.0239868" x2="1375.1999512" y2="774.9760132"/>
		<line class="st1" x1="1424.8000488" y1="769.0239868" x2="1424.8000488" y2="774.9760132"/>
		<line class="st1" x1="1449.5999756" y1="769.0239868" x2="1449.5999756" y2="774.9760132"/>
		<line class="st1" x1="1474.4000244" y1="769.0239868" x2="1474.4000244" y2="774.9760132"/>
		<line class="st1" x1="1499.1999512" y1="769.0239868" x2="1499.1999512" y2="774.9760132"/>
		<line class="st1" x1="1524" y1="769.0239868" x2="1524" y2="774.9760132"/>
		<line class="st1" x1="1548.8000488" y1="769.0239868" x2="1548.8000488" y2="774.9760132"/>
		<line class="st1" x1="1573.5999756" y1="769.0239868" x2="1573.5999756" y2="774.9760132"/>
		<line class="st1" x1="1598.4000244" y1="769.0239868" x2="1598.4000244" y2="774.9760132"/>
		<line class="st1" x1="1623.1999512" y1="769.0239868" x2="1623.1999512" y2="774.9760132"/>
		<line class="st1" x1="1672.8000488" y1="769.0239868" x2="1672.8000488" y2="774.9760132"/>
		<line class="st1" x1="1697.5999756" y1="769.0239868" x2="1697.5999756" y2="774.9760132"/>
		<line class="st1" x1="1722.4000244" y1="769.0239868" x2="1722.4000244" y2="774.9760132"/>
		<line class="st1" x1="1747.1999512" y1="769.0239868" x2="1747.1999512" y2="774.9760132"/>
		<line class="st1" x1="1772" y1="769.0239868" x2="1772" y2="774.9760132"/>
		<line class="st1" x1="1796.8000488" y1="769.0239868" x2="1796.8000488" y2="774.9760132"/>
		<line class="st1" x1="1821.5999756" y1="769.0239868" x2="1821.5999756" y2="774.9760132"/>
		<line class="st1" x1="1846.4000244" y1="769.0239868" x2="1846.4000244" y2="774.9760132"/>
		<line class="st1" x1="1871.1999512" y1="769.0239868" x2="1871.1999512" y2="774.9760132"/>
		<line class="st1" x1="1920.8000488" y1="769.0239868" x2="1920.8000488" y2="774.9760132"/>
		<line class="st1" x1="1945.5999756" y1="769.0239868" x2="1945.5999756" y2="774.9760132"/>
		<line class="st1" x1="1970.4000244" y1="769.0239868" x2="1970.4000244" y2="774.9760132"/>
		<line class="st1" x1="1995.1999512" y1="769.0239868" x2="1995.1999512" y2="774.9760132"/>
		<line class="st1" x1="2020" y1="769.0239868" x2="2020" y2="774.9760132"/>
		<line class="st1" x1="2044.8000488" y1="769.0239868" x2="2044.8000488" y2="774.9760132"/>
		<line class="st1" x1="2069.6000977" y1="769.0239868" x2="2069.6000977" y2="774.9760132"/>
		<line class="st1" x1="2094.3999023" y1="769.0239868" x2="2094.3999023" y2="774.9760132"/>
		<line class="st1" x1="2119.1999512" y1="769.0239868" x2="2119.1999512" y2="774.9760132"/>
		<line class="st1" x1="2168.8000488" y1="769.0239868" x2="2168.8000488" y2="774.9760132"/>
		<line class="st1" x1="2193.6000977" y1="769.0239868" x2="2193.6000977" y2="774.9760132"/>
		<line class="st1" x1="2218.3999023" y1="769.0239868" x2="2218.3999023" y2="774.9760132"/>
		<line class="st1" x1="2243.1999512" y1="769.0239868" x2="2243.1999512" y2="774.9760132"/>
		<line class="st1" x1="2268" y1="769.0239868" x2="2268" y2="774.9760132"/>
		<line class="st1" x1="2292.8000488" y1="769.0239868" x2="2292.8000488" y2="774.9760132"/>
		<line class="st1" x1="2317.6000977" y1="769.0239868" x2="2317.6000977" y2="774.9760132"/>
		<line class="st1" x1="2342.3999023" y1="769.0239868" x2="2342.3999023" y2="774.9760132"/>
		<line class="st1" x1="2367.1999512" y1="769.0239868" x2="2367.1999512" y2="774.9760132"/>
	</g>
	<g transform="translate(250,869.2853)">
		<text transform="matrix(1 0 0 1 650 -72)" class="st2 st3">0</text>
	</g>
	<g transform="translate(498,869.2853)">
		<text transform="matrix(1 0 0 1 639.5 -72)" class="st2 st3">2000</text>
	</g>
	<g transform="translate(746,869.2853)">
		<text transform="matrix(1 0 0 1 639.5 -72)" class="st2 st3">4000</text>
	</g>
	<g transform="translate(994,869.2853)">
		<text transform="matrix(1 0 0 1 639.5 -72)" class="st2 st3">6000</text>
	</g>
	<g transform="translate(1242,869.2853)">
		<text transform="matrix(1 0 0 1 639.5 -72)" class="st2 st3">8000</text>
	</g>
	<g transform="translate(1490,869.2853)">
		<text transform="matrix(1 0 0 1 635.5 -72)" class="st2 st3">10000</text>
	</g>
	<g transform="translate(1738,869.2853)">
		<text transform="matrix(1 0 0 1 635.5 -72)" class="st2 st3">12000</text>
	</g>
	<g transform="translate(994.0007,887.6187)">
		<text transform="matrix(1 0 0 1 602 -70)" class="st2 st4">Frequency (Hz)</text>
	</g>
	<g>
		<line class="st1" x1="904" y1="772" x2="904" y2="-14"/>
		<line class="st1" x1="909.9520264" y1="772" x2="898.0479736" y2="772"/>
		<line class="st1" x1="909.9520264" y1="684.666687" x2="898.0479736" y2="684.666687"/>
		<line class="st1" x1="909.9520264" y1="597.333313" x2="898.0479736" y2="597.333313"/>
		<line class="st1" x1="909.9520264" y1="510" x2="898.0479736" y2="510"/>
		<line class="st1" x1="909.9520264" y1="422.666687" x2="898.0479736" y2="422.666687"/>
		<line class="st1" x1="909.9520264" y1="335.333313" x2="898.0479736" y2="335.333313"/>
		<line class="st1" x1="909.9520264" y1="248" x2="898.0479736" y2="248"/>
		<line class="st1" x1="909.9520264" y1="160.6667023" x2="898.0479736" y2="160.6667023"/>
		<line class="st1" x1="909.9520264" y1="73.3332977" x2="898.0479736" y2="73.3332977"/>
		<line class="st1" x1="909.9520264" y1="-14" x2="898.0479736" y2="-14"/>
	</g>
	<g transform="translate(238.7147,858)">
		<text transform="matrix(1 0 0 1 646 -80.5)" class="st2 st3">0</text>
	</g>
	<g transform="translate(238.7147,770.6667)">
		<text transform="matrix(1 0 0 1 635 -80.5)" class="st2 st3">0.2</text>
	</g>
	<g transform="translate(238.7147,683.3333)">
		<text transform="matrix(1 0 0 1 635 -80.5)" class="st2 st3">0.4</text>
	</g>
	<g transform="translate(238.7147,596)">
		<text transform="matrix(1 0 0 1 635 -80.5)" class="st2 st3">0.6</text>
	</g>
	<g transform="translate(238.7147,508.6667)">
		<text transform="matrix(1 0 0 1 635 -80.5)" class="st2 st3">0.8</text>
	</g>
	<g transform="translate(238.7147,421.3333)">
		<text transform="matrix(1 0 0 1 646 -80.5)" class="st2 st3">1</text>
	</g>
	<g transform="translate(238.7147,334)">
		<text transform="matrix(1 0 0 1 635 -80.5)" class="st2 st3">1.2</text>
	</g>
	<g transform="translate(238.7147,246.6667)">
		<text transform="matrix(1 0 0 1 635 -80.5000153)" class="st2 st3">1.4</text>
	</g>
	<g transform="translate(238.7147,159.3333)">
		<text transform="matrix(1 0 0 1 635 -80.4999847)" class="st2 st3">1.6</text>
	</g>
	<g transform="translate(238.7147,72)">
		<text transform="matrix(1 0 0 1 635 -80.5)" class="st2 st3">1.8</text>
	</g>
	<g transform="translate(215.7147,464.9996) rotate(-90)">
		<text transform="matrix(1 0 0 1 40.4996033 650)" class="st2 st4">Amplitude (V)</text>
	</g>
	<g transform="translate(994.001,69.25)">
		<text transform="matrix(1 0 0 1 571 -90)" class="st5 st4">Spectrum analyzer plot</text>
	</g>
	<g>
		<path class="st6" d="M904,766.3009033l5.8125-5.7420044l5.8125-0.1309814l5.8125-0.2247925l5.8125-0.3294067l5.8125-0.4509277
			l5.8125-0.5974731l5.8125-0.7816162l5.8125-1.0219116l5.8125-1.3496094l5.8125-1.8184814l5.8125-2.5302124l5.8125-3.6953125
			l5.8125-5.8137817l5.8125-10.331665l5.8125-23.104248L997,612.6516113l5.8125-118.1188354l5.8125,205.3727417l5.8125,31.2215576
			l5.8125,12.562439l5.8125,6.7415771l5.8125,4.1777954l5.8131104,2.8220215L1043.5,759.4481812l5.8131104,1.4996948
			l5.8118896,1.1462402l5.8131104,0.8928833l5.8118896,0.7042236l5.8131104,0.5588989l5.8118896,0.4433594l5.8131104,0.348999
			L1090,765.3120117l5.8131104,0.2005615l5.8118896,0.1393433l5.8131104,0.0821533l5.8118896,0.0276489l5.8131104-0.0267334
			l5.8118896-0.0835571l5.8131104-0.1453247L1136.5,765.2902832l5.8131104-0.2999878l5.8118896-0.4055786l5.8131104-0.5449219
			l5.8118896-0.7387695l5.8131104-1.0263062l5.8118896-1.4866333l5.8131104-2.3034668L1183,754.4956055l5.8131104-8.4866333
			L1194.625,715.979187l5.8131104-144.6546021L1206.25,739.0402832l5.8131104,15.9038086l5.8118896,5.9923096l5.8131104,3.1453857
			L1229.5,766.0194702l5.8131104,1.3122559l5.8118896,0.9438477l5.8131104,0.7058105l5.8118896,0.5380859l5.8131104,0.4095459
			l5.8118896,0.3009644l5.8131104,0.2019043L1276,770.5391235l5.8131104,0.019165l5.8118896-0.0568848l5.8131104-0.1179199
			l5.8118896-0.1651001l5.8131104-0.2027588l5.8118896-0.2354126l5.8131104-0.2667236L1322.5,769.2139282l5.8131104-0.336853
			l5.8118896-0.3811646l5.8131104-0.435791l5.8118896-0.5049438l5.8131104-0.5946045l5.8118896-0.7139893l5.8131104-0.8778076
			L1369,764.2583008l5.8131104-1.4570313l5.8118896-2.0044556l5.8131104-2.9448853l5.8118896-4.7701416l5.8131104-9.0935669
			l5.8118896-24.2869263l5.8131104-274.9309692L1415.5,692.3446045l5.8131104,43.6309814l5.8118896,12.5513306l5.8131104,5.9661865
			l5.8118896,3.4907837l5.8131104,2.2941895l5.8118896,1.6245117l5.8131104,1.2120361L1462,764.0546265l5.8131104,0.7507935
			l5.8118896,0.6141968l5.8131104,0.512085l5.8118896,0.4337769l5.8131104,0.3726196l5.8118896,0.3236084l5.8131104,0.2838745
			L1508.5,767.5969238l5.8131104,0.223999l5.8118896,0.2010498l5.8131104,0.1816406l5.8118896,0.164978l5.8131104,0.1506348
			l5.8118896,0.1380005l5.8131104,0.1269531L1555,768.9016113l5.8131104,0.1087646l5.8118896,0.1011963l5.8131104,0.0944214
			l5.8118896,0.0883789l5.8131104,0.0828247l5.8118896,0.0778809l5.8131104,0.0734253L1601.5,769.5977783l5.8131104,0.0657349
			l5.8118896,0.0620728l5.8131104,0.0591431l5.8118896,0.0562744l5.8131104,0.0537109l5.8118896,0.0512085l5.8131104,0.0489502
			L1648,770.0418091l5.8131104,0.045105l5.8118896,0.0432739l5.8131104,0.041687l5.8118896,0.0402222l5.8131104,0.0388794
			l5.8118896,0.0375977l5.8131104,0.036438L1694.5,770.3604126l5.8131104,0.0343628l5.8118896,0.0335083l5.8131104,0.0328369
			l5.8118896,0.0321045l5.8131104,0.0314941l5.8118896,0.0308838l5.8131104,0.0305786L1741,770.616394l5.8131104,0.0300293
			l5.8118896,0.0298462l5.8131104,0.0298462L1764.25,770.736084l5.8131104,0.0300903l5.8118896,0.0305176l5.8131104,0.0308838
			L1787.5,770.8590698l5.8131104,0.0321045l5.8118896,0.0328369l5.8131104,0.0333862l5.8118896,0.0336914l5.8131104,0.0335083
			l5.8118896,0.0322266l5.8131104,0.0285034L1834,771.1062012l5.8131104,0.0059814l5.8118896-0.020813l5.8131104-0.0665894
			l5.8118896-0.1397095l5.8131104-0.2511597l5.8118896-0.4233398l5.8131104-0.7108765L1880.5,768.2276001l5.8131104-2.6776123
			l5.8118896-8.5375977l5.8131104-247.0324707L1903.75,755.3787842l5.8131104,7.1185303l5.8118896,2.4248047l5.8131104,1.1972046
			L1927,766.8145142l5.8131104,0.439209l5.8118896,0.2893066l5.8131104,0.1925659l5.8118896,0.1248779l5.8131104,0.0743408
			l5.8118896,0.0340576l5.8131104,0.0003052L1973.5,767.9395142l5.8131104-0.0578003l5.8118896-0.0852051l5.8131104-0.1132813
			l5.8118896-0.1430054l5.8131104-0.1758423l5.8118896-0.2124634l5.8131104-0.2553101L2020,766.5905762l5.8131104-0.3678589
			l5.8118896-0.4449463l5.8131104-0.543457l5.8118896-0.6733398l5.8129883-0.8497925l5.8120117-1.0993652l5.8129883-1.4700317
			L2066.5,759.0858154l5.8129883-3.0667114l5.8120117-5.0447998l5.8129883-9.8087769L2089.75,713.9321289l5.8129883-451.3256226
			L2101.375,696.8903198l5.8129883,40.1239624L2113,749.1798706l5.8129883,5.8727417l5.8120117,3.4555664l5.8129883,2.2740479
			L2136.25,762.390686l5.8129883,1.1968384l5.8183594,0.9244995l5.8029785,0.7351685L2159.5,765.8453979l5.8156738,0.4959717
			l5.8156738,0.4176025l5.8029785,0.3564453l5.8156738,0.3074951l5.8156738,0.2677612l5.8156738,0.2354126l5.8029785,0.2084961
			L2206,768.3203735l5.8156738,0.166626l5.8156738,0.1502075l5.8029785,0.1361084l5.8156738,0.1239014l5.8156738,0.1130981
			l5.8156738,0.1037598l5.8029785,0.09552L2252.5,769.2977905l5.8156738,0.0817261l5.8156738,0.0758057l5.8029785,0.0705566
			l5.8156738,0.0657959l5.8156738,0.0617065l5.8156738,0.0577393l5.8029785,0.0542603L2299,769.8164063l5.8156738,0.0482178
			l5.8156738,0.0453491l5.8029785,0.0429077l5.8156738,0.0408325l5.8156738,0.0385742l5.8156738,0.0366821l5.8029785,0.0348511
			L2345.5,770.137085l5.8156738,0.0317383l5.8156738,0.0301514l5.8029785,0.0288086l5.8156738,0.02771l5.8156738,0.0264893
			l5.8156738,0.0253296l5.8029785,0.0244141L2392,770.3549805l0.1489258,0.0006104"/>
	</g>
</g>
</svg>
