<?xml version="1.0" encoding="utf-8"?>
<!-- Generator: Adobe Illustrator 19.0.0, SVG Export Plug-In . SVG Version: 6.00 Build 0)  -->
<svg version="1.1" id="Layer_1" xmlns="http://www.w3.org/2000/svg" xmlns:xlink="http://www.w3.org/1999/xlink" x="0px" y="0px"
	 viewBox="852.8427734 -12.6191406 1544.5238037 821.109375"
	 style="enable-background:new 852.8427734 -12.6191406 1544.5238037 821.109375;" xml:space="preserve">
<style type="text/css">
	
		.st0{fill:none;stroke:#FFFFFF;stroke-width:0.6667;stroke-linejoin:bevel;stroke-miterlimit:1;stroke-opacity:0.502;stroke-dasharray:1,3;}
	.st1{fill:none;stroke:#000000;stroke-width:0.6667;stroke-linecap:square;stroke-linejoin:round;stroke-miterlimit:10;}
	.st2{font-family:'ArialMT';}
	.st3{font-size:13px;}
	.st4{font-size:11px;}
	.st5{font-size:15px;}
	.st6{font-family:'Arial-BoldMT';}
	.st7{fill:none;stroke:#FF8000;stroke-width:0.6667;stroke-linejoin:round;stroke-miterlimit:10;}
	.st8{fill:none;stroke:#FFFFDC;stroke-width:1.3333;stroke-miterlimit:10;}
	.st9{fill:#FFFFEE;}
	.st10{fill:none;stroke:#CCCCCC;stroke-width:0.6667;stroke-miterlimit:10;}
	.st11{fill-opacity:0.3922;}
	.st12{fill:none;stroke:#FFFFDC;stroke-width:1.3333;stroke-miterlimit:10;stroke-opacity:0.3922;}
</style>
<g>
	<g>
		<path d="M904,754h1488V7H904V754z"/>
	</g>
	<g>
		<line class="st0" x1="1039.6948242" y1="754" x2="1039.6948242" y2="7"/>
		<line class="st0" x1="1119.071167" y1="754" x2="1119.071167" y2="7"/>
		<line class="st0" x1="1175.3896484" y1="754" x2="1175.3896484" y2="7"/>
		<line class="st0" x1="1219.0736084" y1="754" x2="1219.0736084" y2="7"/>
		<line class="st0" x1="1254.7659912" y1="754" x2="1254.7659912" y2="7"/>
		<line class="st0" x1="1284.9434814" y1="754" x2="1284.9434814" y2="7"/>
		<line class="st0" x1="1311.0844727" y1="754" x2="1311.0844727" y2="7"/>
		<line class="st0" x1="1334.142334" y1="754" x2="1334.142334" y2="7"/>
		<line class="st0" x1="1490.4631348" y1="754" x2="1490.4631348" y2="7"/>
		<line class="st0" x1="1569.8395996" y1="754" x2="1569.8395996" y2="7"/>
		<line class="st0" x1="1626.157959" y1="754" x2="1626.157959" y2="7"/>
		<line class="st0" x1="1669.842041" y1="754" x2="1669.842041" y2="7"/>
		<line class="st0" x1="1705.5344238" y1="754" x2="1705.5344238" y2="7"/>
		<line class="st0" x1="1735.711792" y1="754" x2="1735.711792" y2="7"/>
		<line class="st0" x1="1761.8527832" y1="754" x2="1761.8527832" y2="7"/>
		<line class="st0" x1="1784.9107666" y1="754" x2="1784.9107666" y2="7"/>
		<line class="st0" x1="1941.2315674" y1="754" x2="1941.2315674" y2="7"/>
		<line class="st0" x1="2020.6080322" y1="754" x2="2020.6080322" y2="7"/>
		<line class="st0" x1="2076.9262695" y1="754" x2="2076.9262695" y2="7"/>
		<line class="st0" x1="2120.6103516" y1="754" x2="2120.6103516" y2="7"/>
		<line class="st0" x1="2156.3027344" y1="754" x2="2156.3027344" y2="7"/>
		<line class="st0" x1="2186.4802246" y1="754" x2="2186.4802246" y2="7"/>
		<line class="st0" x1="2212.6210938" y1="754" x2="2212.6210938" y2="7"/>
		<line class="st0" x1="2235.6791992" y1="754" x2="2235.6791992" y2="7"/>
		<line class="st0" x1="904" y1="754" x2="904" y2="7"/>
		<line class="st0" x1="1354.7683105" y1="754" x2="1354.7683105" y2="7"/>
		<line class="st0" x1="1805.5367432" y1="754" x2="1805.5367432" y2="7"/>
		<line class="st0" x1="2256.3051758" y1="754" x2="2256.3051758" y2="7"/>
		<line class="st0" x1="2392" y1="754" x2="904" y2="754"/>
		<line class="st0" x1="2392" y1="679.2999878" x2="904" y2="679.2999878"/>
		<line class="st0" x1="2392" y1="604.5999756" x2="904" y2="604.5999756"/>
		<line class="st0" x1="2392" y1="529.9000244" x2="904" y2="529.9000244"/>
		<line class="st0" x1="2392" y1="455.2000122" x2="904" y2="455.2000122"/>
		<line class="st0" x1="2392" y1="380.5" x2="904" y2="380.5"/>
		<line class="st0" x1="2392" y1="305.7999878" x2="904" y2="305.7999878"/>
		<line class="st0" x1="2392" y1="231.1000061" x2="904" y2="231.1000061"/>
		<line class="st0" x1="2392" y1="156.3999939" x2="904" y2="156.3999939"/>
		<line class="st0" x1="2392" y1="81.6999969" x2="904" y2="81.6999969"/>
		<line class="st0" x1="2392" y1="7" x2="904" y2="7"/>
	</g>
	<g>
		<line class="st1" x1="904" y1="754" x2="2392" y2="754"/>
		<line class="st1" x1="904" y1="748.0479736" x2="904" y2="759.9520264"/>
		<line class="st1" x1="1354.7683105" y1="748.0479736" x2="1354.7683105" y2="759.9520264"/>
		<line class="st1" x1="1805.5367432" y1="748.0479736" x2="1805.5367432" y2="759.9520264"/>
		<line class="st1" x1="2256.3051758" y1="748.0479736" x2="2256.3051758" y2="759.9520264"/>
		<line class="st1" x1="1039.6948242" y1="751.0239868" x2="1039.6948242" y2="756.9760132"/>
		<line class="st1" x1="1119.071167" y1="751.0239868" x2="1119.071167" y2="756.9760132"/>
		<line class="st1" x1="1175.3896484" y1="751.0239868" x2="1175.3896484" y2="756.9760132"/>
		<line class="st1" x1="1219.0736084" y1="751.0239868" x2="1219.0736084" y2="756.9760132"/>
		<line class="st1" x1="1254.7659912" y1="751.0239868" x2="1254.7659912" y2="756.9760132"/>
		<line class="st1" x1="1284.9434814" y1="751.0239868" x2="1284.9434814" y2="756.9760132"/>
		<line class="st1" x1="1311.0844727" y1="751.0239868" x2="1311.0844727" y2="756.9760132"/>
		<line class="st1" x1="1334.142334" y1="751.0239868" x2="1334.142334" y2="756.9760132"/>
		<line class="st1" x1="1490.4631348" y1="751.0239868" x2="1490.4631348" y2="756.9760132"/>
		<line class="st1" x1="1569.8395996" y1="751.0239868" x2="1569.8395996" y2="756.9760132"/>
		<line class="st1" x1="1626.157959" y1="751.0239868" x2="1626.157959" y2="756.9760132"/>
		<line class="st1" x1="1669.842041" y1="751.0239868" x2="1669.842041" y2="756.9760132"/>
		<line class="st1" x1="1705.5344238" y1="751.0239868" x2="1705.5344238" y2="756.9760132"/>
		<line class="st1" x1="1735.711792" y1="751.0239868" x2="1735.711792" y2="756.9760132"/>
		<line class="st1" x1="1761.8527832" y1="751.0239868" x2="1761.8527832" y2="756.9760132"/>
		<line class="st1" x1="1784.9107666" y1="751.0239868" x2="1784.9107666" y2="756.9760132"/>
		<line class="st1" x1="1941.2315674" y1="751.0239868" x2="1941.2315674" y2="756.9760132"/>
		<line class="st1" x1="2020.6080322" y1="751.0239868" x2="2020.6080322" y2="756.9760132"/>
		<line class="st1" x1="2076.9262695" y1="751.0239868" x2="2076.9262695" y2="756.9760132"/>
		<line class="st1" x1="2120.6103516" y1="751.0239868" x2="2120.6103516" y2="756.9760132"/>
		<line class="st1" x1="2156.3027344" y1="751.0239868" x2="2156.3027344" y2="756.9760132"/>
		<line class="st1" x1="2186.4802246" y1="751.0239868" x2="2186.4802246" y2="756.9760132"/>
		<line class="st1" x1="2212.6210938" y1="751.0239868" x2="2212.6210938" y2="756.9760132"/>
		<line class="st1" x1="2235.6791992" y1="751.0239868" x2="2235.6791992" y2="756.9760132"/>
	</g>
	<g transform="translate(239,845)">
		<text transform="matrix(1 0 0 1 654 -62)" class="st2 st3">10</text>
	</g>
	<g transform="translate(254,839)">
		<text transform="matrix(1 0 0 1 654 -62)" class="st2 st4">1</text>
	</g>
	<g transform="translate(690,845)">
		<text transform="matrix(1 0 0 1 654 -62)" class="st2 st3">10</text>
	</g>
	<g transform="translate(705,839)">
		<text transform="matrix(1 0 0 1 654 -62)" class="st2 st4">2</text>
	</g>
	<g transform="translate(1141,845)">
		<text transform="matrix(1 0 0 1 654 -62)" class="st2 st3">10</text>
	</g>
	<g transform="translate(1156,839)">
		<text transform="matrix(1 0 0 1 654 -62)" class="st2 st4">3</text>
	</g>
	<g transform="translate(1591,845)">
		<text transform="matrix(1 0 0 1 654 -62)" class="st2 st3">10</text>
	</g>
	<g transform="translate(1606,839)">
		<text transform="matrix(1 0 0 1 654 -62)" class="st2 st4">4</text>
	</g>
	<g transform="translate(994.0007,849.6187)">
		<text transform="matrix(1 0 0 1 602 -46)" class="st2 st5">Frequency (Hz)</text>
	</g>
	<g>
		<line class="st1" x1="904" y1="754" x2="904" y2="7"/>
		<line class="st1" x1="909.9520264" y1="754" x2="898.0479736" y2="754"/>
		<line class="st1" x1="909.9520264" y1="679.2999878" x2="898.0479736" y2="679.2999878"/>
		<line class="st1" x1="909.9520264" y1="604.5999756" x2="898.0479736" y2="604.5999756"/>
		<line class="st1" x1="909.9520264" y1="529.9000244" x2="898.0479736" y2="529.9000244"/>
		<line class="st1" x1="909.9520264" y1="455.2000122" x2="898.0479736" y2="455.2000122"/>
		<line class="st1" x1="909.9520264" y1="380.5" x2="898.0479736" y2="380.5"/>
		<line class="st1" x1="909.9520264" y1="305.7999878" x2="898.0479736" y2="305.7999878"/>
		<line class="st1" x1="909.9520264" y1="231.1000061" x2="898.0479736" y2="231.1000061"/>
		<line class="st1" x1="909.9520264" y1="156.3999939" x2="898.0479736" y2="156.3999939"/>
		<line class="st1" x1="909.9520264" y1="81.6999969" x2="898.0479736" y2="81.6999969"/>
		<line class="st1" x1="909.9520264" y1="7" x2="898.0479736" y2="7"/>
	</g>
	<g transform="translate(238.7147,816)">
		<text transform="matrix(1 0 0 1 635 -56.5)" class="st2 st3">-90</text>
	</g>
	<g transform="translate(238.7147,741.3)">
		<text transform="matrix(1 0 0 1 635 -56.5)" class="st2 st3">-80</text>
	</g>
	<g transform="translate(238.7147,666.6)">
		<text transform="matrix(1 0 0 1 635 -56.5)" class="st2 st3">-70</text>
	</g>
	<g transform="translate(238.7147,591.9)">
		<text transform="matrix(1 0 0 1 635 -56.5)" class="st2 st3">-60</text>
	</g>
	<g transform="translate(238.7147,517.2)">
		<text transform="matrix(1 0 0 1 635 -56.5)" class="st2 st3">-50</text>
	</g>
	<g transform="translate(238.7147,442.5)">
		<text transform="matrix(1 0 0 1 635 -56.5)" class="st2 st3">-40</text>
	</g>
	<g transform="translate(238.7147,367.8)">
		<text transform="matrix(1 0 0 1 635 -56.5)" class="st2 st3">-30</text>
	</g>
	<g transform="translate(238.7147,293.1)">
		<text transform="matrix(1 0 0 1 635 -56.5000305)" class="st2 st3">-20</text>
	</g>
	<g transform="translate(238.7147,218.4)">
		<text transform="matrix(1 0 0 1 635 -56.4999695)" class="st2 st3">-10</text>
	</g>
	<g transform="translate(238.7147,143.7)">
		<text transform="matrix(1 0 0 1 646 -56.4999847)" class="st2 st3">0</text>
	</g>
	<g transform="translate(238.7147,69)">
		<text transform="matrix(1 0 0 1 639 -56.5)" class="st2 st3">10</text>
	</g>
	<g transform="translate(215.7147,442.4996) rotate(-90)">
		<text transform="matrix(1 0 0 1 29.4996033 650)" class="st2 st5">Gain (dB)</text>
	</g>
	<g transform="translate(994.001,66.25)">
		<text transform="matrix(1 0 0 1 619 -66)" class="st6 st5">Bode plot</text>
	</g>
	<g>
		<path class="st7" d="M904,81.6811981h0.4517212h0.4506836h0.449585h0.4505005h0.4515381h0.4502563h0.4512939h0.4503174h0.4511108
			h0.4500732h0.4510498h0.4517822h0.4508057h0.4497681h0.4506226h0.4514771h0.4503784h0.4512939h0.4502563h0.4511108h0.4500732
			h0.4509277h0.4516602h0.4506226h0.449585h0.4523315h0.4493408h0.4520264h0.4492188h0.4517822h0.4506836h0.4515381h0.4504395
			h0.449585h0.4520264h0.4510498h0.4498901h0.4508057h0.451355h0.4505615h0.4510498h0.4501953h0.4509277h0.4498291h0.4505615
			h0.4512939h0.4503174h0.4509888h0.4517212h0.4506836h0.449585h0.4521484h0.4509277h0.4500732h0.4506836h0.451416h0.4502563
			h0.4511108h0.4498901h0.4507446h0.4512939h0.4503174h0.4508667h0.4515991h0.4505615h0.4512329h0.4501343h0.4508057h0.451416
			h0.4504395h0.4509888h0.4500122h0.4505615h0.4512939h0.4502563h0.4507446h0.451416h0.4504395h0.4509277h0.4499512h0.4521484
			h0.4494629h0.4516602h0.4506226h0.4512329h0.4501953h0.4508057h0.4512939h0.4503174h0.4508667h0.4497681h0.4519043h0.4509277
			h0.4498901h0.4503784h0.4509277h0.4515381h0.4503784h0.4509888h0.451416h0.4505005h0.4508667h0.4500122h0.4503784h0.4509277
			h0.451416h0.4503784h0.4508667h0.451416h0.4503174h0.4508057h0.4512939h0.4503174h0.4506836h0.4511108h0.4501953h0.4506226
			h0.4510498h0.4500122h0.4520264h0.4508667h0.4499512h0.4502563h0.4508057h0.4512329h0.4516602h0.4506226h0.4495239h0.4514771
			h0.4503784h0.4508057h0.4511719h0.4501953h0.4506836h0.4509277h0.451416h0.4503174h0.4506836h0.4511719h0.4501343h0.4519043
			h0.4508057h0.4497681h0.4516602h0.4504395h0.4510498h0.4498901h0.4515991h0.4505615h0.4509277h0.4498901h0.4517212h0.4505005
			h0.4509888h0.4498901h0.4515991h0.4505005h0.4508667h0.4512329h0.4501953h0.4505005h0.4508057h0.4511108h0.4500122h0.4517822
			h0.4506836h0.4509277h0.4499512h0.4515381h0.4505005h0.4508667h0.4510498h0.4500732h0.4503174h0.4519043h0.449585h0.4511108
			h0.4514771H984.6875h0.4506836h0.4508057h0.4511719h0.4501343h0.4515991l0.4505615-0.0007019h0.4508057h0.4498291h0.4512939
			h0.4503174h0.4516602h0.4507446h0.4509888h0.4498901h0.451416h0.4502563h0.4506836h0.4506836h0.4509888h0.4511719h0.4501343
			h0.4515381h0.4505615h0.4506836h0.4509277h0.4510498h0.4500122h0.4514771h0.4504395h0.4505615h0.4506836h0.4510498h0.4510498
			h0.4500732h0.451416h0.4503174h0.4506836h0.4506836h0.4508057h0.4509277h0.4511719h0.4500732h0.451416h0.4503784h0.4505005
			h0.4505615h0.4508057h0.4509277h0.4509888h0.4511108h0.4500732h0.451416h0.4503174h0.4515991h0.4505005h0.4506836h0.4506836
			h0.4508057h0.4510498h0.4498291h0.4511719h0.4511719h0.4501953h0.451416h0.4503174h0.4504395h0.4516602h0.4504395h0.4507446
			h0.4506836h0.4508057h0.4508057h0.4508667h0.4510498h0.4498901h0.4509888h0.4511108h0.4500732h0.4512329h0.4512939h0.4501953
			h0.4512939h0.4503174h0.4503174h0.451355h0.4503784h0.4515381h0.4503174h0.4505615h0.4504395h0.4515381h0.4505615h0.4504395
			h0.4505615h0.4515381h0.4505615h0.4504395h0.4506836h0.451416h0.4506836h0.4504395h0.4504395h0.4515381h0.4505615h0.4504395
			h0.4504395h0.451416h0.4504395h0.4512939h0.4504395h0.4503174h0.4511719h0.4503174h0.4511719h0.4512939h0.4500732h0.4510498
			h0.4510498h0.4499512h0.4509277h0.4508057h0.4509277h0.4506836h0.4508057h0.4505615h0.4515381h0.4504395h0.4504395h0.4512939
			h0.4503174h0.4511719h0.4500732h0.4510498h0.4510498h0.4506836h0.4506836h0.4506836h0.4505615h0.4515381h0.4503174h0.4511719
			h0.4501953h0.4510498h0.4508057h0.4508057h0.4506836h0.4506836h0.4503174h0.4512939h0.4503174h0.4510498h0.4509277h0.4506836
			h0.4506836h0.4504395h0.451416h0.4501953h0.4510498h0.4509277h0.4508057h0.4505615h0.4505615h0.4511719l0.4510498-0.0005951
			h0.4500732h0.4506836h0.4515381h0.4505615h0.4510498h0.4501953h0.4508057h0.4506836h0.4506836h0.4511719h0.4510498h0.4500732
			h0.4506836h0.451416h0.4503174h0.4510498h0.4509277h0.4506836h0.4504395h0.4511719h0.4501953h0.4506836h0.451416h0.4504395
			h0.4510498h0.4508057h0.4506836h0.4504395h0.4510498h0.4508057h0.4506836h0.4504395h0.4510498h0.4508057h0.4506836h0.4511719
			h0.4501953h0.4506836h0.451416h0.4503174h0.4510498h0.4505615h0.4505615h0.4509277h0.4508057h0.4505615h0.4511719h0.4508057
			h0.4506836h0.4503174h0.4509277h0.4508057h0.4511719h0.4501953h0.4515381h0.4504395h0.4509277h0.4508057h0.4503174h0.4510498
			h0.4506836h0.4505615h0.4509277h0.4506836h0.4511719h0.4501953h0.451416h0.4501953h0.4509277h0.4505615h0.4510498h0.4506836
			h0.4505615h0.4509277h0.4506836h0.4510498h0.4508057h0.4505615h0.4509277h0.4506836h0.4510498h0.4508057h0.4504395h0.4510498
			h0.4505615h0.4503174h0.4506836h0.4512939h0.4508057h0.4505615l0.4509277-0.0007019h0.4506836h0.4509277h0.4506836h0.4504395
			h0.4508057h0.4510498h0.4509277h0.4504395h0.4509277h0.4504395h0.4510498h0.4504395h0.4510498h0.4505615h0.4510498h0.4505615
			h0.4509277h0.4506836h0.4510498h0.4505615h0.4509277h0.4506836h0.4509277h0.4505615h0.4509277h0.4505615h0.4508057h0.4505615
			h0.4508057h0.4511719h0.4508057h0.4503174h0.4506836h0.4511719h0.4505615h0.4509277h0.4505615h0.4508057h0.4511719h0.4508057
			h0.4501953h0.4506836h0.4509277h0.4511719h0.4508057h0.4503174h0.4506836h0.4509277h0.4511719h0.4501953h0.4509277h0.4506836
			h0.4509277h0.4510498h0.4506836h0.4509277h0.4504395h0.4508057h0.4510498h0.4504395h0.4508057h0.4510498h0.4505615
			l0.4508057-0.0005951h0.4503174h0.4511719h0.4508057h0.4504395h0.4511719h0.4506836h0.4509277h0.4505615h0.4506836h0.4508057
			h0.4505615h0.4511719h0.4508057h0.4503174h0.4511719h0.4506836h0.4508057h0.4504395h0.4511719h0.4506836h0.4509277h0.4504395
			h0.4505615h0.4512939h0.4501953h0.4510498h0.4504395h0.4512939h0.4508057h0.4503174h0.4510498h0.4506836h0.4506836h0.4508057
			h0.4509277h0.4504395h0.4510498h0.4508057h0.4508057h0.4506836h0.4505615h0.4510498h0.4505615h0.4506836h0.4508057h0.4508057
			h0.4510498h0.4503174l0.4511719-0.0007019h0.4505615h0.4506836h0.4506836h0.4508057h0.4509277h0.4509277h0.4504395h0.4510498
			h0.4504395h0.4511719h0.4506836h0.4506836h0.4508057h0.4506836h0.4509277h0.4508057h0.4509277h0.4503174h0.4509277h0.4510498
			h0.4504395h0.4510498h0.4504395h0.4510498h0.4504395h0.4511719h0.4505615h0.4505615h0.4510498h0.4505615h0.4510498h0.4505615
			h0.4506836h0.4509277h0.4504395h0.4511719h0.4504395h0.4510498h0.4505615l0.4509277-0.0005951h0.4509277h0.4504395h0.4506836
			h0.4509277h0.4509277h0.4506836h0.4508057h0.4508057h0.4504395h0.4511719h0.4504395h0.4511719h0.4504395h0.4509277h0.4508057
			h0.4508057h0.4506836h0.4506836h0.4506836h0.4509277h0.4509277h0.4504395h0.4508057h0.4506836h0.4510498h0.4506836h0.4509277
			h0.4508057h0.4508057h0.4506836h0.4505615h0.4510498h0.4504395l0.4506836-0.0007019h0.4511719h0.4504395h0.4511719h0.4506836
			h0.4506836h0.4506836h0.4509277h0.4503174h0.4512939h0.4504395h0.4511719h0.4501953h0.4511719h0.4505615h0.4508057h0.4508057
			h0.4505615h0.4509277h0.4509277h0.4505615h0.4508057h0.4509277h0.4506836h0.4504395h0.4509277h0.4509277h0.4505615h0.4508057
			l0.4509277-0.0006104h0.4505615h0.4508057h0.4509277h0.4509277h0.4506836h0.4508057h0.4508057h0.4505615h0.4508057h0.4506836
			h0.4508057h0.4508057h0.4509277h0.4508057h0.4505615h0.4508057h0.4505615h0.4509277h0.4506836h0.4508057h0.4508057h0.4506836
			h0.4506836h0.4509277h0.4506836l0.4509277-0.0005951h0.4506836h0.4508057h0.4508057h0.4506836h0.4506836h0.4506836h0.4510498
			h0.4508057h0.4504395h0.4512939h0.4503174h0.4506836h0.4509277h0.4509277h0.4506836h0.4509277h0.4506836h0.4508057h0.4505615
			h0.4506836h0.4509277h0.4506836l0.4510498-0.0007019h0.4505615h0.4509277h0.4508057h0.4505615h0.4509277h0.4506836h0.4505615
			h0.4510498h0.4506836h0.4506836h0.4506836h0.4511719h0.4506836h0.4504395h0.4509277h0.4506836h0.4509277h0.4506836h0.4506836
			h0.4506836l0.4508057-0.0005951h0.4508057h0.4509277h0.4506836h0.4505615h0.4508057h0.4509277h0.4509277h0.4504395h0.4511719
			h0.4506836h0.4506836h0.4509277h0.4504395h0.4509277h0.4505615h0.4510498h0.4506836h0.4508057l0.4508057-0.0007019h0.4508057
			h0.4508057h0.4504395h0.4509277h0.4509277h0.4505615h0.4509277h0.4505615h0.4510498h0.4505615h0.4506836h0.4510498h0.4505615
			h0.4506836h0.4510498h0.4505615l0.4506836-0.0005951h0.4510498h0.4505615h0.4506836h0.4509277h0.4506836h0.4508057h0.4509277
			h0.4505615h0.4509277h0.4506836h0.4506836h0.4509277h0.4506836h0.4509277h0.4506836l0.4508057-0.0007019h0.4505615h0.4509277
			h0.4506836h0.4506836h0.4510498h0.4505615h0.4509277h0.4508057h0.4506836h0.4508057h0.4504395h0.4509277h0.4509277h0.4506836
			l0.4506836-0.0006104h0.4509277h0.4506836h0.4509277h0.4504395h0.4509277h0.4509277h0.4504395h0.4509277h0.4509277h0.4506836
			h0.4506836h0.4506836h0.4508057l0.4510498-0.0006866h0.4506836h0.4506836h0.4509277h0.4504395h0.4509277h0.4509277h0.4506836
			h0.4506836h0.4506836h0.4509277h0.4505615h0.4510498h0.4505615l0.4508057-0.0007019h0.4508057h0.4506836h0.4508057h0.4508057
			h0.4505615h0.4511719h0.4505615h0.4508057h0.4508057h0.4508057h0.4506836l0.4508057-0.0006104h0.4508057h0.4506836h0.4508057
			h0.4508057h0.4508057h0.4505615h0.4509277h0.4508057h0.4505615h0.4506836h0.4508057l0.4510498-0.0005951h0.4505615h0.4509277
			h0.4505615h0.4510498h0.4505615h0.4508057h0.4506836h0.4508057h0.4508057h0.4509277l0.4506836-0.0007019h0.4508057h0.4508057
			h0.4505615h0.4506836h0.4509277h0.4506836h0.4508057h0.4508057h0.4508057h0.4508057l0.4506836-0.0005951h0.4508057h0.4508057
			h0.4506836h0.4509277h0.4506836h0.4506836h0.4506836h0.4509277h0.4506836l0.4506836-0.0007019h0.4509277h0.4508057h0.4508057
			h0.4506836h0.4509277h0.4506836h0.4506836h0.4506836l0.4509277-0.0005951h0.4506836h0.4506836h0.4509277h0.4508057h0.4505615
			h0.4506836h0.4509277h0.4509277h0.4506836l0.4506836-0.0007019h0.4509277h0.4506836h0.4509277h0.4506836h0.4506836h0.4506836
			h0.4506836h0.4509277l0.4506836-0.0006104h0.4508057h0.4506836h0.4510498h0.4505615h0.4508057h0.4506836h0.4508057
			l0.4508057-0.0006866h0.4508057h0.4508057h0.4506836h0.4508057h0.4505615h0.4509277h0.4509277l0.4506836-0.0006104h0.4506836
			h0.4508057h0.4508057h0.4508057h0.4508057h0.4506836h0.4508057l0.4505615-0.0007019h0.4509277h0.4508057h0.4508057h0.4508057
			h0.4505615h0.4506836h0.4509277l0.4506836-0.0005951h0.4509277h0.4508057h0.4508057h0.4506836h0.4508057h0.4506836
			l0.4508057-0.0007019h0.4506836h0.4509277h0.4505615h0.4509277h0.4506836h0.4509277l0.4506836-0.0005951h0.4506836h0.4508057
			h0.4506836h0.4508057h0.4508057h0.4506836l0.4509277-0.0007019h0.4506836h0.4508057h0.4508057h0.4506836h0.4508057h0.4508057
			l0.4506836-0.0005951h0.4508057h0.4508057h0.4506836h0.4509277h0.4506836l0.4506836-0.0007019h0.4509277h0.4506836h0.4506836
			h0.4509277h0.4506836h0.4509277l0.4506836-0.0006104h0.4506836h0.4509277h0.4506836h0.4506836h0.4506836l0.4509277-0.0005951
			h0.4506836h0.4509277h0.4506836h0.4509277h0.4504395l0.4509277-0.0007019h0.4506836h0.4506836h0.4509277h0.4506836h0.4509277
			l0.4506836-0.0005951h0.4506836h0.4509277h0.4506836h0.4506836l0.4508057-0.0007019h0.4508057h0.4506836h0.4508057h0.4508057
			h0.4506836l0.4517822-0.0007019h0.4505615h0.449707h0.4505615h0.4512939l0.4504395-0.0005951h0.451416h0.4501953h0.4511719
			h0.4500732l0.4510498-0.0007019h0.4516602h0.4509277h0.449707h0.4506836l0.451416-0.0005951h0.4505615h0.4511719h0.4501953
			h0.4512939l0.4499512-0.0007019h0.4509277h0.4516602h0.4505615h0.449585l0.4523926-0.0006104h0.4493408h0.4520264h0.4492188
			h0.4517822l0.4506836-0.0005951h0.4515381h0.4504395h0.4494629h0.4520264l0.4510498-0.0007019h0.4499512h0.4506836h0.4515381
			l0.4503174-0.0005951h0.4512939h0.4501953h0.4508057h0.4499512l0.4505615-0.0007019h0.4512939h0.4501953h0.4511719
			l0.4516602-0.0005951h0.4506836h0.449585h0.4520264l0.4510498-0.0007019h0.4500732h0.4506836h0.451416h0.4503174
			l0.4510498-0.0005951h0.4499512h0.4504395h0.451416l0.4504395-0.0007019h0.4508057h0.4515381h0.4506836l0.4511719-0.0006104
			h0.4501953h0.4506836h0.4515381l0.4503174-0.0007019h0.4511719h0.4499512h0.4505615l0.4512939-0.0005951h0.4501953h0.4506836
			h0.4515381l0.4503174-0.0007019h0.4509277h0.4500732l0.4520264-0.0005951h0.4494629h0.4516602h0.4508057l0.4512939-0.0007019
			h0.4499512h0.4509277h0.4511719l0.4504395-0.0005951h0.4509277h0.449585l0.4520264-0.0007019h0.4509277h0.4499512h0.4501953
			l0.4510498-0.0005951h0.4515381h0.4503174l0.4510498-0.0006104h0.451416h0.4504395h0.4509277l0.4499512-0.0007019h0.4504395
			h0.4509277l0.451416-0.0006866h0.4504395h0.4508057l0.4512939-0.0006104h0.4504395h0.4506836h0.451416l0.4501953-0.0007019
			h0.4508057h0.4510498l0.4501953-0.0005951h0.4506836h0.4510498l0.4500732-0.0007019h0.4519043h0.4509277l0.4499512-0.0005951
			h0.4501953h0.4509277l0.4511719-0.0007019h0.4516602h0.4505615l0.449585-0.0005951h0.451416h0.4504395l0.4508057-0.0006104
			h0.4511719h0.4501953l0.4505615-0.0007019h0.4510498h0.451416l0.4503174-0.0005951h0.4506836h0.4511719l0.4501953-0.0007019
			h0.4517822h0.4508057l0.4498291-0.0005951h0.4515381h0.4506836l0.4509277-0.0007019h0.449707l0.4516602-0.0005951h0.4506836
			h0.4509277l0.4499512-0.0007019h0.4515381h0.4505615l0.4509277-0.0006104h0.4499512l0.4516602-0.0006866h0.4504395h0.4509277
			l0.4511719-0.0007019h0.4501953h0.4505615l0.4508057-0.0006104h0.4510498l0.4500732-0.0005951h0.4517822h0.4506836
			l0.4508057-0.0007019h0.4499512l0.4516602-0.0005951h0.4504395h0.4508057l0.4510498-0.0007019h0.4501953l0.4501953-0.0005951
			h0.4519043h0.449707l0.4510498-0.0006104h0.4515381l0.4501953-0.0007019h0.4508057l0.4508057-0.0006866h0.4511719h0.4501953
			l0.4515381-0.0006104h0.4505615l0.4508057-0.0007019h0.4498291l0.4512939-0.0005951h0.4503174h0.4517822l0.4505615-0.0007019
			h0.4510498l0.4498291-0.0005951h0.451416l0.4503174-0.0007019h0.4505615l0.4506836-0.0005951h0.4510498l0.4512939-0.0006104
			h0.4499512h0.4516602l0.4504395-0.0006866h0.4506836l0.4509277-0.0006104h0.4511719l0.4499512-0.0007019h0.4515381
			l0.4503174-0.0005951h0.4506836l0.4506836-0.0007019h0.4509277l0.4511719-0.0005951h0.4499512l0.4515381-0.0007019h0.4504395
			l0.4505615-0.0005951h0.4504395l0.4509277-0.0007019h0.4509277l0.4511719-0.0007019h0.4501953l0.451416-0.0005951h0.4503174
			l0.4505615-0.0006104h0.4505615l0.4508057-0.0007019h0.4509277l0.4509277-0.0005951h0.4511719l0.4500732-0.0007019
			l0.451416-0.0005951h0.4503174l0.4515381-0.0006104h0.4505615l0.4506836-0.0006866h0.4506836l0.4509277-0.0007019h0.4509277
			l0.4498291-0.0006104h0.4510498l0.4511719-0.0006866l0.4503174-0.0006104h0.4512939l0.4504395-0.0007019h0.4503174
			l0.4517822-0.0005951h0.4504395l0.4506836-0.0007019l0.4506836-0.0005951h0.4508057l0.4508057-0.0005951h0.4509277
			l0.4509277-0.0007019l0.4499512-0.0006104h0.4509277l0.4511719-0.0007019h0.4501953l0.4511719-0.0005951l0.4511719-0.0007019
			h0.4501953l0.451416-0.0005951h0.4501953l0.4504395-0.0007019l0.451416-0.0005951h0.4503174l0.4515381-0.0007019
			l0.4504395-0.0005951h0.4504395l0.4504395-0.0007019h0.4515381l0.4505615-0.0006104l0.4504395-0.0007019h0.4504395
			l0.4516602-0.0005951l0.4504395-0.0005951h0.4506836l0.4504395-0.0007019l0.4515381-0.0005951h0.4505615l0.4505615-0.0007019
			l0.4505615-0.0006104h0.451416l0.4504395-0.0006866l0.4504395-0.0006104h0.4504395l0.451416-0.0007019l0.4504395-0.0007019
			l0.451416-0.0005951h0.4504395l0.4501953-0.0005951l0.451416-0.0007019h0.4501953l0.4511719-0.0005951l0.4511719-0.0007019
			l0.4501953-0.0006104h0.4510498l0.4510498-0.0005951l0.4499512-0.0007019h0.4509277l0.4509277-0.0005951l0.4506836-0.0007019
			l0.4509277-0.0007019h0.4506836l0.4504395-0.0005951l0.4516602-0.0007019l0.4504395-0.0005951h0.4504395l0.4511719-0.0007019
			l0.4504395-0.0006104l0.4511719-0.0006866l0.4500732-0.0006104h0.4510498l0.4509277-0.0005951l0.4508057-0.0007019
			l0.4506836-0.0005951l0.4508057-0.0007019h0.4504395l0.451416-0.0005951l0.4504395-0.0007019l0.4511719-0.0006104
			l0.4501953-0.0007019h0.4509277l0.4510498-0.0005951l0.4506836-0.0007019l0.4506836-0.0005951l0.4505615-0.0007019
			l0.4505615-0.0005951h0.4511719l0.4501953-0.0007019l0.4510498-0.0005951l0.4509277-0.0006104l0.4509277-0.0007019
			l0.4504395-0.0005951h0.4505615l0.4512939-0.0007019l0.4503174-0.0005951l0.4510498-0.0007019l0.4509277-0.0005951
			l0.4506836-0.0007019l0.4506836-0.0006104l0.4504395-0.0006866l0.4511719-0.0006104h0.4511719l0.4499512-0.0007019
			l0.4508057-0.0005951l0.4515381-0.0007019l0.4504395-0.0005951l0.4511719-0.0007019l0.4501953-0.0005951l0.4506836-0.0007019
			l0.4508057-0.0006104l0.4505615-0.0005951l0.4511719-0.0007019l0.4511719-0.0005951l0.4499512-0.0007019l0.4506836-0.0005951
			l0.451416-0.0007019l0.4504395-0.0007019h0.4511719l0.4506836-0.0005951l0.4506836-0.0007019l0.4505615-0.0006104
			l0.4510498-0.0005951l0.4501953-0.0007019l0.4509277-0.0005951l0.4512939-0.0007019l0.4504395-0.0005951l0.4510498-0.0007019
			l0.4508057-0.0005951l0.4505615-0.0013123l0.4504395-0.0007019l0.4511719-0.0005951l0.4509277-0.0007019l0.4504395-0.0005951
			l0.4504395-0.0007019l0.4511719-0.0005951l0.4508057-0.0007019l0.4506836-0.0005951l0.4511719-0.0006104l0.4501953-0.0007019
			l0.4508057-0.0005951l0.4512939-0.0007019l0.4503174-0.0005951l0.4509277-0.0005951l0.4506836-0.0007019l0.4504395-0.0013123
			l0.4510498-0.0006866l0.4508057-0.0006104l0.4506836-0.0007019l0.4509277-0.0005951l0.4509277-0.0007019l0.4506836-0.0005951
			l0.4501953-0.0005951l0.4510498-0.0013123l0.4508057-0.0007019l0.4511719-0.0005951l0.4501953-0.0007019l0.451416-0.0005951
			l0.4504395-0.0007019l0.4509277-0.001297l0.4506836-0.0005951l0.4505615-0.0007019l0.4510498-0.0006104l0.4508057-0.0006866
			l0.4503174-0.0013123l0.4509277-0.0005951l0.4506836-0.0005951l0.451416-0.0007019l0.4499512-0.0006104l0.451416-0.001297
			l0.4504395-0.0005951l0.4508057-0.0007019l0.4505615-0.0007019l0.4510498-0.001297l0.4506836-0.0005951l0.4505615-0.0007019
			l0.4509277-0.001297l0.4506836-0.0006104l0.4509277-0.0005951l0.4508057-0.0007019l0.4505615-0.001297l0.4509277-0.0005951
			l0.4506836-0.0006104l0.4511719-0.001297l0.4506836-0.0007019l0.4505615-0.0007019l0.4510498-0.001297l0.4505615-0.0005951
			l0.4503174-0.0007019l0.4506836-0.0012054l0.4511719-0.0007019l0.4509277-0.0005951l0.4504395-0.001297l0.4510498-0.0007019
			l0.4505615-0.001297l0.4510498-0.0006104l0.4506836-0.0005951l0.4504395-0.001297l0.4508057-0.0007019l0.4511719-0.001297
			l0.4506836-0.0007019l0.4504395-0.001297l0.4509277-0.0006104l0.4506836-0.0005951l0.4509277-0.001297l0.4504395-0.0007019
			l0.4509277-0.001297l0.4505615-0.0005951l0.4510498-0.0013123l0.4506836-0.0005951l0.4509277-0.001297l0.4506836-0.0007019
			l0.4509277-0.001297l0.4506836-0.0006104l0.4509277-0.001297l0.4505615-0.0007019l0.4510498-0.001297l0.4504395-0.0005951
			l0.4509277-0.001297l0.4506836-0.0013123l0.4506836-0.0005951l0.4505615-0.001297l0.4509277-0.0007019l0.4510498-0.001297
			l0.4509277-0.001297l0.4504395-0.0006104l0.4505615-0.001297l0.4510498-0.0007019l0.4505615-0.0011902l0.4510498-0.0013123
			l0.4504395-0.0006866l0.4509277-0.0013123l0.4511719-0.001297l0.4506836-0.0005951l0.4503174-0.001297l0.4508057-0.0013123
			l0.4508057-0.0006866l0.4512939-0.0013123l0.4506836-0.0011902l0.4503174-0.001297l0.4508057-0.0007019l0.4508057-0.0012054
			l0.4512939-0.001297l0.4499512-0.001297l0.4510498-0.0007019l0.4505615-0.001297l0.4509277-0.0013123l0.4511719-0.001297
			l0.4506836-0.0005951l0.4509277-0.001297l0.4504395-0.0013123l0.4506836-0.001297l0.4509277-0.001297l0.4506836-0.001297
			l0.4508057-0.0005951l0.4510498-0.0013123l0.4505615-0.001297l0.4508057-0.001297l0.4501953-0.001297l0.451416-0.001297
			l0.4506836-0.0013123l0.4504395-0.001297l0.4511719-0.0005951l0.4506836-0.001297l0.4509277-0.0013123l0.4504395-0.001297
			l0.4508057-0.001297l0.4508057-0.001297l0.4504395-0.001297l0.4512939-0.0013123l0.4508057-0.001297l0.4501953-0.001297
			l0.4512939-0.0012054l0.4506836-0.001297l0.4508057-0.001297l0.4504395-0.001297l0.4511719-0.001297l0.4506836-0.0013123
			l0.4509277-0.0018921l0.4504395-0.001297l0.4505615-0.001297l0.4512939-0.0013123l0.4501953-0.001297l0.4509277-0.001297
			l0.4506836-0.001297l0.4511719-0.0012054l0.4508057-0.001297l0.4503174-0.0019989l0.4510498-0.001297l0.4505615-0.0013123
			l0.4506836-0.001297l0.4509277-0.001297l0.4509277-0.0018921l0.4504395-0.0013123l0.4511719-0.001297l0.4504395-0.001297
			l0.4509277-0.0019073l0.4509277-0.001297l0.4504395-0.001297l0.4509277-0.001297l0.4506836-0.0019073l0.4506836-0.001297
			l0.4508057-0.001297l0.4508057-0.0019073l0.4509277-0.001297l0.4504395-0.001297l0.4511719-0.0018921l0.4505615-0.0013123
			l0.4506836-0.0019989l0.4506836-0.001297l0.4508057-0.001297l0.4509277-0.0019073l0.4509277-0.001297l0.4503174-0.0018921
			l0.4510498-0.0013123l0.4505615-0.0018921l0.4512939-0.001297l0.4504395-0.0019989l0.4508057-0.0013123l0.4508057-0.0018921
			l0.4506836-0.001297l0.4509277-0.0019073l0.4506836-0.001297l0.4509277-0.0019989l0.4504395-0.001297l0.4509277-0.0019073
			l0.4509277-0.0018921l0.4504395-0.001297l0.4511719-0.0019073l0.4503174-0.0019989l0.4510498-0.001297l0.4505615-0.0019073
			l0.4510498-0.0018921l0.4506836-0.0013123l0.4504395-0.0019989l0.4511719-0.0018921l0.4505615-0.001297l0.4510498-0.0019073
			l0.4505615-0.0019989l0.4505615-0.0018921l0.4510498-0.0013123l0.4505615-0.0018921l0.4510498-0.0019989l0.4505615-0.0019073
			l0.4509277-0.0018921l0.4504395-0.0019073l0.4509277-0.001297l0.4509277-0.0019989l0.4504395-0.0019073l0.4509277-0.0018921
			l0.4508057-0.0019989l0.4509277-0.0019073l0.4506836-0.0019989l0.4506836-0.0018921l0.4508057-0.0019073l0.4506836-0.0018921
			l0.4510498-0.0019989l0.4505615-0.0019073l0.4509277-0.0018921l0.4504395-0.0019989l0.4509277-0.0019073l0.4509277-0.0019989
			l0.4508057-0.0019073l0.4506836-0.002594l0.4506836-0.0018921L1627.9338379,81.25l0.4509277-0.0019989l0.4510498-0.0019073
			l0.4503174-0.0018921l0.4509277-0.0026093l0.4506836-0.0018921l0.4510498-0.0019989l0.4505615-0.0019073l0.4509277-0.002594
			l0.4509277-0.0019073l0.4508057-0.0018921l0.4505615-0.0019989l0.4506836-0.0025024l0.4509277-0.0019989l0.4504395-0.0019073
			l0.4506836-0.002594l0.4511719-0.0018921l0.4506836-0.0026093l0.4508057-0.0018921l0.4508057-0.0026093l0.4508057-0.0019989
			l0.4505615-0.0025024l0.4509277-0.0019989l0.4504395-0.0025024l0.4511719-0.0019989l0.4506836-0.0024872l0.4508057-0.0019073
			l0.4504395-0.002594l0.4510498-0.0019073l0.4506836-0.002594l0.4509277-0.0026093l0.4506836-0.0018921l0.4505615-0.0026093
			l0.4508057-0.002594l0.4509277-0.0019073l0.4506836-0.002594l0.4509277-0.002594l0.4508057-0.0026093l0.4505615-0.0018921
			l0.4505615-0.0025024l0.4508057-0.002594l0.4511719-0.0026093l0.4504395-0.002594l0.4508057-0.0025024l0.4510498-0.002594
			l0.4503174-0.0019073l0.4508057-0.002594l0.4509277-0.0026093l0.4509277-0.002594l0.4506836-0.0026093l0.4509277-0.0024872
			l0.4506836-0.0026093l0.4506836-0.002594l0.4508057-0.0032043l0.4506836-0.0025024l0.4508057-0.002594l0.4508057-0.0026093
			l0.4510498-0.002594l0.4504395-0.0025024l0.4508057-0.002594l0.4508057-0.0032043l0.4505615-0.002594l0.4509277-0.0026093
			l0.4505615-0.0025024l0.4508057-0.0032959l0.4508057-0.0025024l0.4508057-0.002594l0.4506836-0.0032043l0.4508057-0.002594
			l0.4508057-0.0026093l0.4509277-0.0031891l0.4505615-0.0026093l0.4508057-0.0031891l0.4508057-0.0025024l0.4508057-0.0032043
			l0.4505615-0.002594l0.4509277-0.0032043l0.4508057-0.0032043l0.4509277-0.002594l0.4505615-0.0032043l0.4510498-0.002594
			l0.4505615-0.0032043l0.4506836-0.0032043l0.4506836-0.002594l0.4509277-0.0032043l0.4508057-0.0031891l0.4509277-0.0032043
			l0.4505615-0.0032043l0.4508057-0.002594l0.4508057-0.0032043l0.4506836-0.0032043l0.4508057-0.0031891l0.4505615-0.0032043
			l0.4511719-0.0032043l0.4504395-0.0032959l0.4510498-0.0032043l0.4506836-0.0032043l0.4505615-0.0031891l0.4510498-0.0032043
			l0.4506836-0.0032043l0.4505615-0.0031891l0.4509277-0.0039063l0.4506836-0.0032043l0.4509277-0.0031891l0.4504395-0.0032043
			l0.4511719-0.0032043l0.4506836-0.003891l0.4504395-0.0032043l0.4511719-0.0032043l0.4506836-0.0037994l0.4506836-0.0032043
			l0.4509277-0.003891l0.4505615-0.0032043l0.4506836-0.0032043l0.4508057-0.0037994l0.4508057-0.0031891l0.4509277-0.0039063
			l0.4505615-0.0037994l0.4508057-0.0032043l0.4506836-0.003891l0.4508057-0.0037994l0.4509277-0.0032043l0.4506836-0.0039063
			l0.4509277-0.0037994l0.4508057-0.0031891l0.4506836-0.0039063l0.4508057-0.0037994l0.4505615-0.0039063l0.4509277-0.0037994
			l0.4505615-0.0037994l0.4510498-0.003891l0.4506836-0.0037994l0.4508057-0.0039063l0.4506836-0.0037994l0.4508057-0.0039063
			l0.4508057-0.0037994l0.4505615-0.003891l0.4509277-0.0037994l0.4508057-0.0037994l0.4505615-0.0045013l0.4510498-0.0039063
			l0.4505615-0.0037994l0.4509277-0.0045013l0.4506836-0.0037994l0.4506836-0.003891l0.4509277-0.0044098l0.4506836-0.003891
			l0.4506836-0.0045013l0.4510498-0.0037994l0.4506836-0.0045013l0.4505615-0.0037994l0.4510498-0.0045013l0.4505615-0.0045013
			l0.4505615-0.0037994l0.4510498-0.0045013l0.4505615-0.0045013l0.4509277-0.0037994l0.4509277-0.0045013l0.4505615-0.0045013
			l0.4508057-0.0045013l0.4508057-0.0043945l0.4506836-0.0045013l0.4508057-0.0045013l0.4506836-0.0045013l0.4510498-0.0043945
			l0.4505615-0.0045013l0.4509277-0.0045013l0.4505615-0.0045013l0.4508057-0.0043945l0.4506836-0.0050964l0.4508057-0.0045013
			l0.4509277-0.0045013l0.4506836-0.0051117l0.4509277-0.0044861l0.4506836-0.0045013l0.4508057-0.0050049l0.4506836-0.0045013
			l0.4506836-0.0052032l0.4509277-0.0043945l0.4506836-0.0050964l0.4506836-0.0052032l0.4506836-0.0043945l0.4509277-0.0051117
			l0.4508057-0.0050964l0.4506836-0.0050964l0.4506836-0.0045013l0.4509277-0.0050964l0.4506836-0.0051117l0.4508057-0.0050964
			l0.4509277-0.0050964l0.4508057-0.0050964l0.4506836-0.0050964l0.4505615-0.0051117l0.4508057-0.0057983l0.4508057-0.0050964
			l0.4508057-0.0050964l0.4508057-0.0051117l0.4508057-0.0056915l0.4509277-0.0050964l0.4504395-0.0051117l0.4509277-0.0057983
			l0.4509277-0.0049896l0.4506836-0.0057983l0.4505615-0.0051117l0.4508057-0.0056915l0.4509277-0.0057068l0.4505615-0.0052032
			l0.4509277-0.0056915l0.4505615-0.0057068l0.4510498-0.0057983l0.4505615-0.0056915l0.4508057-0.0057068l0.4508057-0.0057983
			l0.4508057-0.0057068l0.4505615-0.0056915l0.4510498-0.0057983l0.4505615-0.0057068l0.4508057-0.0056915l0.4509277-0.0057983
			l0.4506836-0.0063019l0.4509277-0.0057068l0.4505615-0.0057983l0.4509277-0.0063019l0.4505615-0.0057983l0.4508057-0.0063019
			l0.4509277-0.0056915l0.4508057-0.0064087l0.4505615-0.0063934l0.4509277-0.0057068l0.4508057-0.0063934l0.4505615-0.0063019
			l0.4506836-0.0064087L1732.512207,80.375l0.4509277-0.0063019l0.4506836-0.0063019l0.4508057-0.0063934l0.4506836-0.0064087
			l0.4510498-0.0062866l0.4504395-0.0064087l0.4509277-0.006897l0.4506836-0.0064087l0.4506836-0.0062866l0.4509277-0.0070038
			l0.4508057-0.0064087l0.4508057-0.0069885l0.4506836-0.0063019l0.4509277-0.0070038l0.4505615-0.0070038l0.4506836-0.0063934
			l0.4508057-0.006897l0.4508057-0.0070038l0.4508057-0.0070038l0.4506836-0.0070038l0.4509277-0.006897l0.4508057-0.0070038
			l0.4506836-0.0069885l0.4508057-0.0070038l0.4508057-0.0075989l0.4506836-0.0070038l0.4509277-0.006897l0.4505615-0.0075989
			l0.4508057-0.0070038l0.4506836-0.0075989l0.4508057-0.0070038l0.4508057-0.0075989l0.4508057-0.0070038l0.4508057-0.0074921
			l0.4508057-0.0075989l0.4508057-0.0077057l0.4505615-0.0074921l0.4508057-0.0075989l0.4509277-0.0077057l0.4505615-0.0075073
			l0.4509277-0.0075989l0.4508057-0.0076904l0.4505615-0.0081024l0.4509277-0.0077057l0.4508057-0.0074921l0.4508057-0.0083008
			l0.4505615-0.0075073l0.4506836-0.0083008l0.4508057-0.008194l0.4509277-0.0075989l0.4508057-0.0082092l0.4506836-0.008194
			l0.4509277-0.008194l0.4505615-0.0082092l0.4509277-0.0083008l0.4508057-0.008194l0.4506836-0.008194l0.4508057-0.0082092
			l0.4506836-0.0088959l0.4508057-0.0081024l0.4506836-0.008194l0.4508057-0.0089111l0.4506836-0.0087891l0.4509277-0.0083008
			l0.4506836-0.0088043l0.4508057-0.0088043l0.4506836-0.008194l0.4506836-0.0088043l0.4509277-0.0088959l0.4508057-0.0088043
			l0.4506836-0.0088043l0.4509277-0.009491l0.4505615-0.0088043l0.4506836-0.0088959l0.4509277-0.0088043l0.4508057-0.0093994
			l0.4508057-0.0088043l0.4506836-0.009491l0.4508057-0.0093994l0.4506836-0.0088959l0.4509277-0.0094147l0.4506836-0.0093994
			l0.4506836-0.009491l0.4508057-0.0093994l0.4506836-0.0095062l0.4508057-0.0093994l0.4508057-0.0093994l0.4509277-0.0101013
			l0.4506836-0.0093994l0.4506836-0.009491l0.4506836-0.0100098l0.4509277-0.0093994l0.4506836-0.0101013l0.4508057-0.0101013
			l0.4508057-0.0099945l0.4509277-0.0093994l0.4505615-0.0101013l0.4508057-0.0099945l0.4508057-0.0101013l0.4506836-0.0106049
			l0.4506836-0.0101013l0.4510498-0.0099945l0.4504395-0.0106964l0.4509277-0.0101013l0.4508057-0.0106049l0.4509277-0.0099945
			l0.4505615-0.0107117l0.4508057-0.0106964l0.4508057-0.0099945l0.4506836-0.0106964l0.4506836-0.0106049l0.4509277-0.0106964
			l0.4505615-0.0113068l0.4510498-0.0106049l0.4506836-0.0105896l0.4508057-0.0106964l0.4506836-0.0112l0.4506836-0.0107117
			l0.4509277-0.0112l0.4508057-0.0112915l0.4505615-0.0107117l0.4509277-0.0112l0.4506836-0.0112915l0.4506836-0.0112
			l0.4510498-0.0113068l0.4506836-0.0112915l0.4505615-0.0118103l0.4508057-0.0112915l0.4509277-0.0112l0.4506836-0.0119019
			l0.4508057-0.0113068l0.4506836-0.011795l0.4509277-0.0112l0.4506836-0.0119019l0.4506836-0.0119019l0.4509277-0.011795
			l0.4506836-0.0119019l0.4508057-0.011795l0.4505615-0.0119019l0.4509277-0.011795l0.4508057-0.0125122l0.4508057-0.011795
			l0.4506836-0.0119019l0.4508057-0.0123901l0.4506836-0.0119019l0.4508057-0.0124054l0.4508057-0.0124969l0.4508057-0.0124054
			l0.4508057-0.0124969l0.4506836-0.0124969l0.4508057-0.0124054l0.4506836-0.0124969l0.4508057-0.0124054l0.4508057-0.0123901
			l0.4506836-0.0125122l0.4506836-0.0129852l0.4509277-0.0124054l0.4506836-0.0131073l0.4508057-0.0123901l0.4506836-0.0131073
			l0.4508057-0.0130005l0.4508057-0.0130005l0.4517822-0.013092l0.4505615-0.0124054l0.449707-0.0130005l0.4504395-0.0137024
			l0.4515381-0.0130005l0.4504395-0.0130005l0.4511719-0.013092l0.4503174-0.0135956l0.4511719-0.0130005l0.4500732-0.0131073
			l0.4509277-0.0135956l0.4519043-0.0136108l0.4508057-0.0130005l0.449707-0.0135956l0.4506836-0.0135956l0.451416-0.0137024
			l0.4504395-0.0128937l0.4512939-0.0137024l0.4503174-0.0135956l0.4509277-0.0136108l0.4500732-0.0135956l0.4509277-0.0142059
			l0.4516602-0.0135956l0.4506836-0.0135956l0.449585-0.0136108l0.4522705-0.0141907l0.4494629-0.0135956l0.4520264-0.013504
			l0.4490967-0.0142059l0.4517822-0.0135956l0.4508057-0.0142059l0.4515381-0.0135956l0.4505615-0.0142059l0.4493408-0.0141907
			l0.4520264-0.013504l0.4510498-0.0142059l0.4499512-0.0141907l0.4506836-0.0140991l0.4515381-0.0135956l0.4504395-0.0142059
			l0.4511719-0.0140991l0.4501953-0.0142059l0.4508057-0.0140991l0.4499512-0.013504l0.4505615-0.0141907l0.4512939-0.0140991
			l0.4503174-0.0142059l0.4509277-0.0140991l0.4517822-0.0142059l0.4505615-0.0140991l0.449707-0.0134888l0.4520264-0.0140991
			l0.4510498-0.0142059l0.4499512-0.0140991l0.4506836-0.0140991l0.451416-0.013504l0.4503174-0.0140991l0.4510498-0.0140991
			l0.4499512-0.0140991l0.4506836-0.013504l0.4512939-0.0140991l0.4503174-0.013504l0.4509277-0.0140991l0.4516602-0.0134888
			l0.4505615-0.0140076l0.4511719-0.013504l0.4501953-0.0134888l0.4508057-0.0140076l0.451416-0.0135956l0.4503174-0.0133972
			l0.4510498-0.0133972l0.4500732-0.013504l0.4505615-0.013504l0.4511719-0.0128021l0.4501953-0.0133972l0.4508057-0.0128937
			l0.4515381-0.0134125l0.4503174-0.0127869l0.4509277-0.0129089l0.4499512-0.0128021l0.4521484-0.0128021l0.4494629-0.0127869
			l0.4516602-0.012207l0.4506836-0.0128021l0.4512939-0.0122986l0.4501953-0.0121002l0.4506836-0.0122986l0.451416-0.0121002
			l0.4501953-0.0115967l0.4509277-0.012207l0.449707-0.0115967l0.4520264-0.0115051l0.4508057-0.0115967l0.4499512-0.0110016
			l0.4504395-0.0110016l0.4509277-0.0108948l0.451416-0.0110016l0.4504395-0.0102997l0.4510498-0.0110016l0.451416-0.0102997
			l0.4504395-0.0097046l0.4509277-0.0103912l0.4499512-0.0097046l0.4503174-0.0090942l0.4510498-0.0097046l0.4512939-0.009201
			l0.4504395-0.0084991l0.4509277-0.0090942l0.4512939-0.0084991l0.4503174-0.0079041l0.4509277-0.0079041l0.4511719-0.0078888
			l0.4503174-0.0079041l0.4506836-0.0066986l0.4512939-0.007309l0.4500732-0.0065918l0.4506836-0.0066986l0.4510498-0.0061035
			l0.4499512-0.0054016l0.4520264-0.0054932l0.4509277-0.0055084l0.4499512-0.0047913l0.4501953-0.0042114l0.4509277-0.004303
			l0.4511719-0.0036926l0.4515381-0.0036011l0.4506836-0.003006l0.4494629-0.0030975l0.451416-0.0023956l0.4504395-0.0018005
			l0.4509277-0.0012054l0.4511719-0.0011902l0.4501953-0.0006104l0.4505615-0.0005951l0.4509277,0.0005951l0.451416,0.0006104
			l0.4504395,0.0011902l0.4506836,0.0012054l0.4511719,0.0023956l0.4500732,0.0025024l0.4519043,0.003006l0.4508057,0.0036011
			l0.4498291,0.0042877l0.4515381,0.0048065l0.4505615,0.0055084l0.4509277,0.0054932l0.4498291,0.0065918l0.4516602,0.0067139
			l0.4505615,0.0078888l0.4510498,0.0079041l0.4498291,0.0090942l0.4516602,0.0097046l0.4505615,0.0097046l0.4509277,0.0108948
			l0.4499512,0.0115967l0.4515381,0.012207l0.4505615,0.0126953l0.4509277,0.0140076l0.4511719,0.0139923l0.4501953,0.0151978
			l0.4505615,0.0158081l0.4506836,0.0164032l0.4511719,0.0177002l0.4499512,0.0181885l0.4517822,0.0189056l0.4506836,0.0195007
			l0.4510498,0.0207062l0.4499512,0.021286l0.4515381,0.0220032l0.4505615,0.0232086l0.4506836,0.0236969l0.4511719,0.0251007
			l0.4500732,0.0256042l0.4501953,0.0269012l0.4520264,0.0274963l0.449585,0.0280914l0.4510498,0.0294037l0.451416,0.0299988
			l0.4504395,0.0312042l0.4505615,0.0323944l0.4509277,0.0332031l0.4511719,0.0337067l0.4500732,0.0348969l0.4516602,0.0363007
			l0.4504395,0.0367889l0.4509277,0.0375061l0.4498291,0.0386963l0.4511719,0.0400085l0.4503174,0.0406952l0.4517822,0.0417938
			l0.4506836,0.0426025l0.4510498,0.0437012l0.4498291,0.0445099l0.451416,0.0450897l0.4503174,0.0469055l0.4505615,0.0471039
			l0.4506836,0.0481873l0.4510498,0.0490112l0.4511719,0.0502014l0.4500732,0.0507965l0.4516602,0.0516052l0.4504395,0.0522003
			l0.4506836,0.0534973l0.4509277,0.0534973l0.4510498,0.0547943l0.4501953,0.0555115l0.451416,0.0560913l0.4503174,0.0563049
			l0.4505615,0.0574951l0.4508057,0.0574951l0.4509277,0.0577087l0.4510498,0.0588989l0.4501953,0.0588989l0.4512939,0.0590973
			l0.4504395,0.0590057l0.4505615,0.0597992l0.4506836,0.0592041l0.4508057,0.0591888l0.4510498,0.0593109l0.4510498,0.0592957
			l0.4500732,0.0587921l0.4515381,0.0582123l0.4503174,0.058197l0.4504395,0.0570984l0.4506836,0.0563965l0.4506836,0.0552063
			l0.4509277,0.0546875l0.4510498,0.0527039l0.4511719,0.0522003l0.4500732,0.0503082l0.451416,0.0484924l0.4501953,0.0465088
			l0.4516602,0.0439911l0.4504395,0.0428009l0.4506836,0.0397034l0.4508057,0.0363922l0.4508057,0.033905l0.4509277,0.0307007
			l0.4499512,0.0276031l0.4510498,0.022995l0.4512939,0.0198975l0.4501953,0.014801l0.4512939,0.0102081l0.4504395,0.0057983
			h0.4503174l0.4516602-0.0052032l0.4505615-0.0115051l0.4506836-0.0172882l0.4506836-0.0243988l0.4506836-0.031311
			l0.4509277-0.039093l0.4509277-0.0467072l0.4509277-0.0542908l0.4499512-0.0632019l0.4510498-0.0727997l0.4510498-0.0809021
			l0.4501953-0.0910034l0.4511719-0.1009979l0.4511719-0.1116943l0.4501953-0.1209106l0.4512939-0.1327972l0.4503174-0.1425018
			l0.4503174-0.153595l0.4515381-0.1643982l0.4503174-0.1746979l0.451416-0.1854095l0.4504395-0.1941986l0.4504395-0.2030029
			l0.4504395-0.2108917l0.4515381-0.2171021l0.4505615-0.2212067l0.4504395-0.2234955l0.4505615-0.2234039l0.4515381-0.218399
			l0.4505615-0.2102966l0.4505615-0.196991l0.4505615-0.1772003l0.4515381-0.1502075l0.4505615-0.1152039l0.4504395-0.0694885
			l0.4505615-0.0137024l0.4515381,0.0555878l0.4504395,0.1392059l0.4504395,0.2387085l0.4505615,0.3546906l0.451416,0.490097
			l0.4503174,0.6430054l0.451416,0.8152008l0.4503174,1.0061035l0.4503174,1.2127991l0.4512939,1.4346924l0.4501953,1.667511
			l0.4511719,1.9082947l0.4511719,2.1524048l0.4501953,2.3957977l0.4510498,2.6337891l0.4510498,2.8628082l0.4499512,3.0792999
			l0.4509277,3.2807007l0.4509277,3.4651947l0.4508057,3.6320038l0.4506836,3.7807007l0.4508057,3.9116974l0.4506836,4.026001
			l0.451416,4.1246948l0.4505615,4.2094116l0.4504395,4.2814941l0.4512939,4.3424072l0.4501953,4.3939972l0.4511719,4.4373932
			l0.4501953,4.4741058l0.4509277,4.5054016l0.4509277,4.531601l0.4509277,4.5549927l0.4506836,4.5749054l0.4506836,4.593399
			l0.4505615,4.6100006l0.451416,4.6259003l0.4504395,4.6416016l0.4511719,4.657196l0.4501953,4.6724091l0.4509277,4.6894836
			l0.4509277,4.7061157l0.4508057,4.7249756l0.4506836,4.7442017l0.4505615,4.7650146l0.4504395,4.7876892l0.4512939,4.8124084
			l0.4503174,4.8381958l0.4509277,4.8661194l0.4509277,4.8962708l0.4508057,4.9284058l0.4506836,4.9627991l0.4504395,4.9996033
			l0.4512939,5.0388184l0.4501953,5.0802917l0.4511719,5.1246948l0.4509277,5.1716919l0.4506836,5.2214966l0.4506836,5.2743225
			l0.4504395,5.3300781l0.4511719,5.3890076l0.4510498,5.451416l0.4500732,5.5171814l0.4508057,5.5867004l0.451416,5.6596985
			l0.4504395,5.7372131l0.4512939,5.8184814l0.4500732,5.9041138l0.4508057,5.994812l0.4508057,6.0903015l0.4505615,6.1906738
			l0.4512939,6.2967224l0.4509277,6.4083862l0.4500732,6.5263062l0.4506836,6.6516113l0.451416,6.7831726l0.4504395,6.9224243
			l0.4509277,7.0699768l0.4509277,7.2259216l0.4506836,7.3916931l0.4505615,7.5672913l0.4511719,7.7539063l0.4500732,7.9522095
			l0.4506836,8.1636963l0.4515381,8.3892822l0.4503174,8.6304321l0.4510498,8.8877563l0.4509277,9.1645508l0.4505615,9.4613647
			l0.4504395,9.7814941l0.4510498,10.1260376l0.4509277,10.500061l0.4506836,10.9048462l0.4504395,11.3460693l0.4509277,11.8276978
			l0.4508057,12.3555908l0.4506836,12.9365845l0.4512939,13.5789185l0.4500732,14.2924194l0.4508057,15.0894775l0.451416,15.9852905
			l0.4503174,16.9991455l0.4509277,18.156189l0.4506836,19.4873047l0.4504395,21.0360107l0.4510498,22.8591919l0.1688232,9.3812866"
			/>
		<path class="st7" d="M1989.6829834,754.074707l0.2177734-12l0.451416-22.6611938l0.4503174-20.869812l0.4508057-19.3461304
			l0.4505615-18.0345459l0.4511719-16.8946533l0.4506836-15.894043l0.4504395-15.0098267l0.4509277-14.2219849l0.4506836-13.5166016
			l0.4511719-12.8812866l0.4508057-12.3065186l0.4504395-11.7839355l0.4510498-11.3067627l0.4505615-10.8696289
			l0.4511719-10.4685059l0.4508057-10.0980835l0.4504395-9.7561646l0.4509277-9.4389038l0.4506836-9.1443481l0.4503174-8.8700562
			l0.4506836-8.6144409l0.4511719-8.375061l0.4508057-8.1516113l0.4505615-7.9416199l0.4509277-7.7446899l0.4506836-7.5593872
			l0.4509277-7.3851013l0.4508057-7.2209167l0.4503174-7.0657959l0.4508057-6.9194946l0.4511719-6.781189l0.4508057-6.6507263
			l0.4505615-6.5267944l0.4508057-6.4093933l0.4505615-6.2984009l0.4509277-6.1936951l0.4505615-6.093689l0.4509277-5.9994202
			l0.4506836-5.9093933l0.4509277-5.8247986l0.4505615-5.7438965l0.4510498-5.6676941l0.4506836-5.5951233l0.4508057-5.5265808
			l0.4506836-5.4613953l0.4510498-5.4000244l0.4505615-5.3416748l0.4509277-5.2867126l0.4505615-5.2347107l0.4509277-5.1854858
			l0.4505615-5.1394043l0.4509277-5.0957947l0.4505615-5.0549011l0.4508057-5.01651l0.4510498-4.9804993l0.4508057-4.9468079
			l0.4504395-4.9153748l0.4506836-4.8860168l0.4510498-4.8587036l0.4505615-4.8329773l0.4509277-4.8094177l0.4505615-4.7878113
			l0.4509277-4.7667847l0.4510498-4.7481079l0.4508057-4.7297974l0.4503174-4.7127075l0.4506836-4.6958923l0.4509277-4.680603
			l0.4511719-4.6641998l0.4506836-4.647995l0.4504395-4.6311035l0.4506836-4.6124878l0.4509277-4.5926056l0.4511719-4.5697021
			l0.4500732-4.5435028l0.4510498-4.5128021l0.4505615-4.4766998l0.4508057-4.4342957l0.4511719-4.3836975l0.4506836-4.3238068
			l0.4509277-4.2532959l0.4505615-4.1698914l0.4506836-4.0730133l0.4510498-3.9601898l0.4505615-3.8308105l0.4508057-3.6837921
			l0.4509277-3.5184021l0.4505615-3.3349915l0.4508057-3.1344147l0.4504395-2.9180908l0.4511719-2.688797l0.4506836-2.4497986
			l0.4504395-2.2049103l0.4511719-1.9586029l0.4506836-1.7149963l0.4510498-1.4790955l0.4504395-1.2539978l0.4506836-1.0431061
			l0.4509277-0.8497009l0.4504395-0.6735992l0.4512939-0.5173035l0.4508057-0.3787994l0.4501953-0.260498l0.4511719-0.1584015
			l0.4506836-0.0723877l0.4509277-0.0018005l0.4503174,0.0563965l0.4511719,0.1024017l0.4508057,0.1389008l0.4508057,0.1663971
			l0.4504395,0.1871948l0.4505615,0.2006989l0.4512939,0.2095032l0.4503174,0.2138977l0.4509277,0.21521l0.4505615,0.2127991
			l0.4512939,0.2090912l0.4506836,0.2022095l0.4504395,0.1951904l0.4510498,0.186203l0.4505615,0.1766052l0.4506836,0.1667938
			l0.4508057,0.1562958l0.4509277,0.1451111l0.4505615,0.1351013l0.4510498,0.1238861l0.4506836,0.1130066l0.4508057,0.1029053
			l0.4508057,0.0926971l0.4504395,0.0825043l0.4509277,0.072998l0.4506836,0.0636902l0.4506836,0.0548096l0.4506836,0.0462952
			l0.4511719,0.0379944l0.4506836,0.030304l0.4506836,0.0229034l0.4509277,0.0158997l0.4504395,0.009201l0.4506836,0.0028992
			l0.4509277-0.0030975l0.4509277-0.008606l0.4506836-0.0139008l0.4509277-0.018692l0.4504395-0.0234985l0.4511719-0.0276031
			l0.4504395-0.0317078l0.4511719-0.0354919l0.4504395-0.0388031l0.4509277-0.042099l0.4506836-0.0449066l0.4509277-0.047699
			l0.4506836-0.0502014l0.4509277-0.052597l0.4509277-0.0543976l0.4501953-0.0563965l0.4511719-0.0576019l0.4506836-0.0594025
			l0.4506836-0.0608063l0.4509277-0.0618896l0.4504395-0.0632019l0.4511719-0.063797l0.4504395-0.0643005l0.4509277-0.0655975
			l0.4506836-0.065506l0.4506836-0.0653992l0.4509277-0.0666962l0.4504395-0.0659027l0.4511719-0.0664978l0.4506836-0.0664978
			l0.4504395-0.0664063l0.4511719-0.0662994l0.4504395-0.065506l0.4511719-0.0655975l0.4504395-0.0648956l0.4509277-0.0646973
			l0.4506836-0.0641022l0.4506836-0.0634003l0.4511719-0.0626984l0.4501953-0.0626068l0.4511719-0.0612946l0.4506836-0.0606079
			l0.4506836-0.0598907l0.4509277-0.0592041l0.4506836-0.0579071l0.4509277-0.0578918l0.4504395-0.0565948l0.4511719-0.0552063
			l0.4504395-0.0545959l0.4511719-0.0539093l0.4501953-0.0526886l0.4511719-0.0519104l0.4506836-0.0505981l0.4506836-0.0500946
			l0.4509277-0.0487061l0.4506836-0.0479889l0.4504395-0.0467072l0.4511719-0.0455017l0.4509277-0.0448914l0.4504395-0.0435028
			l0.4506836-0.0429077l0.4506836-0.0417023l0.4511719-0.0402985l0.4506836-0.0397034l0.4506836-0.0384979l0.4511719-0.037796
			l0.4506836-0.0366058l0.4506836-0.0352936l0.4504395-0.0346069l0.4509277-0.0333862l0.4506836-0.0328064l0.4506836-0.0321045
			l0.4511719-0.0302887l0.4504395-0.0302124l0.4509277-0.0283966l0.4506836-0.0283966l0.4509277-0.0265045l0.4504395-0.0264893
			l0.4511719-0.0252075l0.4501953-0.0240021l0.4511719-0.0234985l0.4506836-0.0227051l0.4509277-0.0220947l0.4504395-0.0209961
			l0.4511719-0.0196075l0.4504395-0.0196991l0.4509277-0.0184021l0.4506836-0.0177917l0.4506836-0.0166016l0.4509277-0.0166016
			l0.4509277-0.0153046l0.4504395-0.0146942l0.4509277-0.0142059l0.4506836-0.0133972l0.4506836-0.0122986l0.4506836-0.0122986
			l0.4506836-0.0110016l0.4511719-0.0104065l0.4506836-0.010498l0.4506836-0.0090942l0.4509277-0.008606l0.4504395-0.0085907
			l0.4506836-0.007309l0.4511719-0.0067902l0.4506836-0.0066986l0.4506836-0.0055084l0.4511719-0.0054932l0.4506836-0.0048981
			l0.4504395-0.004303l0.4509277-0.0037079l0.4506836-0.0030975l0.4506836-0.0023956l0.4506836-0.0025024l0.4511719-0.0018005
			l0.4506836-0.0012054l0.4506836-0.0011902h0.4506836h0.4506836h0.4506836l0.4506836,0.0011902l0.4511719,0.0006104
			l0.4504395,0.0018921l0.4509277,0.0018005l0.4506836,0.0025024l0.4509277,0.0023956l0.4504395,0.003006l0.4511719,0.0036926
			l0.4506836,0.0037079l0.4506836,0.004303l0.4506836,0.004303l0.4506836,0.0041962l0.4506836,0.0048981l0.4509277,0.0056
			l0.4509277,0.0054932l0.4506836,0.0061035l0.4506836,0.0061035l0.4511719,0.0061035l0.4504395,0.0067902l0.4506836,0.0066986
			l0.4509277,0.0074005l0.4509277,0.007309l0.4506836,0.0074005l0.4509277,0.0079956l0.4506836,0.0079041l0.4506836,0.0079956
			l0.4506836,0.008606l0.4506836,0.0084991l0.4506836,0.0085907l0.4506836,0.0093079l0.4511719,0.0090942l0.4506836,0.009201
			l0.4509277,0.0093079l0.4509277,0.0097961l0.4501953,0.0097961l0.4511719,0.0097961l0.4506836,0.0105133l0.4506836,0.0103912
			l0.4506836,0.0104065l0.4506836,0.010498l0.4509277,0.0103912l0.4506836,0.0111084l0.4509277,0.0103912l0.4506836,0.0111084
			l0.4506836,0.0110931l0.4509277,0.0117035l0.4506836,0.0110016l0.4509277,0.0117035l0.4506836,0.0116882l0.4506836,0.0117035
			l0.4506836,0.0117035l0.4506836,0.0117035l0.4509277,0.0117035l0.4509277,0.0122986l0.4506836,0.0116882l0.4506836,0.0123138
			l0.4506836,0.0123901l0.4506836,0.0122986l0.4511719,0.0122986l0.4504395,0.0122986l0.4509277,0.0124054l0.4506836,0.0122986
			l0.4509277,0.0122986l0.4509277,0.0130005l0.4504395,0.0122986l0.4509277,0.0130005l0.4506836,0.0122986l0.4506836,0.0130005
			l0.4509277,0.0130005l0.4506836,0.0122986l0.4509277,0.0130005l0.4506836,0.0130005l0.4506836,0.0130005l0.4506836,0.0129089
			l0.4509277,0.0130005l0.4509277,0.0130005l0.4504395,0.0130005l0.4509277,0.0130005l0.4506836,0.0130005l0.4509277,0.0130005
			l0.4506836,0.0130005l0.4506836,0.0129852l0.4509277,0.0130005l0.4506836,0.0130005l0.4506836,0.0137024l0.4509277,0.0130005
			l0.4506836,0.0130005l0.4506836,0.0130005l0.4509277,0.0130005l0.4506836,0.0131073l0.4506836,0.0130005l0.4506836,0.0130005
			l0.4506836,0.0130005l0.4511719,0.013092l0.4506836,0.0130005l0.4506836,0.0130005l0.4506836,0.0131073l0.4506836,0.0130005
			l0.4509277,0.013092l0.4509277,0.0130005l0.4506836,0.0131073l0.4509277,0.0129852l0.4504395,0.0125122l0.4511719,0.0130005
			l0.4501953,0.013092l0.4509277,0.0131073l0.4509277,0.0123901l0.4506836,0.0131073l0.4509277,0.0124969l0.4504395,0.0130005
			l0.4511719,0.0124969l0.4506836,0.0131073l0.4506836,0.0123901l0.4506836,0.0131073l0.4506836,0.0124969l0.4509277,0.0124054
			l0.4509277,0.0124969l0.4506836,0.0131073l0.4506836,0.0124969l0.4506836,0.0123901l0.4509277,0.0126038l0.4506836,0.0124054
			l0.4506836,0.0119019l0.4509277,0.0124969l0.4506836,0.0123901l0.4506836,0.0126038l0.4509277,0.0118103l0.4509277,0.0124969
			l0.4506836,0.0124969L2165.25,79.2870026l0.4506836,0.0119019l0.4506836,0.0124969l0.4509277,0.011795l0.4509277,0.0119019
			l0.4506836,0.0119019l0.4506836,0.0124969l0.4506836,0.0119019l0.4509277,0.0120087l0.4509277,0.0112l0.4506836,0.0118866
			l0.4506836,0.0119019l0.4506836,0.0119019l0.4509277,0.0113068l0.4504395,0.0119019l0.4511719,0.0112915l0.4504395,0.0119019
			l0.4509277,0.0113068l0.4506836,0.0118866l0.4506836,0.0113068l0.4509277,0.0113068l0.4509277,0.0112915l0.4504395,0.0113068
			l0.4509277,0.0112915l0.4506836,0.0113068l0.4506836,0.0112l0.4511719,0.0106964l0.4506836,0.0113983l0.4506836,0.0113068
			l0.4506836,0.0105896l0.4509277,0.0113068l0.4504395,0.0106964l0.4509277,0.0113068l0.4509277,0.0106964l0.4506836,0.0106964
			l0.4506836,0.0106964l0.4506836,0.0107117l0.4511719,0.0106964l0.4504395,0.0106964l0.4506836,0.0106964l0.4509277,0.0107117
			l0.4506836,0.0101013l0.4506836,0.0106964l0.4509277,0.0101013l0.4504395,0.0106964l0.4511719,0.0101013l0.4506836,0.0106964
			l0.4506836,0.0101013l0.4506836,0.0099945l0.4506836,0.0101013l0.4511719,0.0101013l0.4506836,0.0101013l0.4506836,0.0101013
			l0.4506836,0.0101013l0.4509277,0.0101013l0.4506836,0.0101013l0.4506836,0.0093994l0.4509277,0.0101013l0.4506836,0.009491
			l0.4506836,0.0101013l0.4506836,0.0095062l0.4509277,0.0093994l0.4509277,0.0101929l0.4506836,0.0093994l0.4506836,0.0095062
			l0.4509277,0.009491l0.4504395,0.0095062l0.4511719,0.0095062l0.4506836,0.009491l0.4506836,0.0088043l0.4506836,0.0095062
			l0.4506836,0.009491l0.4506836,0.0088043l0.4509277,0.009491l0.4509277,0.0089111l0.4506836,0.0088959l0.4506836,0.0093994
			l0.4506836,0.0088959l0.4509277,0.0089111l0.4509277,0.0087891l0.4506836,0.0089111l0.4506836,0.0087891l0.4509277,0.0089111
			l0.4504395,0.0088959l0.4509277,0.0088959l0.4509277,0.0082092l0.4506836,0.0088959l0.4506836,0.008194l0.4506836,0.0088959
			l0.4506836,0.0082092l0.4511719,0.0088959l0.4506836,0.0082092l0.4506836,0.0082855l0.4506836,0.0082092l0.4506836,0.0088959
			l0.4509277,0.0083008l0.4509277,0.008194l0.4506836,0.0083008l0.4506836,0.0075989l0.4506836,0.0082092l0.4509277,0.0083008
			l0.4504395,0.008194l0.4509277,0.0077057l0.4509277,0.008194l0.4506836,0.0077057l0.4506836,0.008194l0.4506836,0.0075989
			l0.4509277,0.0077057l0.4506836,0.008194l0.4509277,0.0077057l0.4506836,0.0075989l0.4506836,0.0075989l0.4509277,0.0075989
			l0.4506836,0.0077057l0.4506836,0.0075989l0.4509277,0.0075989l0.4506836,0.0077057l0.4509277,0.0069885l0.4504395,0.0075989
			l0.4511719,0.0077057l0.4506836,0.006897l0.4506836,0.0077057l0.4506836,0.0070038l0.4506836,0.0075989l0.4509277,0.0069885
			l0.4506836,0.0070038l0.4509277,0.0070038l0.4506836,0.0077057l0.4506836,0.0069885l0.4506836,0.0070038l0.4506836,0.0070038
			l0.4509277,0.0070038l0.4509277,0.0069885l0.4506836,0.0064087l0.4509277,0.0070038l0.4506836,0.0069885l0.4509277,0.0070038
			l0.4506836,0.0063934l0.4506836,0.0070038l0.4506836,0.0064087l0.4506836,0.0069885l0.4506836,0.0064087l0.4511719,0.0070038
			l0.4504395,0.0063934l0.4509277,0.0063934l0.4506836,0.0063019l0.4509277,0.0071106l0.4506836,0.0063934l0.4509277,0.0064087
			l0.4506836,0.0062866l0.4506836,0.0064087l0.4506836,0.0063934l0.4509277,0.0064087l0.4504395,0.0056915l0.4511719,0.0064087
			l0.4506836,0.0063934l0.4506836,0.0064087l0.4506836,0.0056915l0.4506836,0.0064087l0.4511719,0.0057983l0.4506836,0.0063934
			l0.4506836,0.0057068l0.4506836,0.0063934l0.4506836,0.0057983l0.4506836,0.0057068l0.4511719,0.0057983l0.4506836,0.0063934
			l0.4506836,0.0057068l0.4506836,0.0057983l0.4506836,0.0056915l0.4506836,0.0058136l0.4511719,0.0056915l0.4506836,0.0057983
			l0.4506836,0.0057983l0.4506836,0.0057068l0.4506836,0.0050964l0.4511719,0.0057983l0.4506836,0.0057983l0.4506836,0.0057068
			l0.4506836,0.0052032l0.4506836,0.0056915l0.4506836,0.0050964l0.4511719,0.0058136l0.4504395,0.0050964l0.4509277,0.0057983
			l0.4506836,0.0050964l0.4506836,0.0050964l0.4509277,0.0057983l0.4509277,0.0051117l0.4506836,0.0052032l0.4506836,0.0050964
			l0.4506836,0.0050964l0.4506836,0.0050964l0.4509277,0.0057983l0.4506836,0.0051117l0.4509277,0.0050964l0.4506836,0.0045929
			l0.4506836,0.0050964l0.4506836,0.0051117l0.4509277,0.0050964l0.4506836,0.0052032l0.4509277,0.0045013l0.4506836,0.0050964
			l0.4516602,0.0050964l0.4506836,0.0045013l0.449707,0.0050964l0.4504395,0.0051117l0.451416,0.0044861l0.4504395,0.0045013
			l0.451416,0.0052032l0.4501953,0.0045013l0.4511719,0.0050964l0.4499512,0.0045013l0.4509277,0.0045013l0.4521484,0.0045013
			l0.4506836,0.0050964l0.449707,0.0045013l0.4506836,0.0045013l0.451416,0.0045013l0.4504395,0.0045013l0.4511719,0.0045013
			l0.4501953,0.0045013l0.4511719,0.0045013l0.4501953,0.0045013l0.4506836,0.0044861l0.4516602,0.0045013l0.4506836,0.0045013
			l0.449707,0.0037994l0.4521484,0.0045013l0.449707,0.0045013l0.4516602,0.0045013l0.4492188,0.0039063l0.4519043,0.0045013
			l0.4509277,0.0037994l0.451416,0.0044861l0.4504395,0.0039063l0.4494629,0.0045013l0.4519043,0.0039063l0.4511719,0.0044861
			l0.4499512,0.0038147l0.4506836,0.0044861l0.451416,0.0039063l0.4506836,0.0037994l0.4511719,0.0045013l0.4501953,0.0039063
			l0.4506836,0.0037994l0.449707,0.003891l0.4506836,0.0039063l0.4511719,0.0037994l0.4504395,0.003891l0.4509277,0.0045013
			l0.4516602,0.0039063l0.4506836,0.0037994l0.449707,0.0032043l0.4521484,0.003891l0.4511719,0.0037994l0.449707,0.0039063
			l0.4506836,0.003891l0.4516602,0.0039063l0.4501953,0.0037994l0.4511719,0.0032043l0.449707,0.003891l0.4506836,0.0037994
			l0.451416,0.0039063l0.4501953,0.0032043l0.4509277,0.003891l0.4516602,0.0032043l0.4506836,0.0039063l0.4511719,0.0031891
			l0.4501953,0.0039063l0.4506836,0.0032043l0.451416,0.0037994l0.4504395,0.0032959l0.4511719,0.0037994l0.4499512,0.0032043
			L2289.2109375,81.25l0.4511719,0.0037994l0.4501953,0.0032043l0.4509277,0.0032959l0.451416,0.0039063l0.4501953,0.0031891
			l0.4511719,0.0032043l0.4499512,0.0032043l0.4521484,0.0031891l0.4494629,0.0033112l0.4516602,0.0031891l0.4506836,0.0039063
			l0.4511719,0.0032043l0.4501953,0.0031891l0.4506836,0.0032043l0.451416,0.0032959l0.4504395,0.0025024l0.4506836,0.0033112
			l0.449707,0.0031891l0.4521484,0.0032043l0.4506836,0.0032043l0.4501953,0.0032959l0.4501953,0.0032043l0.4511719,0.002594
			l0.4511719,0.0032043l0.4506836,0.0032043l0.4506836,0.0031891l0.4516602,0.0026093l0.4501953,0.0032959l0.4511719,0.0032043
			l0.449707,0.002594l0.4506836,0.0032043l0.4506836,0.002594l0.4516602,0.0032043l0.4501953,0.002594l0.4511719,0.0032043
			l0.4511719,0.002594l0.4501953,0.0032043l0.4509277,0.002594l0.451416,0.0032043l0.4501953,0.0026093l0.4506836,0.002594
			l0.4511719,0.0032043l0.4501953,0.002594l0.4506836,0.002594l0.4509277,0.0032043l0.4499512,0.0026093l0.4521484,0.002594
			l0.4509277,0.002594l0.4499512,0.0032043l0.4501953,0.002594l0.4506836,0.0025024l0.451416,0.0026093l0.451416,0.002594
			l0.4506836,0.002594l0.449707,0.0026093l0.4511719,0.002594l0.4506836,0.0025024l0.4506836,0.002594l0.4511719,0.0026093
			l0.4501953,0.002594l0.4506836,0.0026093l0.4509277,0.002594l0.451416,0.002594l0.4501953,0.0026093l0.4509277,0.0025024
			l0.4511719,0.002594l0.4499512,0.002594l0.4519043,0.0019073l0.4509277,0.002594l0.449707,0.0026093l0.4516602,0.002594
			l0.4506836,0.0026093l0.4506836,0.0018921l0.4499512,0.002594l0.451416,0.0026093l0.4506836,0.0018921l0.4511719,0.0026093
			l0.449707,0.002594l0.4516602,0.0019989l0.4506836,0.0025024l0.4509277,0.002594l0.4499512,0.0019073l0.4516602,0.0027008
			l0.4504395,0.0018921l0.4509277,0.0026093l0.4511719,0.0018921l0.4501953,0.0026093l0.4504395,0.0018921l0.4509277,0.0027008
			l0.4509277,0.0019073l0.4501953,0.0018921l0.4516602,0.0026093l0.4506836,0.0018921l0.4509277,0.0026093l0.4499512,0.0019989
			l0.451416,0.0018921l0.4506836,0.0026093l0.4506836,0.0018921l0.4511719,0.0019989l0.4501953,0.0019073l0.4501953,0.002594
			l0.4519043,0.0019073l0.4494629,0.0019989l0.4511719,0.0018921l0.4516602,0.0026093l0.4501953,0.0018921l0.4506836,0.0019989
			l0.4509277,0.0019989l0.4509277,0.0019073l0.4501953,0.0018921l0.4516602,0.0019073l0.4506836,0.0027008l0.4506836,0.0018921
			l0.449707,0.0019073l0.4516602,0.0019989L2341.5,81.5547943l0.4516602,0.0019989l0.4506836,0.0019073l0.4509277,0.0019989
			l0.4499512,0.0019073l0.4511719,0.0018921l0.4506836,0.0019989l0.4504395,0.001297l0.4506836,0.0019073l0.4509277,0.0019989
			l0.4511719,0.0018921l0.4501953,0.0019073l0.4516602,0.0019989l0.4504395,0.0019989l0.4506836,0.0019073l0.4509277,0.001297
			l0.4511719,0.0018921l0.4499512,0.0019989l0.451416,0.0019073l0.4504395,0.001297l0.4504395,0.0019073l0.4509277,0.0019989
			l0.4509277,0.0018921l0.4511719,0.001297l0.4499512,0.0020142l0.451416,0.0018921l0.4504395,0.001297l0.4504395,0.0019073
			l0.4506836,0.0019989l0.4509277,0.001297l0.4509277,0.0019073l0.4511719,0.0019989l0.4501953,0.001297l0.4511719,0.0018921
			l0.4504395,0.0013123l0.4504395,0.0018921l0.4506836,0.001297l0.4506836,0.0019989l0.4511719,0.001297l0.4509277,0.0019073
			l0.4509277,0.001297l0.4501953,0.0019073l0.451416,0.0013885l0.4504395,0.0019073l0.451416,0.001297l0.4504395,0.0019989
			l0.4506836,0.0012054l0.4506836,0.0019989l0.4509277,0.001297l0.4509277,0.001297l0.4501953,0.0019073l0.4509277,0.001297
			l0.4511719,0.001297l0.4501953,0.0019989l0.451416,0.0013123l0.4501953,0.001297l0.4506836,0.0018921l0.451416,0.001297
			l0.4506836,0.0013123l0.4506836,0.0018921l0.4504395,0.0014038l0.4509277,0.001297l0.4509277,0.0012054l0.4506836,0.001297
			l0.4511719,0.0019989l0.449707,0.001297l0.4511719,0.001297l0.4511719,0.0013123l0.4501953,0.001297l0.4511719,0.0018921
			l0.4511719,0.0013123l0.4501953,0.001297l0.4511719,0.001297l0.4504395,0.001297l0.4504395,0.001297l0.4511719,0.0013123
			l0.4504395,0.0018921l0.451416,0.001297l0.4506836,0.0014038l0.4501953,0.0012054l0.4506836,0.001297l0.451416,0.001297
			l0.4504395,0.001297l0.4506836,0.001297l0.4504395,0.0013123l0.451416,0.001297l0.4506836,0.001297l0.4506836,0.001297
			l0.4501953,0.001297l0.4516602,0.0013123l0.4506836,0.001297l0.4504395,0.001297l0.4504395,0.001297l0.4516602,0.0010071
			l0.4501953,0.001297l0.4506836,0.0012054l0.4504395,0.0011902l0.451416,0.001297l0.4504395,0.0012054l0.451416,0.0012054
			l0.4501953,0.0011902l0.4504395,0.0012054l0.451416,0.0012054l0.4501953,0.0011902l0.4511719,0.0012054l0.4511719,0.0012054
			l0.4501953,0.0011902l0.4509277,0.0010986l0.4509277,0.0012054l0.4501953,0.0010986l0.4506836,0.0010986l0.4511719,0.0012054
			l0.4506836,0.0011902"/>
	</g>
	<g>
		<path d="M899.2999878,86.6999969V76.3000031h10.4000244v10.3999939H899.2999878z"/>
	</g>
	<g>
		<path class="st8" d="M899.2999878,86.6999969V76.3000031h10.4000244v10.3999939H899.2999878z"/>
	</g>
	<g>
		<path d="M2386.3000488,86.6999969V76.3000031h10.3999023v10.3999939H2386.3000488z"/>
	</g>
	<g>
		<path class="st8" d="M2386.3000488,86.6999969V76.3000031h10.3999023v10.3999939H2386.3000488z"/>
	</g>
	<g>
		<path d="M1931.3000488,86.6999969V76.3000031h10.3999023v10.3999939H1931.3000488z"/>
	</g>
	<g>
		<path class="st8" d="M1931.3000488,86.6999969V76.3000031h10.3999023v10.3999939H1931.3000488z"/>
	</g>
	<g>
		<path d="M1960.3000488,377.7000122v-10.4000244h10.3999023v10.4000244H1960.3000488z"/>
	</g>
	<g>
		<path class="st8" d="M1960.3000488,377.7000122v-10.4000244h10.3999023v10.4000244H1960.3000488z"/>
	</g>
	<g>
		<path d="M1999.3000488,383.7000122v-10.4000244h10.3999023v10.4000244H1999.3000488z"/>
	</g>
	<g>
		<path class="st8" d="M1999.3000488,383.7000122v-10.4000244h10.3999023v10.4000244H1999.3000488z"/>
	</g>
	<g>
		<path d="M2100.3000488,82.6999969V72.3000031h10.3999023v10.3999939H2100.3000488z"/>
	</g>
	<g>
		<path class="st8" d="M2100.3000488,82.6999969V72.3000031h10.3999023v10.3999939H2100.3000488z"/>
	</g>
	<g>
		<path d="M2024.3000488,106.6999969V96.3000031h10.3999023v10.3999939H2024.3000488z"/>
	</g>
	<g>
		<path class="st8" d="M2024.3000488,106.6999969V96.3000031h10.3999023v10.3999939H2024.3000488z"/>
	</g>
	<g>
		<path class="st9" d="M910.666687,75.0146027h79v-42h-79V75.0146027z"/>
	</g>
	<g>
		<path class="st10" d="M910.666687,75.0146027h79v-42h-79V75.0146027z"/>
	</g>
	<g transform="translate(260.6667,133.0146)">
		<text transform="matrix(1 0 0 1 654 -82.0000153)" class="st2 st3">X: 10</text>
	</g>
	<g transform="translate(260.6667,133.0146)">
		<text transform="matrix(1 0 0 1 654 -65.0000153)" class="st2 st3">Y: 0.002519</text>
	</g>
	<g>
		<path class="st9" d="M2302.3193359,75.0570068h83V33.0569992h-83V75.0570068z"/>
	</g>
	<g>
		<path class="st10" d="M2302.3193359,75.0570068h83V33.0569992h-83V75.0570068z"/>
	</g>
	<g transform="translate(1652.3195,133.057)">
		<text transform="matrix(1 0 0 1 654 -82)" class="st2 st3">X: 2e+04</text>
	</g>
	<g transform="translate(1652.3195,133.057)">
		<text transform="matrix(1 0 0 1 654 -65)" class="st2 st3">Y: -0.003171</text>
	</g>
	<g>
		<path class="st9" d="M1942.9257813,74.7536011h71v-42h-71V74.7536011z"/>
	</g>
	<g>
		<path class="st10" d="M1942.9257813,74.7536011h71v-42h-71V74.7536011z"/>
	</g>
	<g transform="translate(1292.9258,132.7536)">
		<text transform="matrix(1 0 0 1 654 -82)" class="st2 st3">X: 1950</text>
	</g>
	<g transform="translate(1292.9258,132.7536)">
		<text transform="matrix(1 0 0 1 654 -65)" class="st2 st3">Y: 0.03744</text>
	</g>
	<g>
		<path class="st9" d="M1897.4423828,366.2228088h61v-42h-61V366.2228088z"/>
	</g>
	<g>
		<path class="st10" d="M1897.4423828,366.2228088h61v-42h-61V366.2228088z"/>
	</g>
	<g transform="translate(1247.4424,424.2228)">
		<text transform="matrix(1 0 0 1 654 -82)" class="st2 st3">X: 2259</text>
	</g>
	<g transform="translate(1247.4424,424.2228)">
		<text transform="matrix(1 0 0 1 654 -65)" class="st2 st3">Y: -38.98</text>
	</g>
	<g>
		<path class="st9" d="M2010.9924316,371.6250916h54v-42h-54V371.6250916z"/>
	</g>
	<g>
		<path class="st10" d="M2010.9924316,371.6250916h54v-42h-54V371.6250916z"/>
	</g>
	<g transform="translate(1360.9924,429.6251)">
		<text transform="matrix(1 0 0 1 654 -82)" class="st2 st3">X: 2761</text>
	</g>
	<g transform="translate(1360.9924,429.6251)">
		<text transform="matrix(1 0 0 1 654 -65)" class="st2 st3">Y: -39.7</text>
	</g>
	<g>
		<path class="st9" d="M2111.9643555,71.2312012h57v-42h-57V71.2312012z"/>
	</g>
	<g>
		<path class="st10" d="M2111.9643555,71.2312012h57v-42h-57V71.2312012z"/>
	</g>
	<g transform="translate(1461.9644,129.2312)">
		<text transform="matrix(1 0 0 1 654 -82)" class="st2 st3">X: 4624</text>
	</g>
	<g transform="translate(1461.9644,129.2312)">
		<text transform="matrix(1 0 0 1 654 -65)" class="st2 st3">Y: 0.509</text>
	</g>
	<g>
		<path class="st9" d="M2036.2353516,150.3840027h54v-42h-54V150.3840027z"/>
	</g>
	<g>
		<path class="st10" d="M2036.2353516,150.3840027h54v-42h-54V150.3840027z"/>
	</g>
	<g transform="translate(1386.2354,208.384)">
		<text transform="matrix(1 0 0 1 654 -81.9999695)" class="st2 st3">X: 3141</text>
	</g>
	<g transform="translate(1386.2354,208.384)">
		<text transform="matrix(1 0 0 1 654 -64.9999695)" class="st2 st3">Y: -2.68</text>
	</g>
	<g>
		<path class="st11" d="M898.8200073,86.1799927v-9.3599854h9.3599854v9.3599854H898.8200073z"/>
	</g>
	<g>
		<path class="st12" d="M898.2999878,86.6999969V76.3000031h10.4000244v10.3999939H898.2999878z"/>
	</g>
	<g>
		<path class="st11" d="M2386.8198242,86.1799927v-9.3599854h9.3603516v9.3599854H2386.8198242z"/>
	</g>
	<g>
		<path class="st12" d="M2386.3000488,86.6999969V76.3000031h10.3999023v10.3999939H2386.3000488z"/>
	</g>
	<g>
		<path class="st11" d="M1931.8199463,86.1799927v-9.3599854h9.3601074v9.3599854H1931.8199463z"/>
	</g>
	<g>
		<path class="st12" d="M1931.3000488,86.6999969V76.3000031h10.3999023v10.3999939H1931.3000488z"/>
	</g>
	<g>
		<path class="st11" d="M1960.8199463,377.1799927v-9.3599854h9.3601074v9.3599854H1960.8199463z"/>
	</g>
	<g>
		<path class="st12" d="M1960.3000488,377.7000122v-10.4000244h10.3999023v10.4000244H1960.3000488z"/>
	</g>
	<g>
		<path class="st11" d="M1999.8199463,383.1799927v-9.3599854h9.3601074v9.3599854H1999.8199463z"/>
	</g>
	<g>
		<path class="st12" d="M1999.3000488,383.7000122v-10.4000244h10.3999023v10.4000244H1999.3000488z"/>
	</g>
	<g>
		<path class="st11" d="M2100.8198242,82.1799927v-9.3599854h9.3603516v9.3599854H2100.8198242z"/>
	</g>
	<g>
		<path class="st12" d="M2100.3000488,82.6999969V72.3000031h10.3999023v10.3999939H2100.3000488z"/>
	</g>
	<g>
		<path class="st11" d="M2024.8199463,106.1799927v-9.3599854h9.3601074v9.3599854H2024.8199463z"/>
	</g>
	<g>
		<path class="st12" d="M2024.3000488,106.6999969V96.3000031h10.3999023v10.3999939H2024.3000488z"/>
	</g>
</g>
</svg>
