<?xml version="1.0" encoding="utf-8"?>
<!-- Generator: Adobe Illustrator 19.0.0, SVG Export Plug-In . SVG Version: 6.00 Build 0)  -->
<svg version="1.1" id="Layer_1" xmlns="http://www.w3.org/2000/svg" xmlns:xlink="http://www.w3.org/1999/xlink" x="0px" y="0px"
	 viewBox="0 0 720.5 580.5" style="enable-background:new 0 0 720.5 580.5;" xml:space="preserve">
<style type="text/css">
	.st0{opacity:0.2;fill:#009688;}
	.st1{fill:#009688;}
	.st2{font-family:'Arial-BoldMT';}
	.st3{font-size:11.1751px;}
	.st4{fill:none;stroke:#000000;stroke-miterlimit:10;}
	.st5{fill:none;stroke:#000000;stroke-miterlimit:10;stroke-dasharray:12.0606,12.0606;}
	.st6{fill:none;stroke:#000000;stroke-miterlimit:10;stroke-dasharray:11.8065,11.8065;}
	.st7{font-size:12px;}
	.st8{fill:none;stroke:#010101;stroke-linecap:square;stroke-miterlimit:10;}
	.st9{fill:#010101;}
	.st10{font-size:11.6217px;}
	.st11{fill:none;stroke:#010101;stroke-width:2;stroke-linecap:square;stroke-miterlimit:10;}
	.st12{fill-rule:evenodd;clip-rule:evenodd;fill:#ED2224;stroke:#ED2224;stroke-linecap:square;stroke-miterlimit:10;}
	.st13{font-family:'CourierNewPS-BoldMT';}
	
		.st14{fill-rule:evenodd;clip-rule:evenodd;fill:#C1DCC1;stroke:#010101;stroke-width:0;stroke-linecap:square;stroke-miterlimit:10;}
	
		.st15{fill-rule:evenodd;clip-rule:evenodd;fill:#C1C0C0;stroke:#FFFFFF;stroke-width:0;stroke-linecap:square;stroke-miterlimit:10;}
	.st16{fill:none;stroke:#010101;stroke-width:0;stroke-linecap:square;stroke-miterlimit:10;}
	
		.st17{fill-rule:evenodd;clip-rule:evenodd;fill:#9F9FA3;stroke:#010101;stroke-width:0;stroke-linecap:square;stroke-miterlimit:10;}
	.st18{font-family:'ArialMT';}
	.st19{font-size:10.7278px;}
	.st20{fill-rule:evenodd;clip-rule:evenodd;fill:#282A74;stroke:#282A74;stroke-linecap:square;stroke-miterlimit:10;}
	.st21{fill-rule:evenodd;clip-rule:evenodd;fill:#F58020;stroke:#F58020;stroke-linecap:square;stroke-miterlimit:10;}
	.st22{fill:#F58020;}
	.st23{font-size:6.2613px;}
	
		.st24{fill-rule:evenodd;clip-rule:evenodd;fill:#010101;stroke:#010101;stroke-width:0;stroke-linecap:square;stroke-miterlimit:10;}
	.st25{fill-rule:evenodd;clip-rule:evenodd;fill:#0F8140;stroke:#0F8140;stroke-linecap:square;stroke-miterlimit:10;}
	.st26{fill:#0F8140;}
	.st27{fill:none;stroke:#ED2224;stroke-linecap:square;stroke-miterlimit:10;}
	.st28{fill:none;stroke:#282A74;stroke-linecap:square;stroke-miterlimit:10;}
	.st29{fill:none;stroke:#F58020;stroke-linecap:square;stroke-miterlimit:10;}
	.st30{fill:none;stroke:#0F8140;stroke-linecap:square;stroke-miterlimit:10;}
</style>
<rect id="XMLID_1_" x="84.9" y="5.5" class="st0" width="297.7" height="195.3"/>
<rect id="XMLID_443_" x="387.6" y="5.5" class="st0" width="290.2" height="195.3"/>
<rect id="XMLID_444_" x="272.2" y="209.8" class="st0" width="225.9" height="163.7"/>
<text id="XMLID_481_" transform="matrix(0.9995 0 0 1 104.4667 197.7914)" class="st1 st2 st3">Unit 1</text>
<text id="XMLID_482_" transform="matrix(0.9995 0 0 1 607.8894 197.7913)" class="st1 st2 st3">Unit 2</text>
<text id="XMLID_483_" transform="matrix(0.9995 0 0 1 274.7962 370.5005)" class="st1 st2 st3">Gain Adjustment Unit</text>
<g id="XMLID_445_">
	<g id="XMLID_461_">
		<polyline id="XMLID_469_" class="st4" points="682.8,372.5 682.8,378.5 676.8,378.5 		"/>
		<line id="XMLID_468_" class="st5" x1="664.8" y1="378.5" x2="91.9" y2="378.5"/>
		<polyline id="XMLID_467_" class="st4" points="85.9,378.5 79.9,378.5 79.9,372.5 		"/>
		<line id="XMLID_466_" class="st6" x1="79.9" y1="360.7" x2="79.9" y2="12.4"/>
		<polyline id="XMLID_465_" class="st4" points="79.9,6.5 79.9,0.5 85.9,0.5 		"/>
		<line id="XMLID_464_" class="st5" x1="97.9" y1="0.5" x2="670.8" y2="0.5"/>
		<polyline id="XMLID_463_" class="st4" points="676.8,0.5 682.8,0.5 682.8,6.5 		"/>
		<line id="XMLID_462_" class="st6" x1="682.8" y1="18.3" x2="682.8" y2="366.6"/>
	</g>
</g>
<text id="XMLID_485_" transform="matrix(1 0 0 1 654.2493 393.4999)" class="st2 st7">Filter</text>
<g id="XMLID_953_">
	<polyline id="XMLID_951_" class="st8" points="161.3,90.6 164,86.1 167.6,94.2 172.1,86.1 175.6,94.2 180.1,86.1 183.7,94.2 
		185.5,90.6 	"/>
	<text id="XMLID_950_" transform="matrix(0.9995 0 0 1 165.7973 80.7497)"><tspan x="0" y="0" class="st9 st2 st10">R</tspan><tspan x="8.9" y="0" class="st9 st2 st10">1</tspan></text>
	<text id="XMLID_949_" transform="matrix(0.9995 0 0 1 148.8252 108.4552)"><tspan x="0" y="0" class="st9 st2 st10">122</tspan><tspan x="18.8" y="0" class="st9 st2 st10">.</tspan><tspan x="22.4" y="0" class="st9 st2 st10">88</tspan><tspan x="34.9" y="0" class="st9 st2 st10">Ω</tspan><tspan x="44.7" y="0" class="st9 st2 st10"> </tspan></text>
	<line id="XMLID_948_" class="st8" x1="153.3" y1="90.6" x2="153.3" y2="90.6"/>
	<line id="XMLID_947_" class="st8" x1="161.3" y1="90.6" x2="153.3" y2="90.6"/>
	<line id="XMLID_946_" class="st8" x1="193.5" y1="90.6" x2="193.5" y2="90.6"/>
	<line id="XMLID_945_" class="st8" x1="185.5" y1="90.6" x2="193.5" y2="90.6"/>
	<polyline id="XMLID_944_" class="st8" points="273.9,50.4 278.4,53 270.3,56.6 278.4,61.1 270.3,64.7 278.4,69.1 270.3,72.7 
		273.9,74.5 	"/>
	<text id="XMLID_943_" transform="matrix(0.9995 0 0 1 280.1704 51.2424)"><tspan x="0" y="0" class="st9 st2 st10">R</tspan><tspan x="8.9" y="0" class="st9 st2 st10">2</tspan></text>
	<text id="XMLID_942_" transform="matrix(0.9995 0 0 1 280.1704 67.3395)"><tspan x="0" y="0" class="st9 st2 st10">166</tspan><tspan x="18.8" y="0" class="st9 st2 st10">.</tspan><tspan x="22.4" y="0" class="st9 st2 st10">6</tspan><tspan x="28.6" y="0" class="st9 st2 st10">Ω</tspan><tspan x="38.5" y="0" class="st9 st2 st10"> </tspan></text>
	<line id="XMLID_941_" class="st8" x1="273.9" y1="42.3" x2="273.9" y2="42.3"/>
	<line id="XMLID_940_" class="st8" x1="273.9" y1="50.4" x2="273.9" y2="42.3"/>
	<line id="XMLID_939_" class="st8" x1="273.9" y1="82.5" x2="273.9" y2="82.5"/>
	<line id="XMLID_938_" class="st8" x1="273.9" y1="74.5" x2="273.9" y2="82.5"/>
	<polyline id="XMLID_937_" class="st8" points="201.5,122.8 204.2,118.3 207.8,126.3 212.3,118.3 215.8,126.3 220.3,118.3 
		223.9,126.3 225.7,122.8 	"/>
	<text id="XMLID_936_" transform="matrix(0.9995 0 0 1 198.8598 112.9259)"><tspan x="0" y="0" class="st9 st2 st10">R</tspan><tspan x="8.9" y="0" class="st9 st2 st10">3</tspan></text>
	<text id="XMLID_935_" transform="matrix(0.9995 0 0 1 197.0796 140.6398)"><tspan x="0" y="0" class="st9 st2 st10">229</tspan><tspan x="18.8" y="0" class="st9 st2 st10">Ω</tspan><tspan x="28.6" y="0" class="st9 st2 st10"> </tspan></text>
	<line id="XMLID_934_" class="st8" x1="193.5" y1="122.8" x2="193.5" y2="122.8"/>
	<line id="XMLID_933_" class="st8" x1="201.5" y1="122.8" x2="193.5" y2="122.8"/>
	<line id="XMLID_932_" class="st8" x1="233.7" y1="122.8" x2="233.7" y2="122.8"/>
	<line id="XMLID_931_" class="st8" x1="225.7" y1="122.8" x2="233.7" y2="122.8"/>
	<polyline id="XMLID_930_" class="st8" points="233.7,138.9 238.2,141.5 230.1,145.1 238.2,149.6 230.1,153.2 238.2,157.6 
		230.1,161.2 233.7,163 	"/>
	<text id="XMLID_929_" transform="matrix(0.9995 0 0 1 239.0678 133.4865)"><tspan x="0" y="0" class="st9 st2 st10">R</tspan><tspan x="8.9" y="0" class="st9 st2 st10">4</tspan></text>
	<text id="XMLID_928_" transform="matrix(0.9995 0 0 1 239.9624 154.05)"><tspan x="0" y="0" class="st9 st2 st10">122</tspan><tspan x="18.8" y="0" class="st9 st2 st10">.</tspan><tspan x="22.4" y="0" class="st9 st2 st10">9</tspan><tspan x="28.6" y="0" class="st9 st2 st10">Ω</tspan><tspan x="38.5" y="0" class="st9 st2 st10"> </tspan></text>
	<line id="XMLID_927_" class="st8" x1="233.7" y1="130.8" x2="233.7" y2="130.8"/>
	<line id="XMLID_926_" class="st8" x1="233.7" y1="138.9" x2="233.7" y2="130.8"/>
	<line id="XMLID_925_" class="st8" x1="233.7" y1="171" x2="233.7" y2="171"/>
	<line id="XMLID_924_" class="st8" x1="233.7" y1="163" x2="233.7" y2="171"/>
	<polyline id="XMLID_923_" class="st8" points="273.9,163 278.4,165.7 270.3,169.3 278.4,173.7 270.3,177.3 278.4,181.8 
		270.3,185.3 273.9,187.1 	"/>
	<text id="XMLID_922_" transform="matrix(0.9995 0 0 1 280.1704 163.8898)"><tspan x="0" y="0" class="st9 st2 st10">R</tspan><tspan x="8.9" y="0" class="st9 st2 st10">5</tspan></text>
	<text id="XMLID_921_" transform="matrix(0.9995 0 0 1 280.1704 179.9748)"><tspan x="0" y="0" class="st9 st2 st10">633</tspan><tspan x="18.8" y="0" class="st9 st2 st10">Ω</tspan><tspan x="28.6" y="0" class="st9 st2 st10"> </tspan></text>
	<line id="XMLID_920_" class="st8" x1="273.9" y1="155" x2="273.9" y2="155"/>
	<line id="XMLID_919_" class="st8" x1="273.9" y1="163" x2="273.9" y2="155"/>
	<line id="XMLID_918_" class="st8" x1="273.9" y1="195.2" x2="273.9" y2="195.2"/>
	<line id="XMLID_917_" class="st8" x1="273.9" y1="187.1" x2="273.9" y2="195.2"/>
	<line id="XMLID_916_" class="st8" x1="225.7" y1="34.3" x2="235.5" y2="34.3"/>
	<line id="XMLID_915_" class="st11" x1="235.5" y1="42.3" x2="235.5" y2="26.2"/>
	<line id="XMLID_914_" class="st11" x1="240.9" y1="42.3" x2="240.9" y2="26.2"/>
	<line id="XMLID_913_" class="st8" x1="240.9" y1="34.3" x2="249.8" y2="34.3"/>
	<text id="XMLID_912_" transform="matrix(0.9995 0 0 1 230.1362 19.9523)"><tspan x="0" y="0" class="st9 st2 st10">C</tspan><tspan x="8.9" y="0" class="st9 st2 st10">1</tspan></text>
	<text id="XMLID_911_" transform="matrix(0.9995 0 0 1 220.3086 55.7106)"><tspan x="0" y="0" class="st9 st2 st10">0</tspan><tspan x="6.3" y="0" class="st9 st2 st10">.</tspan><tspan x="9.8" y="0" class="st9 st2 st10">1</tspan><tspan x="16.1" y="0" class="st9 st2 st10">uF</tspan><tspan x="30.4" y="0" class="st9 st2 st10"> </tspan></text>
	<line id="XMLID_910_" class="st8" x1="257.8" y1="34.3" x2="257.8" y2="34.3"/>
	<line id="XMLID_909_" class="st8" x1="249.8" y1="34.3" x2="257.8" y2="34.3"/>
	<line id="XMLID_908_" class="st8" x1="217.6" y1="34.3" x2="217.6" y2="34.3"/>
	<line id="XMLID_907_" class="st8" x1="225.7" y1="34.3" x2="217.6" y2="34.3"/>
	<line id="XMLID_906_" class="st8" x1="225.7" y1="90.6" x2="235.5" y2="90.6"/>
	<line id="XMLID_905_" class="st11" x1="235.5" y1="98.6" x2="235.5" y2="82.5"/>
	<line id="XMLID_904_" class="st11" x1="240.9" y1="98.6" x2="240.9" y2="82.5"/>
	<line id="XMLID_903_" class="st8" x1="240.9" y1="90.6" x2="249.8" y2="90.6"/>
	<text id="XMLID_902_" transform="matrix(0.9995 0 0 1 230.1362 76.2795)"><tspan x="0" y="0" class="st9 st2 st10">C</tspan><tspan x="8.9" y="0" class="st9 st2 st10">2</tspan></text>
	<text id="XMLID_901_" transform="matrix(0.9995 0 0 1 220.3086 112.0387)"><tspan x="0" y="0" class="st9 st2 st10">0</tspan><tspan x="6.3" y="0" class="st9 st2 st10">.</tspan><tspan x="9.8" y="0" class="st9 st2 st10">1</tspan><tspan x="16.1" y="0" class="st9 st2 st10">uF</tspan><tspan x="30.4" y="0" class="st9 st2 st10"> </tspan></text>
	<line id="XMLID_900_" class="st8" x1="257.8" y1="90.6" x2="257.8" y2="90.6"/>
	<line id="XMLID_899_" class="st8" x1="249.8" y1="90.6" x2="257.8" y2="90.6"/>
	<line id="XMLID_898_" class="st8" x1="217.6" y1="90.6" x2="217.6" y2="90.6"/>
	<line id="XMLID_897_" class="st8" x1="225.7" y1="90.6" x2="217.6" y2="90.6"/>
	<text id="XMLID_896_" transform="matrix(0.9995 0 0 1 323.061 109.3503)"><tspan x="0" y="0" class="st9 st2 st10">U</tspan><tspan x="8.9" y="0" class="st9 st2 st10">1</tspan></text>
	<polygon id="XMLID_895_" class="st8" points="306.1,130.8 306.1,82.5 354.3,106.7 306.1,130.8 	"/>
	<line id="XMLID_894_" class="st8" x1="314.1" y1="93.3" x2="308.8" y2="93.3"/>
	<line id="XMLID_893_" class="st8" x1="308.8" y1="120.1" x2="314.1" y2="120.1"/>
	<line id="XMLID_892_" class="st8" x1="311.5" y1="122.8" x2="311.5" y2="117.4"/>
	<line id="XMLID_891_" class="st8" x1="290" y1="122.8" x2="290" y2="122.8"/>
	<line id="XMLID_890_" class="st8" x1="306.1" y1="122.8" x2="290" y2="122.8"/>
	<line id="XMLID_889_" class="st8" x1="290" y1="90.6" x2="290" y2="90.6"/>
	<line id="XMLID_888_" class="st8" x1="306.1" y1="90.6" x2="290" y2="90.6"/>
	<line id="XMLID_887_" class="st8" x1="370.4" y1="106.7" x2="370.4" y2="106.7"/>
	<line id="XMLID_886_" class="st8" x1="354.3" y1="106.7" x2="370.4" y2="106.7"/>
	<path id="XMLID_885_" class="st12" d="M272.1,90.1c0-0.7,0.6-1.3,1.3-1.3c0.7,0,1.3,0.6,1.3,1.3s-0.6,1.3-1.3,1.3
		C272.7,91.5,272.1,90.9,272.1,90.1L272.1,90.1z"/>
	<path id="XMLID_884_" class="st12" d="M207.8,90.1c0-0.7,0.6-1.3,1.3-1.3c0.7,0,1.3,0.6,1.3,1.3s-0.6,1.3-1.3,1.3
		C208.4,91.5,207.8,90.9,207.8,90.1L207.8,90.1z"/>
	<path id="XMLID_883_" class="st12" d="M231.9,122.3c0-0.7,0.6-1.3,1.3-1.3c0.7,0,1.3,0.6,1.3,1.3s-0.6,1.3-1.3,1.3
		C232.5,123.7,231.9,123.1,231.9,122.3L231.9,122.3z"/>
	<polyline id="XMLID_882_" class="st8" points="426.7,90.6 429.4,86.1 433,94.2 437.4,86.1 441,94.2 445.5,86.1 449.1,94.2 
		450.8,90.6 	"/>
	<text id="XMLID_881_" transform="matrix(0.9995 0 0 1 431.1816 80.7497)"><tspan x="0" y="0" class="st9 st2 st10">R</tspan><tspan x="8.9" y="0" class="st9 st2 st10">6</tspan></text>
	<text id="XMLID_880_" transform="matrix(0.9995 0 0 1 420.459 108.4552)"><tspan x="0" y="0" class="st9 st2 st10">50</tspan><tspan x="12.5" y="0" class="st9 st2 st10">.</tspan><tspan x="16.1" y="0" class="st9 st2 st10">9</tspan><tspan x="22.4" y="0" class="st9 st2 st10">Ω</tspan><tspan x="32.2" y="0" class="st9 st2 st10"> </tspan></text>
	<line id="XMLID_879_" class="st8" x1="418.7" y1="90.6" x2="418.7" y2="90.6"/>
	<line id="XMLID_878_" class="st8" x1="426.7" y1="90.6" x2="418.7" y2="90.6"/>
	<line id="XMLID_877_" class="st8" x1="458.9" y1="90.6" x2="458.9" y2="90.6"/>
	<line id="XMLID_876_" class="st8" x1="450.8" y1="90.6" x2="458.9" y2="90.6"/>
	<polyline id="XMLID_875_" class="st8" points="539.3,50.4 543.8,53 535.7,56.6 543.8,61.1 535.7,64.7 543.8,69.1 535.7,72.7 
		539.3,74.5 	"/>
	<text id="XMLID_874_" transform="matrix(0.9995 0 0 1 545.5537 51.2424)"><tspan x="0" y="0" class="st9 st2 st10">R</tspan><tspan x="8.9" y="0" class="st9 st2 st10">7</tspan></text>
	<text id="XMLID_873_" transform="matrix(0.9995 0 0 1 545.5537 67.3395)"><tspan x="0" y="0" class="st9 st2 st10">666</tspan><tspan x="18.8" y="0" class="st9 st2 st10">Ω</tspan><tspan x="28.6" y="0" class="st9 st2 st10"> </tspan></text>
	<line id="XMLID_872_" class="st8" x1="539.3" y1="42.3" x2="539.3" y2="42.3"/>
	<line id="XMLID_871_" class="st8" x1="539.3" y1="50.4" x2="539.3" y2="42.3"/>
	<line id="XMLID_870_" class="st8" x1="539.3" y1="82.5" x2="539.3" y2="82.5"/>
	<line id="XMLID_869_" class="st8" x1="539.3" y1="74.5" x2="539.3" y2="82.5"/>
	<polyline id="XMLID_868_" class="st8" points="466.9,122.8 469.6,118.3 473.2,126.3 477.7,118.3 481.2,126.3 485.7,118.3 
		489.3,126.3 491.1,122.8 	"/>
	<text id="XMLID_867_" transform="matrix(0.9995 0 0 1 464.2461 112.9259)"><tspan x="0" y="0" class="st9 st2 st10">R</tspan><tspan x="8.9" y="0" class="st9 st2 st10">8</tspan></text>
	<text id="XMLID_866_" transform="matrix(0.9995 0 0 1 457.0996 140.6398)"><tspan x="0" y="0" class="st9 st2 st10">94</tspan><tspan x="12.5" y="0" class="st9 st2 st10">.</tspan><tspan x="16.1" y="0" class="st9 st2 st10">85</tspan><tspan x="28.6" y="0" class="st9 st2 st10">Ω</tspan><tspan x="38.5" y="0" class="st9 st2 st10"> </tspan></text>
	<line id="XMLID_865_" class="st8" x1="458.9" y1="122.8" x2="458.9" y2="122.8"/>
	<line id="XMLID_864_" class="st8" x1="466.9" y1="122.8" x2="458.9" y2="122.8"/>
	<line id="XMLID_863_" class="st8" x1="499.1" y1="122.8" x2="499.1" y2="122.8"/>
	<line id="XMLID_862_" class="st8" x1="491.1" y1="122.8" x2="499.1" y2="122.8"/>
	<polyline id="XMLID_861_" class="st8" points="499.1,138.9 503.6,141.5 495.5,145.1 503.6,149.6 495.5,153.2 503.6,157.6 
		495.5,161.2 499.1,163 	"/>
	<text id="XMLID_860_" transform="matrix(0.9995 0 0 1 504.459 133.4865)"><tspan x="0" y="0" class="st9 st2 st10">R</tspan><tspan x="8.9" y="0" class="st9 st2 st10">9</tspan></text>
	<text id="XMLID_859_" transform="matrix(0.9995 0 0 1 505.3437 154.05)"><tspan x="0" y="0" class="st9 st2 st10">50</tspan><tspan x="12.5" y="0" class="st9 st2 st10">.</tspan><tspan x="16.1" y="0" class="st9 st2 st10">9</tspan><tspan x="22.4" y="0" class="st9 st2 st10">Ω</tspan><tspan x="32.2" y="0" class="st9 st2 st10"> </tspan></text>
	<line id="XMLID_858_" class="st8" x1="499.1" y1="130.8" x2="499.1" y2="130.8"/>
	<line id="XMLID_857_" class="st8" x1="499.1" y1="138.9" x2="499.1" y2="130.8"/>
	<line id="XMLID_856_" class="st8" x1="499.1" y1="171" x2="499.1" y2="171"/>
	<line id="XMLID_855_" class="st8" x1="499.1" y1="163" x2="499.1" y2="171"/>
	<polyline id="XMLID_854_" class="st8" points="539.3,163 543.8,165.7 535.7,169.3 543.8,173.7 535.7,177.3 543.8,181.8 
		535.7,185.3 539.3,187.1 	"/>
	<text id="XMLID_853_" transform="matrix(0.9995 0 0 1 545.5537 163.8898)"><tspan x="0" y="0" class="st9 st2 st10">R</tspan><tspan x="8.9" y="0" class="st9 st2 st10">1</tspan><tspan x="15.2" y="0" class="st9 st2 st10">0</tspan></text>
	<text id="XMLID_852_" transform="matrix(0.9995 0 0 1 545.5537 179.9748)"><tspan x="0" y="0" class="st9 st2 st10">59</tspan><tspan x="12.5" y="0" class="st9 st2 st10">.</tspan><tspan x="16.1" y="0" class="st9 st2 st10">5</tspan><tspan x="22.4" y="0" class="st9 st2 st10">Ω</tspan><tspan x="32.2" y="0" class="st9 st2 st10"> </tspan></text>
	<line id="XMLID_851_" class="st8" x1="539.3" y1="155" x2="539.3" y2="155"/>
	<line id="XMLID_850_" class="st8" x1="539.3" y1="163" x2="539.3" y2="155"/>
	<line id="XMLID_849_" class="st8" x1="539.3" y1="195.2" x2="539.3" y2="195.2"/>
	<line id="XMLID_848_" class="st8" x1="539.3" y1="187.1" x2="539.3" y2="195.2"/>
	<line id="XMLID_847_" class="st8" x1="491.1" y1="34.3" x2="500.9" y2="34.3"/>
	<line id="XMLID_846_" class="st11" x1="500.9" y1="42.3" x2="500.9" y2="26.2"/>
	<line id="XMLID_845_" class="st11" x1="506.2" y1="42.3" x2="506.2" y2="26.2"/>
	<line id="XMLID_844_" class="st8" x1="506.2" y1="34.3" x2="515.2" y2="34.3"/>
	<text id="XMLID_843_" transform="matrix(0.9995 0 0 1 495.5175 19.9523)"><tspan x="0" y="0" class="st9 st2 st10">C</tspan><tspan x="8.9" y="0" class="st9 st2 st10">3</tspan></text>
	<text id="XMLID_842_" transform="matrix(0.9995 0 0 1 485.6914 55.7106)"><tspan x="0" y="0" class="st9 st2 st10">0</tspan><tspan x="6.3" y="0" class="st9 st2 st10">.</tspan><tspan x="9.8" y="0" class="st9 st2 st10">1</tspan><tspan x="16.1" y="0" class="st9 st2 st10">uF</tspan><tspan x="30.4" y="0" class="st9 st2 st10"> </tspan></text>
	<line id="XMLID_841_" class="st8" x1="523.2" y1="34.3" x2="523.2" y2="34.3"/>
	<line id="XMLID_840_" class="st8" x1="515.2" y1="34.3" x2="523.2" y2="34.3"/>
	<line id="XMLID_839_" class="st8" x1="483" y1="34.3" x2="483" y2="34.3"/>
	<line id="XMLID_838_" class="st8" x1="491.1" y1="34.3" x2="483" y2="34.3"/>
	<line id="XMLID_837_" class="st8" x1="491.1" y1="90.6" x2="500.9" y2="90.6"/>
	<line id="XMLID_836_" class="st11" x1="500.9" y1="98.6" x2="500.9" y2="82.5"/>
	<line id="XMLID_835_" class="st11" x1="506.2" y1="98.6" x2="506.2" y2="82.5"/>
	<line id="XMLID_834_" class="st8" x1="506.2" y1="90.6" x2="515.2" y2="90.6"/>
	<text id="XMLID_833_" transform="matrix(0.9995 0 0 1 495.5175 76.2795)"><tspan x="0" y="0" class="st9 st2 st10">C</tspan><tspan x="8.9" y="0" class="st9 st2 st10">4</tspan></text>
	<text id="XMLID_832_" transform="matrix(0.9995 0 0 1 485.6914 112.0387)"><tspan x="0" y="0" class="st9 st2 st10">0</tspan><tspan x="6.3" y="0" class="st9 st2 st10">.</tspan><tspan x="9.8" y="0" class="st9 st2 st10">1</tspan><tspan x="16.1" y="0" class="st9 st2 st10">uF</tspan><tspan x="30.4" y="0" class="st9 st2 st10"> </tspan></text>
	<line id="XMLID_831_" class="st8" x1="523.2" y1="90.6" x2="523.2" y2="90.6"/>
	<line id="XMLID_830_" class="st8" x1="515.2" y1="90.6" x2="523.2" y2="90.6"/>
	<line id="XMLID_829_" class="st8" x1="483" y1="90.6" x2="483" y2="90.6"/>
	<line id="XMLID_828_" class="st8" x1="491.1" y1="90.6" x2="483" y2="90.6"/>
	<text id="XMLID_827_" transform="matrix(0.9995 0 0 1 588.4502 109.3503)"><tspan x="0" y="0" class="st9 st2 st10">U</tspan><tspan x="8.9" y="0" class="st9 st2 st10">2</tspan></text>
	<polygon id="XMLID_826_" class="st8" points="571.5,130.8 571.5,82.5 619.7,106.7 571.5,130.8 	"/>
	<line id="XMLID_825_" class="st8" x1="579.5" y1="93.3" x2="574.2" y2="93.3"/>
	<line id="XMLID_824_" class="st8" x1="574.2" y1="120.1" x2="579.5" y2="120.1"/>
	<line id="XMLID_823_" class="st8" x1="576.8" y1="122.8" x2="576.8" y2="117.4"/>
	<line id="XMLID_822_" class="st8" x1="555.4" y1="122.8" x2="555.4" y2="122.8"/>
	<line id="XMLID_821_" class="st8" x1="571.5" y1="122.8" x2="555.4" y2="122.8"/>
	<line id="XMLID_820_" class="st8" x1="555.4" y1="90.6" x2="555.4" y2="90.6"/>
	<line id="XMLID_819_" class="st8" x1="571.5" y1="90.6" x2="555.4" y2="90.6"/>
	<line id="XMLID_818_" class="st8" x1="635.8" y1="106.7" x2="635.8" y2="106.7"/>
	<line id="XMLID_817_" class="st8" x1="619.7" y1="106.7" x2="635.8" y2="106.7"/>
	<path id="XMLID_816_" class="st12" d="M537.5,90.1c0-0.7,0.6-1.3,1.3-1.3c0.7,0,1.3,0.6,1.3,1.3s-0.6,1.3-1.3,1.3
		C538.1,91.5,537.5,90.9,537.5,90.1L537.5,90.1z"/>
	<path id="XMLID_815_" class="st12" d="M473.2,90.1c0-0.7,0.6-1.3,1.3-1.3c0.7,0,1.3,0.6,1.3,1.3s-0.6,1.3-1.3,1.3
		C473.8,91.5,473.2,90.9,473.2,90.1L473.2,90.1z"/>
	<path id="XMLID_814_" class="st12" d="M497.3,122.3c0-0.7,0.6-1.3,1.3-1.3c0.7,0,1.3,0.6,1.3,1.3s-0.6,1.3-1.3,1.3
		C497.9,123.7,497.3,123.1,497.3,122.3L497.3,122.3z"/>
	<text id="XMLID_813_" transform="matrix(0.9995 0 0 1 42.4907 420.4616)"><tspan x="0" y="0" class="st9 st2 st10">V</tspan><tspan x="8" y="0" class="st9 st2 st10">1</tspan></text>
	<text id="XMLID_812_" transform="matrix(0.9995 0 0 1 41.5966 434.7555)"><tspan x="0" y="0" class="st9 st2 st10">1</tspan><tspan x="6.3" y="0" class="st9 st2 st10">V</tspan><tspan x="14.3" y="0" class="st9 st2 st10">p</tspan><tspan x="21.5" y="0" class="st9 st2 st10">k</tspan><tspan x="27.7" y="0" class="st9 st2 st10"> </tspan></text>
	<text id="XMLID_811_" transform="matrix(0.9995 0 0 1 41.5966 448.1657)"><tspan x="0" y="0" class="st9 st2 st10">1k</tspan><tspan x="12.5" y="0" class="st9 st2 st10">H</tspan><tspan x="21.5" y="0" class="st9 st2 st10">z</tspan><tspan x="27.7" y="0" class="st9 st2 st10"> </tspan></text>
	<text id="XMLID_810_" transform="matrix(0.9995 0 0 1 41.5966 461.5758)"><tspan x="0" y="0" class="st9 st2 st10">0</tspan><tspan x="6.3" y="0" class="st9 st2 st10">°</tspan><tspan x="10.7" y="0" class="st9 st2 st10"> </tspan></text>
	<line id="XMLID_809_" class="st8" x1="24.6" y1="431.2" x2="24.6" y2="436.6"/>
	<line id="XMLID_808_" class="st8" x1="21.9" y1="433.9" x2="27.3" y2="433.9"/>
	<line id="XMLID_807_" class="st8" x1="21.9" y1="455.3" x2="27.3" y2="455.3"/>
	<path id="XMLID_806_" class="st8" d="M8.5,444.2c0-8.7,6.9-15.6,15.6-15.6s15.6,7,15.6,15.6c0,8.7-6.9,15.6-15.6,15.6
		S8.5,452.8,8.5,444.2L8.5,444.2z"/>
	<path id="XMLID_805_" class="st8" d="M23.7,444.5c0-0.1,0-0.2,0-0.3c0-1.2-1-2.2-2.2-2.2c-1.2,0-2.2,1-2.2,2.2c0,0.2,0,0.3,0,0.4"
		/>
	<path id="XMLID_804_" class="st8" d="M24.7,444.6c0.2,1,1.1,1.8,2.2,1.8c1.1,0,2.1-0.8,2.2-1.9"/>
	<line id="XMLID_803_" class="st8" x1="24.6" y1="420.5" x2="24.6" y2="420.5"/>
	<line id="XMLID_802_" class="st8" x1="24.6" y1="428.5" x2="24.6" y2="420.5"/>
	<line id="XMLID_801_" class="st8" x1="24.6" y1="468.7" x2="24.6" y2="468.7"/>
	<line id="XMLID_800_" class="st8" x1="24.6" y1="460.7" x2="24.6" y2="468.7"/>
	<text id="XMLID_799_" transform="matrix(0.9995 0 0 1 403.4804 310.4919)"><tspan x="0" y="0" class="st9 st2 st10">U</tspan><tspan x="8.9" y="0" class="st9 st2 st10">3</tspan></text>
	<polygon id="XMLID_798_" class="st8" points="386.5,332 386.5,283.7 434.8,307.8 386.5,332 	"/>
	<line id="XMLID_797_" class="st8" x1="394.6" y1="294.4" x2="389.2" y2="294.4"/>
	<line id="XMLID_796_" class="st8" x1="389.2" y1="321.2" x2="394.6" y2="321.2"/>
	<line id="XMLID_795_" class="st8" x1="391.9" y1="323.9" x2="391.9" y2="318.5"/>
	<line id="XMLID_794_" class="st8" x1="370.4" y1="323.9" x2="370.4" y2="323.9"/>
	<line id="XMLID_793_" class="st8" x1="386.5" y1="323.9" x2="370.4" y2="323.9"/>
	<line id="XMLID_792_" class="st8" x1="370.4" y1="291.7" x2="370.4" y2="291.7"/>
	<line id="XMLID_791_" class="st8" x1="386.5" y1="291.7" x2="370.4" y2="291.7"/>
	<line id="XMLID_790_" class="st8" x1="450.8" y1="307.8" x2="450.8" y2="307.8"/>
	<line id="XMLID_789_" class="st8" x1="434.8" y1="307.8" x2="450.8" y2="307.8"/>
	<polyline id="XMLID_788_" class="st8" points="298,291.7 300.7,287.3 304.3,295.3 308.8,287.3 312.3,295.3 316.8,287.3 
		320.4,295.3 322.2,291.7 	"/>
	<text id="XMLID_787_" transform="matrix(0.9995 0 0 1 298.0424 281.8952)"><tspan x="0" y="0" class="st9 st2 st10">R</tspan><tspan x="8.9" y="0" class="st9 st2 st10">1</tspan><tspan x="15.2" y="0" class="st9 st2 st10">1</tspan></text>
	<text id="XMLID_786_" transform="matrix(0.9995 0 0 1 293.5722 309.5983)"><tspan x="0" y="0" class="st9 st2 st10">10k</tspan><tspan x="18.8" y="0" class="st9 st2 st10">Ω</tspan><tspan x="28.6" y="0" class="st9 st2 st10"> </tspan></text>
	<line id="XMLID_785_" class="st8" x1="290" y1="291.7" x2="290" y2="291.7"/>
	<line id="XMLID_784_" class="st8" x1="298" y1="291.7" x2="290" y2="291.7"/>
	<line id="XMLID_783_" class="st8" x1="330.2" y1="291.7" x2="330.2" y2="291.7"/>
	<line id="XMLID_782_" class="st8" x1="322.2" y1="291.7" x2="330.2" y2="291.7"/>
	<polyline id="XMLID_781_" class="st8" points="370.4,251.5 373.1,247 376.7,255.1 381.1,247 384.7,255.1 389.2,247 392.8,255.1 
		394.6,251.5 	"/>
	<text id="XMLID_780_" transform="matrix(0.9995 0 0 1 370.4228 241.6657)"><tspan x="0" y="0" class="st9 st2 st10">R</tspan><tspan x="8.9" y="0" class="st9 st2 st10">1</tspan><tspan x="15.2" y="0" class="st9 st2 st10">2</tspan></text>
	<text id="XMLID_779_" transform="matrix(0.9995 0 0 1 360.5957 269.3722)"><tspan x="0" y="0" class="st9 st2 st10">5</tspan><tspan x="6.3" y="0" class="st9 st2 st10">.</tspan><tspan x="9.8" y="0" class="st9 st2 st10">32k</tspan><tspan x="28.6" y="0" class="st9 st2 st10">Ω</tspan><tspan x="38.5" y="0" class="st9 st2 st10"> </tspan></text>
	<line id="XMLID_778_" class="st8" x1="362.4" y1="251.5" x2="362.4" y2="251.5"/>
	<line id="XMLID_777_" class="st8" x1="370.4" y1="251.5" x2="362.4" y2="251.5"/>
	<line id="XMLID_776_" class="st8" x1="402.6" y1="251.5" x2="402.6" y2="251.5"/>
	<line id="XMLID_775_" class="st8" x1="394.6" y1="251.5" x2="402.6" y2="251.5"/>
	<line id="XMLID_774_" class="st8" x1="330.2" y1="348.1" x2="346.3" y2="348.1"/>
	<line id="XMLID_773_" class="st8" x1="332.9" y1="350.7" x2="343.6" y2="350.7"/>
	<line id="XMLID_772_" class="st8" x1="335.6" y1="353.4" x2="340.9" y2="353.4"/>
	<line id="XMLID_771_" class="st8" x1="338.3" y1="340" x2="338.3" y2="340"/>
	<line id="XMLID_770_" class="st8" x1="338.3" y1="348.1" x2="338.3" y2="340"/>
	<path id="XMLID_769_" class="st12" d="M352.6,291.3c0-0.7,0.6-1.3,1.3-1.3c0.7,0,1.3,0.6,1.3,1.3s-0.6,1.3-1.3,1.3
		C353.2,292.6,352.6,292,352.6,291.3L352.6,291.3z"/>
	<text id="XMLID_768_" transform="matrix(0.9995 0 0 1 283.7466 533.0944)"><tspan x="0" y="0" class="st9 st13 st10">XBP</tspan><tspan x="21.4" y="0" class="st9 st13 st10">1</tspan></text>
	<rect id="XMLID_767_" x="209.6" y="533.1" class="st14" width="71.5" height="47.4"/>
	<rect id="XMLID_766_" x="214.9" y="559.9" class="st15" width="47.4" height="17.9"/>
	<line id="XMLID_765_" class="st16" x1="217.6" y1="573.3" x2="236.4" y2="573.3"/>
	<line id="XMLID_764_" class="st16" x1="240.9" y1="570.7" x2="256.1" y2="560.8"/>
	<path id="XMLID_763_" class="st16" d="M236.3,572.4c1.7-0.1,3.2-1.1,4-2.6"/>
	<line id="XMLID_762_" class="st16" x1="240.9" y1="577.8" x2="240.9" y2="560.8"/>
	<path id="XMLID_761_" class="st17" d="M214.9,538c0-1.2,1-2.2,2.2-2.2c1.2,0,2.2,1,2.2,2.2c0,1.2-1,2.2-2.2,2.2
		C215.9,540.3,214.9,539.3,214.9,538L214.9,538z"/>
	<line id="XMLID_760_" class="st8" x1="217.6" y1="538.5" x2="217.6" y2="533.1"/>
	<line id="XMLID_759_" class="st16" x1="214.9" y1="544.7" x2="220.3" y2="544.7"/>
	<path id="XMLID_758_" class="st17" d="M231,538c0-1.2,1-2.2,2.2-2.2c1.2,0,2.2,1,2.2,2.2c0,1.2-1,2.2-2.2,2.2
		C232,540.3,231,539.3,231,538L231,538z"/>
	<line id="XMLID_757_" class="st8" x1="233.7" y1="538.5" x2="233.7" y2="533.1"/>
	<line id="XMLID_756_" class="st16" x1="231" y1="544.7" x2="236.4" y2="544.7"/>
	<path id="XMLID_755_" class="st17" d="M255.2,538c0-1.2,1-2.2,2.2-2.2c1.2,0,2.2,1,2.2,2.2c0,1.2-1,2.2-2.2,2.2
		C256.2,540.3,255.2,539.3,255.2,538L255.2,538z"/>
	<line id="XMLID_754_" class="st8" x1="257.8" y1="538.5" x2="257.8" y2="533.1"/>
	<line id="XMLID_753_" class="st16" x1="255.2" y1="544.7" x2="260.5" y2="544.7"/>
	<path id="XMLID_752_" class="st17" d="M271.2,538c0-1.2,1-2.2,2.2-2.2c1.2,0,2.2,1,2.2,2.2c0,1.2-1,2.2-2.2,2.2
		C272.2,540.3,271.2,539.3,271.2,538L271.2,538z"/>
	<line id="XMLID_751_" class="st8" x1="273.9" y1="538.5" x2="273.9" y2="533.1"/>
	<line id="XMLID_750_" class="st16" x1="271.2" y1="544.7" x2="276.6" y2="544.7"/>
	<line id="XMLID_749_" class="st16" x1="217.6" y1="547.4" x2="217.6" y2="542"/>
	<line id="XMLID_748_" class="st16" x1="257.8" y1="547.4" x2="257.8" y2="542"/>
	<text id="XMLID_747_" transform="matrix(0.9995 0 0 1 220.3086 555.4587)"><tspan x="0" y="0" class="st9 st18 st19">I</tspan><tspan x="2.7" y="0" class="st9 st18 st19">N</tspan></text>
	<text id="XMLID_746_" transform="matrix(0.9995 0 0 1 255.1523 555.4587)"><tspan x="0" y="0" class="st9 st18 st19">O</tspan><tspan x="8.9" y="0" class="st9 st18 st19">U</tspan><tspan x="17" y="0" class="st9 st18 st19">T</tspan></text>
	<line id="XMLID_745_" class="st8" x1="217.6" y1="525.1" x2="217.6" y2="525.1"/>
	<line id="XMLID_744_" class="st8" x1="217.6" y1="533.1" x2="217.6" y2="525.1"/>
	<line id="XMLID_743_" class="st8" x1="233.7" y1="525.1" x2="233.7" y2="525.1"/>
	<line id="XMLID_742_" class="st8" x1="233.7" y1="533.1" x2="233.7" y2="525.1"/>
	<line id="XMLID_741_" class="st8" x1="257.8" y1="525.1" x2="257.8" y2="525.1"/>
	<line id="XMLID_740_" class="st8" x1="257.8" y1="533.1" x2="257.8" y2="525.1"/>
	<line id="XMLID_739_" class="st8" x1="273.9" y1="525.1" x2="273.9" y2="525.1"/>
	<line id="XMLID_738_" class="st8" x1="273.9" y1="533.1" x2="273.9" y2="525.1"/>
	<path id="XMLID_737_" class="st12" d="M272.1,33.8c0-0.7,0.6-1.3,1.3-1.3c0.7,0,1.3,0.6,1.3,1.3s-0.6,1.3-1.3,1.3
		C272.7,35.2,272.1,34.6,272.1,33.8L272.1,33.8z"/>
	<path id="XMLID_736_" class="st12" d="M368.6,106.2c0-0.7,0.6-1.3,1.3-1.3c0.7,0,1.3,0.6,1.3,1.3s-0.6,1.3-1.3,1.3
		C369.2,107.6,368.6,107,368.6,106.2L368.6,106.2z"/>
	<path id="XMLID_735_" class="st12" d="M408.8,106.2c0-0.7,0.6-1.3,1.3-1.3c0.7,0,1.3,0.6,1.3,1.3s-0.6,1.3-1.3,1.3
		C409.4,107.6,408.8,107,408.8,106.2L408.8,106.2z"/>
	<path id="XMLID_734_" class="st12" d="M634,106.2c0-0.7,0.6-1.3,1.3-1.3c0.7,0,1.3,0.6,1.3,1.3s-0.6,1.3-1.3,1.3
		C634.6,107.6,634,107,634,106.2L634,106.2z"/>
	<path id="XMLID_733_" class="st12" d="M537.5,33.8c0-0.7,0.6-1.3,1.3-1.3c0.7,0,1.3,0.6,1.3,1.3s-0.6,1.3-1.3,1.3
		C538.1,35.2,537.5,34.6,537.5,33.8L537.5,33.8z"/>
	<text id="XMLID_732_" transform="matrix(0.9995 0 0 1 423.1386 525.0485)"><tspan x="0" y="0" class="st9 st13 st10">XSA</tspan><tspan x="21.4" y="0" class="st9 st13 st10">1</tspan></text>
	<rect id="XMLID_731_" x="314.1" y="525.1" class="st14" width="106.3" height="55.4"/>
	<rect id="XMLID_730_" x="319.5" y="533.1" class="st15" width="50" height="42"/>
	<path id="XMLID_729_" class="st17" d="M391.9,530c0-1.2,1-2.2,2.2-2.2c1.2,0,2.2,1,2.2,2.2s-1,2.2-2.2,2.2
		C392.9,532.2,391.9,531.2,391.9,530L391.9,530z"/>
	<path id="XMLID_728_" class="st17" d="M408,530c0-1.2,1-2.2,2.2-2.2c1.2,0,2.2,1,2.2,2.2s-1,2.2-2.2,2.2
		C408.9,532.2,408,531.2,408,530L408,530z"/>
	<rect id="XMLID_727_" x="375.8" y="568" class="st17" width="7.1" height="4.5"/>
	<rect id="XMLID_726_" x="386.5" y="568" class="st17" width="7.1" height="4.5"/>
	<rect id="XMLID_725_" x="375.8" y="559.9" class="st17" width="7.1" height="4.5"/>
	<rect id="XMLID_724_" x="386.5" y="559.9" class="st17" width="7.1" height="4.5"/>
	<rect id="XMLID_723_" x="375.8" y="551.9" class="st17" width="7.1" height="4.5"/>
	<rect id="XMLID_722_" x="386.5" y="551.9" class="st17" width="7.1" height="4.5"/>
	<rect id="XMLID_721_" x="375.8" y="543.8" class="st17" width="7.1" height="4.5"/>
	<rect id="XMLID_720_" x="386.5" y="543.8" class="st17" width="7.1" height="4.5"/>
	<path id="XMLID_719_" class="st16" d="M397.2,564.8c0-5.7,4.6-10.3,10.3-10.3c5.7,0,10.3,4.6,10.3,10.3c0,5.7-4.6,10.3-10.3,10.3
		C401.8,575.1,397.2,570.6,397.2,564.8L397.2,564.8z"/>
	<path id="XMLID_718_" class="st16" d="M399,567.5c0-1.7,1.4-3.1,3.1-3.1c1.7,0,3.1,1.4,3.1,3.1c0,1.7-1.4,3.1-3.1,3.1
		C400.4,570.7,399,569.3,399,567.5L399,567.5z"/>
	<line id="XMLID_717_" class="st16" x1="346.3" y1="541.1" x2="346.3" y2="565.3"/>
	<line id="XMLID_716_" class="st16" x1="343.6" y1="541.1" x2="343.6" y2="557.2"/>
	<line id="XMLID_715_" class="st16" x1="349" y1="541.1" x2="349" y2="557.2"/>
	<line id="XMLID_714_" class="st16" x1="340.9" y1="541.1" x2="340.9" y2="551.9"/>
	<line id="XMLID_713_" class="st16" x1="351.7" y1="541.1" x2="351.7" y2="551.9"/>
	<line id="XMLID_712_" class="st16" x1="338.3" y1="541.1" x2="338.3" y2="546.5"/>
	<line id="XMLID_711_" class="st16" x1="354.3" y1="541.1" x2="354.3" y2="546.5"/>
	<line id="XMLID_710_" class="st16" x1="362.4" y1="541.1" x2="362.4" y2="549.2"/>
	<line id="XMLID_709_" class="st16" x1="365.1" y1="541.1" x2="365.1" y2="557.2"/>
	<line id="XMLID_708_" class="st16" x1="367.7" y1="549.2" x2="367.7" y2="541.1"/>
	<line id="XMLID_707_" class="st16" x1="359.7" y1="541.1" x2="359.7" y2="543.8"/>
	<line id="XMLID_706_" class="st16" x1="332.9" y1="541.1" x2="332.9" y2="543.8"/>
	<line id="XMLID_705_" class="st16" x1="330.2" y1="541.1" x2="330.2" y2="549.2"/>
	<line id="XMLID_704_" class="st16" x1="327.5" y1="541.1" x2="327.5" y2="557.2"/>
	<line id="XMLID_703_" class="st16" x1="324.9" y1="541.1" x2="324.9" y2="549.2"/>
	<line id="XMLID_702_" class="st16" x1="322.2" y1="541.1" x2="322.2" y2="543.8"/>
	<line id="XMLID_701_" class="st16" x1="322.2" y1="541.1" x2="322.2" y2="533.1"/>
	<line id="XMLID_700_" class="st16" x1="324.9" y1="541.1" x2="324.9" y2="533.1"/>
	<line id="XMLID_699_" class="st16" x1="327.5" y1="541.1" x2="327.5" y2="533.1"/>
	<line id="XMLID_698_" class="st16" x1="330.2" y1="541.1" x2="330.2" y2="533.1"/>
	<line id="XMLID_697_" class="st16" x1="332.9" y1="541.1" x2="332.9" y2="533.1"/>
	<line id="XMLID_696_" class="st16" x1="338.3" y1="541.1" x2="338.3" y2="533.1"/>
	<line id="XMLID_695_" class="st16" x1="340.9" y1="541.1" x2="340.9" y2="533.1"/>
	<line id="XMLID_694_" class="st16" x1="343.6" y1="541.1" x2="343.6" y2="533.1"/>
	<line id="XMLID_693_" class="st16" x1="346.3" y1="541.1" x2="346.3" y2="533.1"/>
	<line id="XMLID_692_" class="st16" x1="349" y1="541.1" x2="349" y2="533.1"/>
	<line id="XMLID_691_" class="st16" x1="351.7" y1="541.1" x2="351.7" y2="533.1"/>
	<line id="XMLID_690_" class="st16" x1="354.3" y1="541.1" x2="354.3" y2="533.1"/>
	<line id="XMLID_689_" class="st16" x1="357" y1="538.5" x2="357" y2="533.1"/>
	<line id="XMLID_688_" class="st16" x1="359.7" y1="541.1" x2="359.7" y2="533.1"/>
	<line id="XMLID_687_" class="st16" x1="362.4" y1="541.1" x2="362.4" y2="533.1"/>
	<line id="XMLID_686_" class="st16" x1="365.1" y1="541.1" x2="365.1" y2="533.1"/>
	<line id="XMLID_685_" class="st16" x1="367.7" y1="541.1" x2="367.7" y2="533.1"/>
	<line id="XMLID_684_" class="st16" x1="335.6" y1="538.5" x2="335.6" y2="533.1"/>
	<text id="XMLID_683_" transform="matrix(0.9995 0 0 1 407.9511 540.2604)" class="st9 st18 st19">T</text>
	<text id="XMLID_682_" transform="matrix(0.9995 0 0 1 389.1894 540.2604)"><tspan x="0" y="0" class="st9 st18 st19">I</tspan><tspan x="2.7" y="0" class="st9 st18 st19">N</tspan></text>
	<line id="XMLID_681_" class="st8" x1="394.6" y1="530.4" x2="394.6" y2="525.1"/>
	<line id="XMLID_680_" class="st8" x1="410.6" y1="530.4" x2="410.6" y2="525.1"/>
	<line id="XMLID_679_" class="st8" x1="394.6" y1="517" x2="394.6" y2="517"/>
	<line id="XMLID_678_" class="st8" x1="394.6" y1="525.1" x2="394.6" y2="517"/>
	<line id="XMLID_677_" class="st8" x1="410.6" y1="517" x2="410.6" y2="517"/>
	<line id="XMLID_676_" class="st8" x1="410.6" y1="525.1" x2="410.6" y2="517"/>
	<text id="XMLID_675_" transform="matrix(0.9995 0 0 1 113.9731 426.7126)"><tspan x="0" y="0" class="st9 st2 st10">V</tspan><tspan x="8" y="0" class="st9 st2 st10">2</tspan></text>
	<text id="XMLID_674_" transform="matrix(0.9995 0 0 1 113.0805 441.0133)"><tspan x="0" y="0" class="st9 st2 st10">0</tspan><tspan x="6.3" y="0" class="st9 st2 st10">V</tspan><tspan x="14.3" y="0" class="st9 st2 st10"> </tspan><tspan x="17.9" y="0" class="st9 st2 st10">1</tspan><tspan x="24.1" y="0" class="st9 st2 st10">V</tspan><tspan x="32.2" y="0" class="st9 st2 st10"> </tspan></text>
	<text id="XMLID_673_" transform="matrix(0.9995 0 0 1 113.0805 454.4303)"><tspan x="0" y="0" class="st9 st2 st10">0</tspan><tspan x="6.3" y="0" class="st9 st2 st10">.</tspan><tspan x="9.8" y="0" class="st9 st2 st10">1</tspan><tspan x="16.1" y="0" class="st9 st2 st10">m</tspan><tspan x="26.8" y="0" class="st9 st2 st10">s</tspan><tspan x="33.1" y="0" class="st9 st2 st10"> </tspan><tspan x="36.6" y="0" class="st9 st2 st10">0</tspan><tspan x="42.9" y="0" class="st9 st2 st10">.</tspan><tspan x="46.5" y="0" class="st9 st2 st10">5</tspan><tspan x="52.7" y="0" class="st9 st2 st10">m</tspan><tspan x="63.5" y="0" class="st9 st2 st10">s</tspan><tspan x="69.7" y="0" class="st9 st2 st10"> </tspan></text>
	<line id="XMLID_672_" class="st8" x1="97" y1="431.2" x2="97" y2="436.6"/>
	<line id="XMLID_671_" class="st8" x1="94.3" y1="433.9" x2="99.7" y2="433.9"/>
	<path id="XMLID_670_" class="st8" d="M80.9,444.2c0-8.7,6.9-15.6,15.6-15.6s15.6,7,15.6,15.6c0,8.7-6.9,15.6-15.6,15.6
		S80.9,452.8,80.9,444.2L80.9,444.2z"/>
	<polyline id="XMLID_669_" class="st8" points="83.6,450 86.3,450 86.3,444.6 89,444.6 89,450 91.6,450 91.6,444.6 94.3,444.6 
		94.3,450 97,450 97,444.6 99.7,444.6 99.7,450 102.4,450 102.4,444.6 105,444.6 105,450 107.7,450 107.7,444.6 110.4,444.6 
		110.4,444.6 	"/>
	<line id="XMLID_668_" class="st8" x1="97" y1="420.5" x2="97" y2="420.5"/>
	<line id="XMLID_667_" class="st8" x1="97" y1="428.5" x2="97" y2="420.5"/>
	<line id="XMLID_666_" class="st8" x1="97" y1="468.7" x2="97" y2="468.7"/>
	<line id="XMLID_665_" class="st8" x1="97" y1="460.7" x2="97" y2="468.7"/>
	<path id="XMLID_664_" class="st20" d="M497.3,194.7c0-0.7,0.6-1.3,1.3-1.3c0.7,0,1.3,0.6,1.3,1.3c0,0.7-0.6,1.3-1.3,1.3
		C497.9,196.1,497.3,195.5,497.3,194.7L497.3,194.7z"/>
	<path id="XMLID_663_" class="st20" d="M272.1,194.7c0-0.7,0.6-1.3,1.3-1.3c0.7,0,1.3,0.6,1.3,1.3c0,0.7-0.6,1.3-1.3,1.3
		C272.7,196.1,272.1,195.5,272.1,194.7L272.1,194.7z"/>
	<path id="XMLID_662_" class="st20" d="M231.9,194.7c0-0.7,0.6-1.3,1.3-1.3c0.7,0,1.3,0.6,1.3,1.3c0,0.7-0.6,1.3-1.3,1.3
		C232.5,196.1,231.9,195.5,231.9,194.7L231.9,194.7z"/>
	<path id="XMLID_661_" class="st20" d="M336.5,323.5c0-0.7,0.6-1.3,1.3-1.3c0.7,0,1.3,0.6,1.3,1.3s-0.6,1.3-1.3,1.3
		C337.1,324.8,336.5,324.2,336.5,323.5L336.5,323.5z"/>
	<text id="XMLID_660_" transform="matrix(0.9995 0 0 1 567.8945 525.0485)"><tspan x="0" y="0" class="st9 st13 st10">XSA</tspan><tspan x="21.4" y="0" class="st9 st13 st10">2</tspan></text>
	<rect id="XMLID_659_" x="458.9" y="525.1" class="st14" width="106.3" height="55.4"/>
	<rect id="XMLID_658_" x="464.2" y="533.1" class="st15" width="50" height="42"/>
	<path id="XMLID_657_" class="st17" d="M536.6,530c0-1.2,1-2.2,2.2-2.2c1.2,0,2.2,1,2.2,2.2s-1,2.2-2.2,2.2
		C537.6,532.2,536.6,531.2,536.6,530L536.6,530z"/>
	<path id="XMLID_656_" class="st17" d="M552.7,530c0-1.2,1-2.2,2.2-2.2s2.2,1,2.2,2.2s-1,2.2-2.2,2.2S552.7,531.2,552.7,530
		L552.7,530z"/>
	<rect id="XMLID_655_" x="520.5" y="568" class="st17" width="7.1" height="4.5"/>
	<rect id="XMLID_654_" x="531.3" y="568" class="st17" width="7.1" height="4.5"/>
	<rect id="XMLID_653_" x="520.5" y="559.9" class="st17" width="7.1" height="4.5"/>
	<rect id="XMLID_652_" x="531.3" y="559.9" class="st17" width="7.1" height="4.5"/>
	<rect id="XMLID_651_" x="520.5" y="551.9" class="st17" width="7.1" height="4.5"/>
	<rect id="XMLID_650_" x="531.3" y="551.9" class="st17" width="7.1" height="4.5"/>
	<rect id="XMLID_649_" x="520.5" y="543.8" class="st17" width="7.1" height="4.5"/>
	<rect id="XMLID_648_" x="531.3" y="543.8" class="st17" width="7.1" height="4.5"/>
	<path id="XMLID_647_" class="st16" d="M542,564.8c0-5.7,4.6-10.3,10.3-10.3c5.7,0,10.3,4.6,10.3,10.3c0,5.7-4.6,10.3-10.3,10.3
		C546.6,575.1,542,570.6,542,564.8L542,564.8z"/>
	<path id="XMLID_646_" class="st16" d="M543.8,567.5c0-1.7,1.4-3.1,3.1-3.1c1.7,0,3.1,1.4,3.1,3.1c0,1.7-1.4,3.1-3.1,3.1
		C545.2,570.7,543.8,569.3,543.8,567.5L543.8,567.5z"/>
	<line id="XMLID_645_" class="st16" x1="491.1" y1="541.1" x2="491.1" y2="565.3"/>
	<line id="XMLID_644_" class="st16" x1="488.4" y1="541.1" x2="488.4" y2="557.2"/>
	<line id="XMLID_643_" class="st16" x1="493.7" y1="541.1" x2="493.7" y2="557.2"/>
	<line id="XMLID_642_" class="st16" x1="485.7" y1="541.1" x2="485.7" y2="551.9"/>
	<line id="XMLID_641_" class="st16" x1="496.4" y1="541.1" x2="496.4" y2="551.9"/>
	<line id="XMLID_640_" class="st16" x1="483" y1="541.1" x2="483" y2="546.5"/>
	<line id="XMLID_639_" class="st16" x1="499.1" y1="541.1" x2="499.1" y2="546.5"/>
	<line id="XMLID_638_" class="st16" x1="507.1" y1="541.1" x2="507.1" y2="549.2"/>
	<line id="XMLID_637_" class="st16" x1="509.8" y1="541.1" x2="509.8" y2="557.2"/>
	<line id="XMLID_636_" class="st16" x1="512.5" y1="549.2" x2="512.5" y2="541.1"/>
	<line id="XMLID_635_" class="st16" x1="504.5" y1="541.1" x2="504.5" y2="543.8"/>
	<line id="XMLID_634_" class="st16" x1="477.7" y1="541.1" x2="477.7" y2="543.8"/>
	<line id="XMLID_633_" class="st16" x1="475" y1="541.1" x2="475" y2="549.2"/>
	<line id="XMLID_632_" class="st16" x1="472.3" y1="541.1" x2="472.3" y2="557.2"/>
	<line id="XMLID_631_" class="st16" x1="469.6" y1="541.1" x2="469.6" y2="549.2"/>
	<line id="XMLID_630_" class="st16" x1="466.9" y1="541.1" x2="466.9" y2="543.8"/>
	<line id="XMLID_629_" class="st16" x1="466.9" y1="541.1" x2="466.9" y2="533.1"/>
	<line id="XMLID_628_" class="st16" x1="469.6" y1="541.1" x2="469.6" y2="533.1"/>
	<line id="XMLID_627_" class="st16" x1="472.3" y1="541.1" x2="472.3" y2="533.1"/>
	<line id="XMLID_626_" class="st16" x1="475" y1="541.1" x2="475" y2="533.1"/>
	<line id="XMLID_625_" class="st16" x1="477.7" y1="541.1" x2="477.7" y2="533.1"/>
	<line id="XMLID_624_" class="st16" x1="483" y1="541.1" x2="483" y2="533.1"/>
	<line id="XMLID_623_" class="st16" x1="485.7" y1="541.1" x2="485.7" y2="533.1"/>
	<line id="XMLID_622_" class="st16" x1="488.4" y1="541.1" x2="488.4" y2="533.1"/>
	<line id="XMLID_621_" class="st16" x1="491.1" y1="541.1" x2="491.1" y2="533.1"/>
	<line id="XMLID_620_" class="st16" x1="493.7" y1="541.1" x2="493.7" y2="533.1"/>
	<line id="XMLID_619_" class="st16" x1="496.4" y1="541.1" x2="496.4" y2="533.1"/>
	<line id="XMLID_618_" class="st16" x1="499.1" y1="541.1" x2="499.1" y2="533.1"/>
	<line id="XMLID_617_" class="st16" x1="501.8" y1="538.5" x2="501.8" y2="533.1"/>
	<line id="XMLID_616_" class="st16" x1="504.5" y1="541.1" x2="504.5" y2="533.1"/>
	<line id="XMLID_615_" class="st16" x1="507.1" y1="541.1" x2="507.1" y2="533.1"/>
	<line id="XMLID_614_" class="st16" x1="509.8" y1="541.1" x2="509.8" y2="533.1"/>
	<line id="XMLID_613_" class="st16" x1="512.5" y1="541.1" x2="512.5" y2="533.1"/>
	<line id="XMLID_612_" class="st16" x1="480.3" y1="538.5" x2="480.3" y2="533.1"/>
	<text id="XMLID_611_" transform="matrix(0.9995 0 0 1 552.7061 540.2604)" class="st9 st18 st19">T</text>
	<text id="XMLID_610_" transform="matrix(0.9995 0 0 1 533.9395 540.2604)"><tspan x="0" y="0" class="st9 st18 st19">I</tspan><tspan x="2.7" y="0" class="st9 st18 st19">N</tspan></text>
	<line id="XMLID_609_" class="st8" x1="539.3" y1="530.4" x2="539.3" y2="525.1"/>
	<line id="XMLID_608_" class="st8" x1="555.4" y1="530.4" x2="555.4" y2="525.1"/>
	<line id="XMLID_607_" class="st8" x1="539.3" y1="517" x2="539.3" y2="517"/>
	<line id="XMLID_606_" class="st8" x1="539.3" y1="525.1" x2="539.3" y2="517"/>
	<line id="XMLID_605_" class="st8" x1="555.4" y1="517" x2="555.4" y2="517"/>
	<line id="XMLID_604_" class="st8" x1="555.4" y1="525.1" x2="555.4" y2="517"/>
	<path id="XMLID_603_" class="st8" d="M54.1,326.1c0-1.2,1-2.2,2.2-2.2c1.2,0,2.2,1,2.2,2.2s-1,2.2-2.2,2.2
		C55.1,328.4,54.1,327.4,54.1,326.1L54.1,326.1z"/>
	<path id="XMLID_602_" class="st8" d="M70.2,353c0-1.2,1-2.2,2.2-2.2s2.2,1,2.2,2.2c0,1.2-1,2.2-2.2,2.2S70.2,354.2,70.2,353
		L70.2,353z"/>
	<path id="XMLID_601_" class="st8" d="M54.1,353c0-1.2,1-2.2,2.2-2.2c1.2,0,2.2,1,2.2,2.2c0,1.2-1,2.2-2.2,2.2
		C55.1,355.2,54.1,354.2,54.1,353L54.1,353z"/>
	<line id="XMLID_600_" class="st8" x1="56.8" y1="329.3" x2="70.2" y2="353.4"/>
	<text id="XMLID_599_" transform="matrix(0.9995 0 0 1 32.6572 348.942)"><tspan x="0" y="0" class="st9 st2 st10">S</tspan><tspan x="8" y="0" class="st9 st2 st10">1</tspan></text>
	<line id="XMLID_598_" class="st8" x1="56.8" y1="364.1" x2="56.8" y2="364.1"/>
	<line id="XMLID_597_" class="st8" x1="56.8" y1="356.1" x2="56.8" y2="364.1"/>
	<line id="XMLID_596_" class="st8" x1="72.9" y1="364.1" x2="72.9" y2="364.1"/>
	<line id="XMLID_595_" class="st8" x1="72.9" y1="356.1" x2="72.9" y2="364.1"/>
	<line id="XMLID_594_" class="st8" x1="56.8" y1="315.9" x2="56.8" y2="315.9"/>
	<line id="XMLID_593_" class="st8" x1="56.8" y1="323.9" x2="56.8" y2="315.9"/>
	<path id="XMLID_592_" class="st21" d="M143.5,106.2c0-0.7,0.6-1.3,1.3-1.3c0.7,0,1.3,0.6,1.3,1.3s-0.6,1.3-1.3,1.3
		C144.1,107.6,143.5,107,143.5,106.2L143.5,106.2z"/>
	<text id="XMLID_591_" transform="matrix(0.9995 0 0 1 91.6386 96.841)"><tspan x="0" y="0" class="st22 st2 st10">I</tspan><tspan x="3.6" y="0" class="st22 st2 st10">npu</tspan><tspan x="25" y="0" class="st22 st2 st10">t</tspan></text>
	<path id="XMLID_590_" class="st20" d="M231.9,323.5c0-0.7,0.6-1.3,1.3-1.3c0.7,0,1.3,0.6,1.3,1.3s-0.6,1.3-1.3,1.3
		C232.5,324.8,231.9,324.2,231.9,323.5L231.9,323.5z"/>
	<path id="XMLID_589_" class="st21" d="M95.2,395.9c0-0.7,0.6-1.3,1.3-1.3c0.7,0,1.3,0.6,1.3,1.3s-0.6,1.3-1.3,1.3
		C95.8,397.2,95.2,396.6,95.2,395.9L95.2,395.9z"/>
	<path id="XMLID_588_" class="st21" d="M22.8,395.9c0-0.7,0.6-1.3,1.3-1.3c0.7,0,1.3,0.6,1.3,1.3s-0.6,1.3-1.3,1.3
		C23.4,397.2,22.8,396.6,22.8,395.9L22.8,395.9z"/>
	<text id="XMLID_587_" transform="matrix(0.9995 0 0 1 692.0957 512.5407)"><tspan x="0" y="0" class="st9 st13 st10">XSC</tspan><tspan x="21.4" y="0" class="st9 st13 st10">1</tspan></text>
	<rect id="XMLID_586_" x="603.6" y="517" class="st14" width="87.6" height="63.5"/>
	<rect id="XMLID_585_" x="606.3" y="538.5" class="st15" width="55.4" height="39.3"/>
	<path id="XMLID_584_" class="st16" d="M609.9,557.2c0.2,7,5.1,12.5,11.2,12.5c6.1,0,11-5.5,11.2-12.6"/>
	<path id="XMLID_583_" class="st16" d="M609.9,557.2c0.1,11,5,19.7,11.2,19.7s11-8.7,11.2-19.7"/>
	<text id="XMLID_582_" transform="matrix(0.9995 0 0 1 609.8916 532.2067)" class="st9 st18 st23">A</text>
	<text id="XMLID_581_" transform="matrix(0.9995 0 0 1 642.0605 533.1081)" class="st9 st18 st23">B</text>
	<text id="XMLID_580_" transform="matrix(0.9995 0 0 1 668.8672 559.9274)"><tspan x="0" y="0" class="st9 st18 st23">E</tspan><tspan x="4.5" y="0" class="st9 st18 st23">x</tspan><tspan x="8" y="0" class="st9 st18 st23">t </tspan><tspan x="11.6" y="0" class="st9 st18 st23">T</tspan><tspan x="15.2" y="0" class="st9 st18 st23">r</tspan><tspan x="17" y="0" class="st9 st18 st23">i</tspan><tspan x="18.8" y="0" class="st9 st18 st23">g</tspan></text>
	<path id="XMLID_579_" class="st16" d="M655.5,559.9c0-0.1,0-0.3,0-0.4c0-7.2-5-13-11.2-13s-11.2,5.8-11.2,13c0,0.2,0,0.3,0,0.5"/>
	<path id="XMLID_578_" class="st16" d="M655.5,559.9c0-0.1,0-0.3,0-0.4c0-11.2-5-20.1-11.2-20.1s-11.2,8.9-11.2,20.1
		c0,0.1,0,0.3,0,0.4"/>
	<path id="XMLID_577_" class="st17" d="M640.3,523.7c0-1.7,1.4-3.1,3.1-3.1c1.7,0,3.1,1.4,3.1,3.1c0,1.7-1.4,3.1-3.1,3.1
		C641.7,526.8,640.3,525.5,640.3,523.7L640.3,523.7z"/>
	<path id="XMLID_576_" class="st17" d="M608.1,523.7c0-1.7,1.4-3.1,3.1-3.1c1.7,0,3.1,1.4,3.1,3.1c0,1.7-1.4,3.1-3.1,3.1
		C609.5,526.8,608.1,525.5,608.1,523.7L608.1,523.7z"/>
	<path id="XMLID_575_" class="st17" d="M680.5,548.7c0-1.7,1.4-3.1,3.1-3.1s3.1,1.4,3.1,3.1c0,1.7-1.4,3.1-3.1,3.1
		S680.5,550.5,680.5,548.7L680.5,548.7z"/>
	<line id="XMLID_574_" class="st8" x1="643.8" y1="524.2" x2="643.8" y2="517"/>
	<line id="XMLID_573_" class="st8" x1="611.7" y1="522.4" x2="611.7" y2="517"/>
	<line id="XMLID_572_" class="st8" x1="692.1" y1="549.2" x2="685" y2="549.2"/>
	<polyline id="XMLID_571_" class="st8" points="615.3,524.2 619.7,524.2 619.7,517 	"/>
	<polyline id="XMLID_570_" class="st8" points="647.4,524.2 651.9,524.2 651.9,517 	"/>
	<polyline id="XMLID_569_" class="st8" points="684.1,545.6 684.1,541.1 692.1,541.1 	"/>
	<path id="XMLID_568_" class="st24" d="M609.9,523.7c0-0.7,0.6-1.3,1.3-1.3s1.3,0.6,1.3,1.3c0,0.7-0.6,1.3-1.3,1.3
		S609.9,524.5,609.9,523.7L609.9,523.7z"/>
	<path id="XMLID_567_" class="st24" d="M642.1,523.7c0-0.7,0.6-1.3,1.3-1.3c0.7,0,1.3,0.6,1.3,1.3c0,0.7-0.6,1.3-1.3,1.3
		C642.7,525.1,642.1,524.5,642.1,523.7L642.1,523.7z"/>
	<path id="XMLID_566_" class="st24" d="M682.3,548.7c0-0.7,0.6-1.3,1.3-1.3s1.3,0.6,1.3,1.3c0,0.7-0.6,1.3-1.3,1.3
		S682.3,549.5,682.3,548.7L682.3,548.7z"/>
	<text id="XMLID_565_" transform="matrix(0.9995 0 0 1 687.6318 552.7751)" class="st9 st18 st23">+</text>
	<text id="XMLID_564_" transform="matrix(0.9995 0 0 1 605.4297 521.486)" class="st9 st18 st23">+</text>
	<text id="XMLID_563_" transform="matrix(0.9995 0 0 1 686.7393 542.0485)" class="st9 st18 st23">_</text>
	<text id="XMLID_562_" transform="matrix(0.9995 0 0 1 621.5117 524.1677)" class="st9 st18 st23">_</text>
	<text id="XMLID_561_" transform="matrix(0.9995 0 0 1 637.5918 521.486)" class="st9 st18 st23">+</text>
	<text id="XMLID_560_" transform="matrix(0.9995 0 0 1 653.6748 524.1677)" class="st9 st18 st23">_</text>
	<line id="XMLID_559_" class="st8" x1="611.7" y1="509" x2="611.7" y2="509"/>
	<line id="XMLID_558_" class="st8" x1="611.7" y1="517" x2="611.7" y2="509"/>
	<line id="XMLID_557_" class="st8" x1="643.8" y1="509" x2="643.8" y2="509"/>
	<line id="XMLID_556_" class="st8" x1="643.8" y1="517" x2="643.8" y2="509"/>
	<line id="XMLID_555_" class="st8" x1="619.7" y1="509" x2="619.7" y2="509"/>
	<line id="XMLID_554_" class="st8" x1="619.7" y1="517" x2="619.7" y2="509"/>
	<line id="XMLID_553_" class="st8" x1="700.1" y1="549.2" x2="700.1" y2="549.2"/>
	<line id="XMLID_552_" class="st8" x1="692.1" y1="549.2" x2="700.1" y2="549.2"/>
	<line id="XMLID_551_" class="st8" x1="651.9" y1="509" x2="651.9" y2="509"/>
	<line id="XMLID_550_" class="st8" x1="651.9" y1="517" x2="651.9" y2="509"/>
	<line id="XMLID_549_" class="st8" x1="700.1" y1="541.1" x2="700.1" y2="541.1"/>
	<line id="XMLID_548_" class="st8" x1="692.1" y1="541.1" x2="700.1" y2="541.1"/>
	<path id="XMLID_547_" class="st20" d="M231.9,484.4c0-0.7,0.6-1.3,1.3-1.3c0.7,0,1.3,0.6,1.3,1.3s-0.6,1.3-1.3,1.3
		C232.5,485.7,231.9,485.1,231.9,484.4L231.9,484.4z"/>
	<path id="XMLID_546_" class="st20" d="M617.9,484.4c0-0.7,0.6-1.3,1.3-1.3s1.3,0.6,1.3,1.3s-0.6,1.3-1.3,1.3
		S617.9,485.1,617.9,484.4L617.9,484.4z"/>
	<path id="XMLID_545_" class="st20" d="M553.6,484.4c0-0.7,0.6-1.3,1.3-1.3c0.7,0,1.3,0.6,1.3,1.3s-0.6,1.3-1.3,1.3
		C554.2,485.7,553.6,485.1,553.6,484.4L553.6,484.4z"/>
	<path id="XMLID_544_" class="st20" d="M408.8,484.4c0-0.7,0.6-1.3,1.3-1.3c0.7,0,1.3,0.6,1.3,1.3s-0.6,1.3-1.3,1.3
		C409.4,485.7,408.8,485.1,408.8,484.4L408.8,484.4z"/>
	<path id="XMLID_543_" class="st20" d="M272.1,484.4c0-0.7,0.6-1.3,1.3-1.3c0.7,0,1.3,0.6,1.3,1.3s-0.6,1.3-1.3,1.3
		C272.7,485.7,272.1,485.1,272.1,484.4L272.1,484.4z"/>
	<path id="XMLID_542_" class="st20" d="M95.2,484.4c0-0.7,0.6-1.3,1.3-1.3c0.7,0,1.3,0.6,1.3,1.3s-0.6,1.3-1.3,1.3
		C95.8,485.7,95.2,485.1,95.2,484.4L95.2,484.4z"/>
	<path id="XMLID_541_" class="st21" d="M392.8,395.9c0-0.7,0.6-1.3,1.3-1.3c0.7,0,1.3,0.6,1.3,1.3s-0.6,1.3-1.3,1.3
		C393.4,397.2,392.8,396.6,392.8,395.9L392.8,395.9z"/>
	<path id="XMLID_540_" class="st25" d="M537.5,307.4c0-0.7,0.6-1.3,1.3-1.3c0.7,0,1.3,0.6,1.3,1.3c0,0.7-0.6,1.3-1.3,1.3
		C538.1,308.7,537.5,308.1,537.5,307.4L537.5,307.4z"/>
	<path id="XMLID_539_" class="st25" d="M537.5,452.2c0-0.7,0.6-1.3,1.3-1.3c0.7,0,1.3,0.6,1.3,1.3s-0.6,1.3-1.3,1.3
		C538.1,453.5,537.5,452.9,537.5,452.2L537.5,452.2z"/>
	<path id="XMLID_538_" class="st25" d="M449.1,307.4c0-0.7,0.6-1.3,1.3-1.3c0.7,0,1.3,0.6,1.3,1.3c0,0.7-0.6,1.3-1.3,1.3
		C449.7,308.7,449.1,308.1,449.1,307.4L449.1,307.4z"/>
	<text id="XMLID_537_" transform="matrix(0.9995 0 0 1 453.5234 301.5553)"><tspan x="0" y="0" class="st26 st2 st10">O</tspan><tspan x="8.9" y="0" class="st26 st2 st10">u</tspan><tspan x="16.1" y="0" class="st26 st2 st10">t</tspan><tspan x="19.7" y="0" class="st26 st2 st10">pu</tspan><tspan x="34" y="0" class="st26 st2 st10">t</tspan></text>
	<line id="XMLID_536_" class="st27" x1="257.8" y1="90.6" x2="273.9" y2="90.6"/>
	<line id="XMLID_535_" class="st27" x1="273.9" y1="90.6" x2="273.9" y2="82.5"/>
	<line id="XMLID_534_" class="st27" x1="273.9" y1="155" x2="273.9" y2="90.6"/>
	<polyline id="XMLID_533_" class="st27" points="217.6,34.3 209.6,34.3 209.6,90.6 	"/>
	<line id="XMLID_532_" class="st27" x1="209.6" y1="90.6" x2="217.6" y2="90.6"/>
	<line id="XMLID_531_" class="st27" x1="193.5" y1="90.6" x2="209.6" y2="90.6"/>
	<line id="XMLID_530_" class="st27" x1="290" y1="90.6" x2="273.9" y2="90.6"/>
	<line id="XMLID_529_" class="st27" x1="233.7" y1="130.8" x2="233.7" y2="122.8"/>
	<path id="XMLID_528_" class="st27" d="M233.7,122.8"/>
	<line id="XMLID_527_" class="st27" x1="290" y1="122.8" x2="233.7" y2="122.8"/>
	<line id="XMLID_526_" class="st27" x1="523.2" y1="90.6" x2="539.3" y2="90.6"/>
	<line id="XMLID_525_" class="st27" x1="539.3" y1="90.6" x2="539.3" y2="82.5"/>
	<line id="XMLID_524_" class="st27" x1="539.3" y1="155" x2="539.3" y2="90.6"/>
	<polyline id="XMLID_523_" class="st27" points="483,34.3 475,34.3 475,90.6 	"/>
	<line id="XMLID_522_" class="st27" x1="475" y1="90.6" x2="483" y2="90.6"/>
	<line id="XMLID_521_" class="st27" x1="458.9" y1="90.6" x2="475" y2="90.6"/>
	<line id="XMLID_520_" class="st27" x1="555.4" y1="90.6" x2="539.3" y2="90.6"/>
	<line id="XMLID_519_" class="st27" x1="499.1" y1="130.8" x2="499.1" y2="122.8"/>
	<path id="XMLID_518_" class="st27" d="M499.1,122.8"/>
	<line id="XMLID_517_" class="st27" x1="555.4" y1="122.8" x2="499.1" y2="122.8"/>
	<line id="XMLID_516_" class="st27" x1="370.4" y1="291.7" x2="354.3" y2="291.7"/>
	<line id="XMLID_515_" class="st27" x1="354.3" y1="291.7" x2="330.2" y2="291.7"/>
	<polyline id="XMLID_514_" class="st27" points="362.4,251.5 354.3,251.5 354.3,291.7 	"/>
	<line id="XMLID_513_" class="st27" x1="257.8" y1="34.3" x2="273.9" y2="34.3"/>
	<line id="XMLID_512_" class="st27" x1="273.9" y1="34.3" x2="273.9" y2="42.3"/>
	<path id="XMLID_511_" class="st27" d="M370.4,106.7"/>
	<polyline id="XMLID_510_" class="st27" points="370.4,106.7 370.4,34.3 273.9,34.3 	"/>
	<polyline id="XMLID_509_" class="st27" points="418.7,90.6 410.6,90.6 410.6,106.7 	"/>
	<polyline id="XMLID_508_" class="st27" points="410.6,106.7 410.6,122.8 458.9,122.8 	"/>
	<line id="XMLID_507_" class="st27" x1="370.4" y1="106.7" x2="410.6" y2="106.7"/>
	<path id="XMLID_506_" class="st27" d="M635.8,106.7"/>
	<polyline id="XMLID_505_" class="st27" points="635.8,106.7 668,106.7 668,219.3 282,219.3 282,291.7 290,291.7 	"/>
	<line id="XMLID_504_" class="st27" x1="523.2" y1="34.3" x2="539.3" y2="34.3"/>
	<line id="XMLID_503_" class="st27" x1="539.3" y1="34.3" x2="539.3" y2="42.3"/>
	<polyline id="XMLID_502_" class="st27" points="539.3,34.3 635.8,34.3 635.8,106.7 	"/>
	<line id="XMLID_501_" class="st28" x1="539.3" y1="195.2" x2="499.1" y2="195.2"/>
	<line id="XMLID_500_" class="st28" x1="499.1" y1="195.2" x2="499.1" y2="171"/>
	<path id="XMLID_499_" class="st28" d="M273.9,195.2"/>
	<line id="XMLID_498_" class="st28" x1="273.9" y1="195.2" x2="499.1" y2="195.2"/>
	<line id="XMLID_497_" class="st28" x1="233.7" y1="171" x2="233.7" y2="195.2"/>
	<line id="XMLID_496_" class="st28" x1="233.7" y1="195.2" x2="273.9" y2="195.2"/>
	<line id="XMLID_495_" class="st28" x1="370.4" y1="323.9" x2="338.3" y2="323.9"/>
	<line id="XMLID_494_" class="st28" x1="338.3" y1="323.9" x2="338.3" y2="340"/>
	<polyline id="XMLID_493_" class="st29" points="153.3,90.6 145.3,90.6 145.3,106.7 	"/>
	<polyline id="XMLID_492_" class="st29" points="145.3,106.7 145.3,122.8 193.5,122.8 	"/>
	<polyline id="XMLID_491_" class="st29" points="56.8,315.9 56.8,106.7 145.3,106.7 	"/>
	<line id="XMLID_490_" class="st28" x1="338.3" y1="323.9" x2="233.7" y2="323.9"/>
	<line id="XMLID_489_" class="st28" x1="233.7" y1="323.9" x2="233.7" y2="195.2"/>
	<line id="XMLID_488_" class="st29" x1="97" y1="420.5" x2="97" y2="396.3"/>
	<polyline id="XMLID_487_" class="st29" points="97,396.3 97,364.1 72.9,364.1 	"/>
	<line id="XMLID_486_" class="st29" x1="24.6" y1="420.5" x2="24.6" y2="396.3"/>
	<polyline id="XMLID_484_" class="st29" points="24.6,396.3 24.6,364.1 56.8,364.1 	"/>
	<polyline id="XMLID_480_" class="st29" points="217.6,525.1 217.6,509 0.5,509 0.5,396.3 24.6,396.3 	"/>
	<line id="XMLID_479_" class="st28" x1="233.7" y1="525.1" x2="233.7" y2="484.8"/>
	<line id="XMLID_478_" class="st28" x1="233.7" y1="484.8" x2="233.7" y2="323.9"/>
	<polyline id="XMLID_477_" class="st28" points="651.9,509 651.9,484.8 619.7,484.8 	"/>
	<line id="XMLID_476_" class="st28" x1="619.7" y1="509" x2="619.7" y2="484.8"/>
	<line id="XMLID_475_" class="st28" x1="619.7" y1="484.8" x2="555.4" y2="484.8"/>
	<line id="XMLID_474_" class="st28" x1="555.4" y1="517" x2="555.4" y2="484.8"/>
	<line id="XMLID_473_" class="st28" x1="555.4" y1="484.8" x2="410.6" y2="484.8"/>
	<line id="XMLID_472_" class="st28" x1="410.6" y1="517" x2="410.6" y2="484.8"/>
	<line id="XMLID_471_" class="st28" x1="410.6" y1="484.8" x2="273.9" y2="484.8"/>
	<line id="XMLID_470_" class="st28" x1="273.9" y1="484.8" x2="233.7" y2="484.8"/>
	<line id="XMLID_459_" class="st28" x1="273.9" y1="525.1" x2="273.9" y2="484.8"/>
	<polyline id="XMLID_458_" class="st28" points="24.6,468.7 24.6,484.8 97,484.8 	"/>
	<line id="XMLID_457_" class="st28" x1="97" y1="484.8" x2="97" y2="468.7"/>
	<line id="XMLID_456_" class="st28" x1="233.7" y1="484.8" x2="97" y2="484.8"/>
	<line id="XMLID_455_" class="st29" x1="394.6" y1="517" x2="394.6" y2="396.3"/>
	<line id="XMLID_454_" class="st29" x1="394.6" y1="396.3" x2="97" y2="396.3"/>
	<polyline id="XMLID_453_" class="st29" points="611.7,509 611.7,396.3 394.6,396.3 	"/>
	<polyline id="XMLID_452_" class="st30" points="643.8,509 643.8,307.8 539.3,307.8 	"/>
	<line id="XMLID_451_" class="st30" x1="539.3" y1="517" x2="539.3" y2="452.6"/>
	<line id="XMLID_450_" class="st30" x1="539.3" y1="452.6" x2="539.3" y2="307.8"/>
	<polyline id="XMLID_449_" class="st30" points="257.8,525.1 257.8,452.6 539.3,452.6 	"/>
	<line id="XMLID_448_" class="st30" x1="539.3" y1="307.8" x2="450.8" y2="307.8"/>
	<path id="XMLID_447_" class="st30" d="M450.8,307.8"/>
	<polyline id="XMLID_446_" class="st30" points="402.6,251.5 450.8,251.5 450.8,307.8 	"/>
</g>
</svg>
