<?xml version="1.0"?>
<!DOCTYPE svg PUBLIC '-//W3C//DTD SVG 1.0//EN'
          'http://www.w3.org/TR/2001/REC-SVG-20010904/DTD/svg10.dtd'>
<svg xmlns:xlink="http://www.w3.org/1999/xlink" style="fill-opacity:1; color-rendering:auto; color-interpolation:auto; stroke:black; text-rendering:auto; stroke-linecap:square; stroke-miterlimit:10; stroke-opacity:1; shape-rendering:auto; fill:black; stroke-dasharray:none; font-weight:normal; stroke-width:1; font-family:'Dialog'; font-style:normal; stroke-linejoin:miter; font-size:12px; stroke-dashoffset:0; image-rendering:auto;" width="1920" height="964" xmlns="http://www.w3.org/2000/svg"
><!--Generated by the Batik Graphics2D SVG Generator--><defs id="genericDefs"
  /><g
  ><defs id="defs1"
    ><clipPath clipPathUnits="userSpaceOnUse" id="clipPath1"
      ><path d="M0 0 L1920 0 L1920 964 L0 964 L0 0 Z"
      /></clipPath
      ><font horiz-adv-x="75.0" id="font1"
      ><font-face ascent="100.53711" descent="21.972656" units-per-em="100" style="font-style:normal; font-family:Dialog; font-weight:normal;"
        /><missing-glyph horiz-adv-x="75.0" d="M12.5 0 L12.5 62.5 L62.5 62.5 L62.5 0 L12.5 0 ZM14.0625 1.5625 L60.9375 1.5625 L60.9375 60.9375 L14.0625 60.9375 L14.0625 1.5625 Z"
        /><glyph unicode="0" horiz-adv-x="55.615234" d="M4.1562 35.2969 Q4.1562 48 6.7656 55.7422 Q9.375 63.4844 14.5234 67.6797 Q19.6719 71.875 27.4844 71.875 Q33.25 71.875 37.5938 69.5547 Q41.9375 67.2344 44.7734 62.8672 Q47.6094 58.5 49.2188 52.2266 Q50.8281 45.9531 50.8281 35.2969 Q50.8281 22.7031 48.2422 14.9688 Q45.6562 7.2344 40.5078 3.0078 Q35.3594 -1.2188 27.4844 -1.2188 Q17.1406 -1.2188 11.2344 6.2031 Q4.1562 15.1406 4.1562 35.2969 ZM13.1875 35.2969 Q13.1875 17.6719 17.3125 11.8359 Q21.4375 6 27.4844 6 Q33.5469 6 37.6719 11.8594 Q41.7969 17.7188 41.7969 35.2969 Q41.7969 52.9844 37.6719 58.7891 Q33.5469 64.5938 27.3906 64.5938 Q21.3438 64.5938 17.7188 59.4688 Q13.1875 52.9375 13.1875 35.2969 Z"
        /><glyph unicode="1" horiz-adv-x="55.615234" d="M37.25 0 L28.4688 0 L28.4688 56 Q25.2969 52.9844 20.1406 49.9531 Q14.9844 46.9219 10.8906 45.4062 L10.8906 53.9062 Q18.2656 57.375 23.7812 62.3047 Q29.2969 67.2344 31.5938 71.875 L37.25 71.875 L37.25 0 Z"
        /><glyph unicode="2" horiz-adv-x="55.615234" d="M50.3438 8.4531 L50.3438 0 L3.0312 0 Q2.9375 3.1719 4.0469 6.1094 Q5.8594 10.9375 9.8359 15.625 Q13.8125 20.3125 21.3438 26.4688 Q33.0156 36.0312 37.1172 41.625 Q41.2188 47.2188 41.2188 52.2031 Q41.2188 57.4219 37.4766 61.0078 Q33.7344 64.5938 27.7344 64.5938 Q21.3906 64.5938 17.5781 60.7891 Q13.7656 56.9844 13.7188 50.25 L4.6875 51.1719 Q5.6094 61.2812 11.6641 66.5781 Q17.7188 71.875 27.9375 71.875 Q38.2344 71.875 44.2422 66.1641 Q50.25 60.4531 50.25 52 Q50.25 47.7031 48.4922 43.5547 Q46.7344 39.4062 42.6562 34.8125 Q38.5781 30.2188 29.1094 22.2188 Q21.1875 15.5781 18.9453 13.2109 Q16.7031 10.8438 15.2344 8.4531 L50.3438 8.4531 Z"
        /><glyph unicode="3" horiz-adv-x="55.615234" d="M4.2031 18.8906 L12.9844 20.0625 Q14.5 12.5938 18.1406 9.2969 Q21.7812 6 27 6 Q33.2031 6 37.4766 10.2969 Q41.75 14.5938 41.75 20.9531 Q41.75 27 37.7969 30.9297 Q33.8438 34.8594 27.7344 34.8594 Q25.25 34.8594 21.5312 33.8906 L22.5156 41.6094 Q23.3906 41.5 23.9219 41.5 Q29.5469 41.5 34.0391 44.4297 Q38.5312 47.3594 38.5312 53.4688 Q38.5312 58.2969 35.2578 61.4766 Q31.9844 64.6562 26.8125 64.6562 Q21.6875 64.6562 18.2656 61.4297 Q14.8438 58.2031 13.875 51.7656 L5.0781 53.3281 Q6.6875 62.1562 12.3984 67.0156 Q18.1094 71.875 26.6094 71.875 Q32.4688 71.875 37.3984 69.3594 Q42.3281 66.8438 44.9453 62.5 Q47.5625 58.1562 47.5625 53.2656 Q47.5625 48.6406 45.0703 44.8281 Q42.5781 41.0156 37.7031 38.7656 Q44.0469 37.3125 47.5625 32.6953 Q51.0781 28.0781 51.0781 21.1406 Q51.0781 11.7656 44.2422 5.25 Q37.4062 -1.2656 26.9531 -1.2656 Q17.5312 -1.2656 11.3047 4.3516 Q5.0781 9.9688 4.2031 18.8906 Z"
        /><glyph unicode="4" horiz-adv-x="55.615234" d="M32.3281 0 L32.3281 17.1406 L1.2656 17.1406 L1.2656 25.2031 L33.9375 71.5781 L41.1094 71.5781 L41.1094 25.2031 L50.7812 25.2031 L50.7812 17.1406 L41.1094 17.1406 L41.1094 0 L32.3281 0 ZM32.3281 25.2031 L32.3281 57.4688 L9.9062 25.2031 L32.3281 25.2031 Z"
        /><glyph unicode="5" horiz-adv-x="55.615234" d="M4.1562 18.75 L13.375 19.5312 Q14.4062 12.7969 18.1406 9.3984 Q21.875 6 27.1562 6 Q33.5 6 37.8906 10.7891 Q42.2812 15.5781 42.2812 23.4844 Q42.2812 31 38.0625 35.3516 Q33.8438 39.7031 27 39.7031 Q22.75 39.7031 19.3359 37.7734 Q15.9219 35.8438 13.9688 32.7656 L5.7188 33.8438 L12.6406 70.6094 L48.25 70.6094 L48.25 62.2031 L19.6719 62.2031 L15.8281 42.9688 Q22.2656 47.4688 29.3438 47.4688 Q38.7188 47.4688 45.1641 40.9688 Q51.6094 34.4688 51.6094 24.2656 Q51.6094 14.5469 45.9531 7.4688 Q39.0625 -1.2188 27.1562 -1.2188 Q17.3906 -1.2188 11.2109 4.25 Q5.0312 9.7188 4.1562 18.75 Z"
        /><glyph unicode="6" horiz-adv-x="55.615234" d="M49.75 54.0469 L41.0156 53.375 Q39.8438 58.5469 37.7031 60.8906 Q34.125 64.6562 28.9062 64.6562 Q24.7031 64.6562 21.5312 62.3125 Q17.3906 59.2812 14.9922 53.4688 Q12.5938 47.6562 12.5 36.9219 Q15.6719 41.75 20.2656 44.0938 Q24.8594 46.4375 29.8906 46.4375 Q38.6719 46.4375 44.8516 39.9688 Q51.0312 33.5 51.0312 23.25 Q51.0312 16.5 48.125 10.7188 Q45.2188 4.9375 40.1406 1.8594 Q35.0625 -1.2188 28.6094 -1.2188 Q17.625 -1.2188 10.6953 6.8594 Q3.7656 14.9375 3.7656 33.5 Q3.7656 54.25 11.4219 63.6719 Q18.1094 71.875 29.4375 71.875 Q37.8906 71.875 43.2891 67.1406 Q48.6875 62.4062 49.75 54.0469 ZM13.875 23.1875 Q13.875 18.6562 15.7969 14.5078 Q17.7188 10.3594 21.1875 8.1797 Q24.6562 6 28.4688 6 Q34.0312 6 38.0391 10.4922 Q42.0469 14.9844 42.0469 22.7031 Q42.0469 30.125 38.0859 34.3984 Q34.125 38.6719 28.125 38.6719 Q22.1719 38.6719 18.0234 34.3984 Q13.875 30.125 13.875 23.1875 Z"
        /><glyph unicode="7" horiz-adv-x="55.615234" d="M4.7344 62.2031 L4.7344 70.6562 L51.0781 70.6562 L51.0781 63.8125 Q44.2344 56.5469 37.5234 44.4844 Q30.8125 32.4219 27.1562 19.6719 Q24.5156 10.6875 23.7812 0 L14.75 0 Q14.8906 8.4531 18.0625 20.4141 Q21.2344 32.375 27.1719 43.4844 Q33.1094 54.5938 39.7969 62.2031 L4.7344 62.2031 Z"
        /><glyph unicode=")" horiz-adv-x="33.30078" d="M12.3594 -21.0469 L6.0625 -21.0469 Q20.6562 2.3906 20.6562 25.875 Q20.6562 35.0625 18.5625 44.0938 Q16.8906 51.4219 13.9219 58.1562 Q12.0156 62.5469 6.0625 72.7969 L12.3594 72.7969 Q21.5312 60.5469 25.9219 48.1875 Q29.6875 37.5469 29.6875 25.9219 Q29.6875 12.75 24.6328 0.4453 Q19.5781 -11.8594 12.3594 -21.0469 Z"
        /><glyph unicode="s" horiz-adv-x="50.0" d="M3.0781 15.4844 L11.7656 16.8438 Q12.5 11.625 15.8438 8.8438 Q19.1875 6.0625 25.2031 6.0625 Q31.25 6.0625 34.1797 8.5234 Q37.1094 10.9844 37.1094 14.3125 Q37.1094 17.2812 34.5156 19 Q32.7188 20.1719 25.5312 21.9688 Q15.875 24.4219 12.1406 26.2031 Q8.4062 27.9844 6.4766 31.1328 Q4.5469 34.2812 4.5469 38.0938 Q4.5469 41.5469 6.1328 44.5078 Q7.7188 47.4688 10.4531 49.4219 Q12.5 50.9219 16.0391 51.9766 Q19.5781 53.0312 23.6406 53.0312 Q29.7344 53.0312 34.3516 51.2734 Q38.9688 49.5156 41.1641 46.5078 Q43.3594 43.5 44.1875 38.4844 L35.5938 37.3125 Q35.0156 41.3125 32.2031 43.5547 Q29.3906 45.7969 24.2656 45.7969 Q18.2188 45.7969 15.625 43.7969 Q13.0312 41.7969 13.0312 39.1094 Q13.0312 37.4062 14.1094 36.0312 Q15.1875 34.625 17.4844 33.6875 Q18.7969 33.2031 25.25 31.4531 Q34.5781 28.9531 38.2578 27.3672 Q41.9375 25.7812 44.0391 22.7578 Q46.1406 19.7344 46.1406 15.2344 Q46.1406 10.8438 43.5781 6.9609 Q41.0156 3.0781 36.1797 0.9531 Q31.3438 -1.1719 25.25 -1.1719 Q15.1406 -1.1719 9.8438 3.0312 Q4.5469 7.2344 3.0781 15.4844 Z"
        /><glyph unicode="(" horiz-adv-x="33.30078" d="M23.3906 -21.0469 Q16.1094 -11.8594 11.0859 0.4453 Q6.0625 12.75 6.0625 25.9219 Q6.0625 37.5469 9.8125 48.1875 Q14.2031 60.5469 23.3906 72.7969 L29.6875 72.7969 Q23.7812 62.6406 21.875 58.2969 Q18.8906 51.5625 17.1875 44.2344 Q15.0938 35.1094 15.0938 25.875 Q15.0938 2.3906 29.6875 -21.0469 L23.3906 -21.0469 Z"
        /><glyph unicode=" " horiz-adv-x="27.783203" d=""
        /><glyph unicode="e" horiz-adv-x="55.615234" d="M42.0938 16.7031 L51.1719 15.5781 Q49.0312 7.625 43.2188 3.2266 Q37.4062 -1.1719 28.375 -1.1719 Q17 -1.1719 10.3281 5.8359 Q3.6562 12.8438 3.6562 25.4844 Q3.6562 38.5781 10.3984 45.8047 Q17.1406 53.0312 27.875 53.0312 Q38.2812 53.0312 44.875 45.9531 Q51.4688 38.875 51.4688 26.0312 Q51.4688 25.25 51.4219 23.6875 L12.75 23.6875 Q13.2344 15.1406 17.5781 10.6016 Q21.9219 6.0625 28.4219 6.0625 Q33.25 6.0625 36.6719 8.6016 Q40.0938 11.1406 42.0938 16.7031 ZM13.2344 30.9062 L42.1875 30.9062 Q41.6094 37.4531 38.875 40.7188 Q34.6719 45.7969 27.9844 45.7969 Q21.9219 45.7969 17.7969 41.75 Q13.6719 37.7031 13.2344 30.9062 Z"
        /><glyph unicode="m" horiz-adv-x="83.30078" d="M6.5938 0 L6.5938 51.8594 L14.4531 51.8594 L14.4531 44.5781 Q16.8906 48.3906 20.9453 50.7109 Q25 53.0312 30.1719 53.0312 Q35.9375 53.0312 39.625 50.6406 Q43.3125 48.25 44.8281 43.9531 Q50.9844 53.0312 60.8438 53.0312 Q68.5625 53.0312 72.7109 48.7578 Q76.8594 44.4844 76.8594 35.5938 L76.8594 0 L68.1094 0 L68.1094 32.6719 Q68.1094 37.9375 67.2578 40.2578 Q66.4062 42.5781 64.1641 43.9922 Q61.9219 45.4062 58.8906 45.4062 Q53.4219 45.4062 49.8047 41.7734 Q46.1875 38.1406 46.1875 30.125 L46.1875 0 L37.4062 0 L37.4062 33.6875 Q37.4062 39.5469 35.2578 42.4766 Q33.1094 45.4062 28.2188 45.4062 Q24.5156 45.4062 21.3672 43.4531 Q18.2188 41.5 16.7969 37.7422 Q15.375 33.9844 15.375 26.9062 L15.375 0 L6.5938 0 Z"
        /><glyph unicode="i" horiz-adv-x="22.216797" d="M6.6406 61.4688 L6.6406 71.5781 L15.4375 71.5781 L15.4375 61.4688 L6.6406 61.4688 ZM6.6406 0 L6.6406 51.8594 L15.4375 51.8594 L15.4375 0 L6.6406 0 Z"
        /><glyph unicode="T" horiz-adv-x="61.083984" d="M25.9219 0 L25.9219 63.1406 L2.3438 63.1406 L2.3438 71.5781 L59.0781 71.5781 L59.0781 63.1406 L35.4062 63.1406 L35.4062 0 L25.9219 0 Z"
        /><glyph unicode="-" horiz-adv-x="33.30078" d="M3.1719 21.4844 L3.1719 30.3281 L30.1719 30.3281 L30.1719 21.4844 L3.1719 21.4844 Z"
        /><glyph unicode="g" horiz-adv-x="55.615234" d="M4.9844 -4.2969 L13.5312 -5.5625 Q14.0625 -9.5156 16.5 -11.3281 Q19.7812 -13.7656 25.4375 -13.7656 Q31.5469 -13.7656 34.8672 -11.3281 Q38.1875 -8.8906 39.3594 -4.5 Q40.0469 -1.8125 39.9844 6.7812 Q34.2344 0 25.6406 0 Q14.9375 0 9.0781 7.7188 Q3.2188 15.4375 3.2188 26.2188 Q3.2188 33.6406 5.9062 39.9141 Q8.5938 46.1875 13.6953 49.6094 Q18.7969 53.0312 25.6875 53.0312 Q34.8594 53.0312 40.8281 45.6094 L40.8281 51.8594 L48.9219 51.8594 L48.9219 7.0312 Q48.9219 -5.0781 46.4609 -10.1328 Q44 -15.1875 38.6484 -18.1172 Q33.2969 -21.0469 25.4844 -21.0469 Q16.2188 -21.0469 10.5 -16.875 Q4.7812 -12.7031 4.9844 -4.2969 ZM12.25 26.8594 Q12.25 16.6562 16.3047 11.9688 Q20.3594 7.2812 26.4688 7.2812 Q32.5156 7.2812 36.6172 11.9453 Q40.7188 16.6094 40.7188 26.5625 Q40.7188 36.0781 36.5 40.9141 Q32.2812 45.75 26.3125 45.75 Q20.4531 45.75 16.3516 40.9922 Q12.25 36.2344 12.25 26.8594 Z"
        /><glyph unicode="a" horiz-adv-x="55.615234" d="M40.4375 6.3906 Q35.5469 2.25 31.0312 0.5391 Q26.5156 -1.1719 21.3438 -1.1719 Q12.7969 -1.1719 8.2031 3 Q3.6094 7.1719 3.6094 13.6719 Q3.6094 17.4844 5.3438 20.6328 Q7.0781 23.7812 9.8906 25.6875 Q12.7031 27.5938 16.2188 28.5625 Q18.7969 29.25 24.0312 29.8906 Q34.6719 31.1562 39.7031 32.9062 Q39.75 34.7188 39.75 35.2031 Q39.75 40.5781 37.25 42.7812 Q33.8906 45.75 27.25 45.75 Q21.0469 45.75 18.0938 43.5781 Q15.1406 41.4062 13.7188 35.8906 L5.125 37.0625 Q6.2969 42.5781 8.9844 45.9688 Q11.6719 49.3594 16.75 51.1953 Q21.8281 53.0312 28.5156 53.0312 Q35.1562 53.0312 39.3047 51.4688 Q43.4531 49.9062 45.4062 47.5391 Q47.3594 45.1719 48.1406 41.5469 Q48.5781 39.3125 48.5781 33.4531 L48.5781 21.7344 Q48.5781 9.4688 49.1406 6.2266 Q49.7031 2.9844 51.375 0 L42.1875 0 Q40.8281 2.7344 40.4375 6.3906 ZM39.7031 26.0312 Q34.9062 24.0781 25.3438 22.7031 Q19.9219 21.9219 17.6797 20.9453 Q15.4375 19.9688 14.2109 18.0938 Q12.9844 16.2188 12.9844 13.9219 Q12.9844 10.4062 15.6484 8.0625 Q18.3125 5.7188 23.4375 5.7188 Q28.5156 5.7188 32.4688 7.9375 Q36.4219 10.1562 38.2812 14.0156 Q39.7031 17 39.7031 22.7969 L39.7031 26.0312 Z"
        /><glyph unicode="t" horiz-adv-x="27.783203" d="M25.7812 7.8594 L27.0469 0.0938 Q23.3438 -0.6875 20.4062 -0.6875 Q15.625 -0.6875 12.9922 0.8281 Q10.3594 2.3438 9.2812 4.8125 Q8.2031 7.2812 8.2031 15.1875 L8.2031 45.0156 L1.7656 45.0156 L1.7656 51.8594 L8.2031 51.8594 L8.2031 64.7031 L16.9375 69.9688 L16.9375 51.8594 L25.7812 51.8594 L25.7812 45.0156 L16.9375 45.0156 L16.9375 14.7031 Q16.9375 10.9375 17.4062 9.8672 Q17.875 8.7969 18.9219 8.1562 Q19.9688 7.5156 21.9219 7.5156 Q23.3906 7.5156 25.7812 7.8594 Z"
        /><glyph unicode="l" horiz-adv-x="22.216797" d="M6.3906 0 L6.3906 71.5781 L15.1875 71.5781 L15.1875 0 L6.3906 0 Z"
        /><glyph unicode="o" horiz-adv-x="55.615234" d="M3.3281 25.9219 Q3.3281 40.3281 11.3281 47.2656 Q18.0156 53.0312 27.6406 53.0312 Q38.3281 53.0312 45.1172 46.0234 Q51.9062 39.0156 51.9062 26.6562 Q51.9062 16.6562 48.9062 10.9141 Q45.9062 5.1719 40.1641 2 Q34.4219 -1.1719 27.6406 -1.1719 Q16.75 -1.1719 10.0391 5.8125 Q3.3281 12.7969 3.3281 25.9219 ZM12.3594 25.9219 Q12.3594 15.9688 16.7031 11.0156 Q21.0469 6.0625 27.6406 6.0625 Q34.1875 6.0625 38.5312 11.0391 Q42.875 16.0156 42.875 26.2188 Q42.875 35.8438 38.5 40.7969 Q34.125 45.75 27.6406 45.75 Q21.0469 45.75 16.7031 40.8203 Q12.3594 35.8906 12.3594 25.9219 Z"
        /><glyph unicode="V" horiz-adv-x="66.69922" d="M28.1719 0 L0.4375 71.5781 L10.6875 71.5781 L29.2969 19.5781 Q31.5469 13.3281 33.0625 7.8594 Q34.7188 13.7188 36.9219 19.5781 L56.25 71.5781 L65.9219 71.5781 L37.8906 0 L28.1719 0 Z"
      /></font
      ><font horiz-adv-x="75.0" id="font2"
      ><font-face ascent="65.42969" descent="22.558594" units-per-em="100" style="font-style:normal; font-family:mwb_cmsy10; font-weight:normal;"
        /><missing-glyph horiz-adv-x="75.0" d="M12.5 0 L12.5 62.5 L62.5 62.5 L62.5 0 L12.5 0 ZM60.8906 1.6094 L60.8906 60.8906 L14.1094 60.8906 L14.1094 1.6094 L60.8906 1.6094 Z"
        /><glyph unicode="#" horiz-adv-x="77.68555" d="M14.7031 2.875 Q14.7031 3.6562 15.1875 4.2969 L35.9844 25 L15.1875 45.7969 Q14.7031 46.2969 14.7031 47.125 Q14.7031 47.8594 15.2891 48.4922 Q15.875 49.125 16.7031 49.125 Q17.3906 49.125 18.2188 48.4844 L38.9219 27.7812 L59.5156 48.4844 Q60.3594 49.125 60.9844 49.125 Q61.8125 49.125 62.3984 48.5391 Q62.9844 47.9531 62.9844 47.125 Q62.9844 46.2969 62.5 45.7969 L41.7031 25 L62.5 4.2969 Q62.9844 3.6562 62.9844 2.875 Q62.9844 2.0469 62.3984 1.4609 Q61.8125 0.875 60.9844 0.875 Q60.25 0.875 59.5156 1.6094 L38.9219 22.2188 L18.2188 1.6094 Q17.4844 0.875 16.7031 0.875 Q15.875 0.875 15.2891 1.5156 Q14.7031 2.1562 14.7031 2.875 Z"
      /></font
      ><font horiz-adv-x="75.0" id="font3"
      ><font-face ascent="100.53711" descent="21.972656" units-per-em="100" style="font-style:normal; font-family:Dialog; font-weight:bold;"
        /><missing-glyph horiz-adv-x="75.0" d="M12.5 0 L12.5 62.5 L62.5 62.5 L62.5 0 L12.5 0 ZM14.0625 1.5625 L60.9375 1.5625 L60.9375 60.9375 L14.0625 60.9375 L14.0625 1.5625 Z"
        /><glyph unicode="a" horiz-adv-x="55.615234" d="M17.4375 36.0312 L4.9844 38.2812 Q7.0781 45.7969 12.2031 49.4141 Q17.3281 53.0312 27.4375 53.0312 Q36.625 53.0312 41.1172 50.8594 Q45.6094 48.6875 47.4375 45.3438 Q49.2656 42 49.2656 33.0625 L49.125 17.0469 Q49.125 10.2031 49.7812 6.9609 Q50.4375 3.7188 52.25 0 L38.6719 0 Q38.1406 1.375 37.3594 4.0469 Q37.0156 5.2812 36.8594 5.6719 Q33.3438 2.25 29.3438 0.5391 Q25.3438 -1.1719 20.7969 -1.1719 Q12.7969 -1.1719 8.1797 3.1719 Q3.5625 7.5156 3.5625 14.1562 Q3.5625 18.5625 5.6641 22 Q7.7656 25.4375 11.5469 27.2734 Q15.3281 29.1094 22.4688 30.4688 Q32.0781 32.2812 35.7969 33.8438 L35.7969 35.2031 Q35.7969 39.1562 33.8438 40.8438 Q31.8906 42.5312 26.4688 42.5312 Q22.7969 42.5312 20.75 41.0938 Q18.7031 39.6562 17.4375 36.0312 ZM35.7969 24.9062 Q33.1562 24.0312 27.4453 22.8047 Q21.7344 21.5781 19.9688 20.4062 Q17.2812 18.5 17.2812 15.5781 Q17.2812 12.7031 19.4297 10.6016 Q21.5781 8.5 24.9062 8.5 Q28.6094 8.5 31.9844 10.9375 Q34.4688 12.7969 35.25 15.4844 Q35.7969 17.2344 35.7969 22.1719 L35.7969 24.9062 Z"
        /><glyph unicode="g" horiz-adv-x="61.083984" d="M5.9062 -3.4219 L21.5781 -5.3281 Q21.9688 -8.0625 23.3906 -9.0781 Q25.3438 -10.5469 29.5469 -10.5469 Q34.9062 -10.5469 37.5938 -8.9375 Q39.4062 -7.8594 40.3281 -5.4688 Q40.9688 -3.7656 40.9688 0.8281 L40.9688 8.4062 Q34.8125 0 25.4375 0 Q14.9844 0 8.8906 8.8438 Q4.1094 15.8281 4.1094 26.2188 Q4.1094 39.2656 10.3828 46.1484 Q16.6562 53.0312 25.9844 53.0312 Q35.5938 53.0312 41.8438 44.5781 L41.8438 51.8594 L54.6875 51.8594 L54.6875 5.3281 Q54.6875 -3.8594 53.1719 -8.3984 Q51.6562 -12.9375 48.9219 -15.5234 Q46.1875 -18.1094 41.625 -19.5781 Q37.0625 -21.0469 30.0781 -21.0469 Q16.8906 -21.0469 11.375 -16.5312 Q5.8594 -12.0156 5.8594 -5.0781 Q5.8594 -4.3906 5.9062 -3.4219 ZM18.1719 27 Q18.1719 18.75 21.3672 14.9141 Q24.5625 11.0781 29.25 11.0781 Q34.2812 11.0781 37.75 15.0156 Q41.2188 18.9531 41.2188 26.6562 Q41.2188 34.7188 37.8984 38.625 Q34.5781 42.5312 29.5 42.5312 Q24.5625 42.5312 21.3672 38.6953 Q18.1719 34.8594 18.1719 27 Z"
        /><glyph unicode="u" horiz-adv-x="61.083984" d="M41.3125 0 L41.3125 7.7656 Q38.4844 3.6094 33.8672 1.2188 Q29.25 -1.1719 24.125 -1.1719 Q18.8906 -1.1719 14.7422 1.125 Q10.5938 3.4219 8.7422 7.5703 Q6.8906 11.7188 6.8906 19.0469 L6.8906 51.8594 L20.6094 51.8594 L20.6094 28.0312 Q20.6094 17.0938 21.3672 14.625 Q22.125 12.1562 24.125 10.7188 Q26.125 9.2812 29.2031 9.2812 Q32.7188 9.2812 35.5 11.2109 Q38.2812 13.1406 39.3047 15.9922 Q40.3281 18.8438 40.3281 29.9844 L40.3281 51.8594 L54.0469 51.8594 L54.0469 0 L41.3125 0 Z"
        /><glyph unicode="n" horiz-adv-x="61.083984" d="M54.3438 0 L40.625 0 L40.625 26.4688 Q40.625 34.8594 39.75 37.3281 Q38.875 39.7969 36.8906 41.1641 Q34.9062 42.5312 32.125 42.5312 Q28.5625 42.5312 25.7344 40.5781 Q22.9062 38.625 21.8516 35.3984 Q20.7969 32.1719 20.7969 23.4844 L20.7969 0 L7.0781 0 L7.0781 51.8594 L19.8281 51.8594 L19.8281 44.2344 Q26.6094 53.0312 36.9219 53.0312 Q41.4531 53.0312 45.2109 51.3906 Q48.9688 49.75 50.8984 47.2109 Q52.8281 44.6719 53.5859 41.4531 Q54.3438 38.2344 54.3438 32.2344 L54.3438 0 Z"
        /><glyph unicode="o" horiz-adv-x="61.083984" d="M4 26.6562 Q4 33.5 7.375 39.8984 Q10.75 46.2969 16.9219 49.6641 Q23.0938 53.0312 30.7188 53.0312 Q42.4844 53.0312 50 45.3906 Q57.5156 37.75 57.5156 26.0781 Q57.5156 14.3125 49.9219 6.5703 Q42.3281 -1.1719 30.8125 -1.1719 Q23.6875 -1.1719 17.2188 2.0547 Q10.75 5.2812 7.375 11.5 Q4 17.7188 4 26.6562 ZM18.0625 25.9219 Q18.0625 18.2188 21.7266 14.1172 Q25.3906 10.0156 30.7656 10.0156 Q36.1406 10.0156 39.7734 14.1172 Q43.4062 18.2188 43.4062 26.0312 Q43.4062 33.6406 39.7734 37.7422 Q36.1406 41.8438 30.7656 41.8438 Q25.3906 41.8438 21.7266 37.7422 Q18.0625 33.6406 18.0625 25.9219 Z"
        /><glyph unicode="p" horiz-adv-x="61.083984" d="M6.7812 51.8594 L19.5781 51.8594 L19.5781 44.2344 Q22.0781 48.1406 26.3203 50.5859 Q30.5625 53.0312 35.75 53.0312 Q44.7812 53.0312 51.0781 45.9531 Q57.375 38.875 57.375 26.2188 Q57.375 13.2344 51.0234 6.0312 Q44.6719 -1.1719 35.6406 -1.1719 Q31.3438 -1.1719 27.8516 0.5391 Q24.3594 2.25 20.5156 6.3906 L20.5156 -19.7344 L6.7812 -19.7344 L6.7812 51.8594 ZM20.3594 26.8125 Q20.3594 18.0625 23.8281 13.8906 Q27.2969 9.7188 32.2812 9.7188 Q37.0625 9.7188 40.2344 13.5547 Q43.4062 17.3906 43.4062 26.125 Q43.4062 34.2812 40.1328 38.2344 Q36.8594 42.1875 32.0312 42.1875 Q27 42.1875 23.6797 38.3047 Q20.3594 34.4219 20.3594 26.8125 Z"
        /><glyph unicode="s" horiz-adv-x="55.615234" d="M2.3438 14.7969 L16.1094 16.8906 Q17 12.8906 19.6797 10.8125 Q22.3594 8.7344 27.2031 8.7344 Q32.5156 8.7344 35.2031 10.6875 Q37.0156 12.0625 37.0156 14.3594 Q37.0156 15.9219 36.0312 16.9375 Q35.0156 17.9219 31.4531 18.75 Q14.8438 22.4062 10.4062 25.4375 Q4.25 29.6406 4.25 37.1094 Q4.25 43.8438 9.5703 48.4375 Q14.8906 53.0312 26.0781 53.0312 Q36.7188 53.0312 41.8984 49.5625 Q47.0781 46.0938 49.0312 39.3125 L36.0781 36.9219 Q35.25 39.9375 32.9297 41.5547 Q30.6094 43.1719 26.3125 43.1719 Q20.9062 43.1719 18.5625 41.6562 Q17 40.5781 17 38.875 Q17 37.4062 18.3594 36.375 Q20.2188 35.0156 31.1797 32.5234 Q42.1406 30.0312 46.4844 26.4219 Q50.7812 22.75 50.7812 16.2188 Q50.7812 9.0781 44.8281 3.9531 Q38.875 -1.1719 27.2031 -1.1719 Q16.6094 -1.1719 10.4297 3.125 Q4.25 7.4219 2.3438 14.7969 Z"
        /><glyph unicode=" " horiz-adv-x="27.783203" d=""
        /><glyph unicode="r" horiz-adv-x="38.916016" d="M20.3125 0 L6.5938 0 L6.5938 51.8594 L19.3438 51.8594 L19.3438 44.4844 Q22.6094 49.7031 25.2188 51.3672 Q27.8281 53.0312 31.1562 53.0312 Q35.8438 53.0312 40.1875 50.4375 L35.9375 38.4844 Q32.4688 40.7188 29.5 40.7188 Q26.6094 40.7188 24.6094 39.1328 Q22.6094 37.5469 21.4609 33.3984 Q20.3125 29.25 20.3125 16.0156 L20.3125 0 Z"
        /><glyph unicode="e" horiz-adv-x="55.615234" d="M37.2031 16.5 L50.875 14.2031 Q48.25 6.6875 42.5547 2.7578 Q36.8594 -1.1719 28.3281 -1.1719 Q14.7969 -1.1719 8.2969 7.6719 Q3.1719 14.75 3.1719 25.5312 Q3.1719 38.4219 9.9141 45.7266 Q16.6562 53.0312 26.9531 53.0312 Q38.5312 53.0312 45.2188 45.3906 Q51.9062 37.75 51.6094 21.9688 L17.2344 21.9688 Q17.3906 15.875 20.5625 12.4766 Q23.7344 9.0781 28.4688 9.0781 Q31.6875 9.0781 33.8828 10.8359 Q36.0781 12.5938 37.2031 16.5 ZM37.9844 30.375 Q37.8438 36.3281 34.9141 39.4297 Q31.9844 42.5312 27.7812 42.5312 Q23.2969 42.5312 20.3594 39.2656 Q17.4375 35.9844 17.4844 30.375 L37.9844 30.375 Z"
        /><glyph unicode="t" horiz-adv-x="33.30078" d="M30.9531 51.8594 L30.9531 40.9219 L21.5781 40.9219 L21.5781 20.0156 Q21.5781 13.6719 21.8516 12.625 Q22.125 11.5781 23.0781 10.8906 Q24.0312 10.2031 25.3906 10.2031 Q27.2969 10.2031 30.9062 11.5312 L32.0781 0.875 Q27.2969 -1.1719 21.2344 -1.1719 Q17.5312 -1.1719 14.5547 0.0703 Q11.5781 1.3125 10.1875 3.2969 Q8.7969 5.2812 8.25 8.6406 Q7.8125 11.0312 7.8125 18.3125 L7.8125 40.9219 L1.5156 40.9219 L1.5156 51.8594 L7.8125 51.8594 L7.8125 62.1562 L21.5781 70.1719 L21.5781 51.8594 L30.9531 51.8594 Z"
        /><glyph unicode="l" horiz-adv-x="27.783203" d="M7.1719 0 L7.1719 71.5781 L20.9062 71.5781 L20.9062 0 L7.1719 0 Z"
        /><glyph unicode="i" horiz-adv-x="27.783203" d="M7.1719 58.8906 L7.1719 71.5781 L20.9062 71.5781 L20.9062 58.8906 L7.1719 58.8906 ZM7.1719 0 L7.1719 51.8594 L20.9062 51.8594 L20.9062 0 L7.1719 0 Z"
        /><glyph unicode="F" horiz-adv-x="61.083984" d="M7.375 0 L7.375 71.5781 L56.4531 71.5781 L56.4531 59.4688 L21.8281 59.4688 L21.8281 42.5312 L51.7031 42.5312 L51.7031 30.4219 L21.8281 30.4219 L21.8281 0 L7.375 0 Z"
      /></font
    ></defs
    ><g style="fill:white; stroke:white;"
    ><rect x="0" y="0" width="1920" style="clip-path:url(#clipPath1); stroke:none;" height="964"
    /></g
    ><g style="fill:white; text-rendering:optimizeSpeed; color-rendering:optimizeSpeed; image-rendering:optimizeSpeed; shape-rendering:crispEdges; color-interpolation:sRGB; stroke:white;"
    ><rect x="0" width="1920" height="964" y="0" style="stroke:none;"
      /><path style="stroke:none;" d="M250 858 L1738 858 L1738 72 L250 72 Z"
    /></g
    ><g style="stroke-linecap:butt; fill-opacity:0.149; fill:rgb(38,38,38); text-rendering:geometricPrecision; color-rendering:optimizeQuality; image-rendering:optimizeQuality; stroke-linejoin:round; color-interpolation:linearRGB; stroke:rgb(38,38,38); stroke-width:0.6667; stroke-opacity:0.149;"
    ><line y2="72" style="fill:none;" x1="250" x2="250" y1="858"
      /><line y2="72" style="fill:none;" x1="462.5714" x2="462.5714" y1="858"
      /><line y2="72" style="fill:none;" x1="675.1429" x2="675.1429" y1="858"
      /><line y2="72" style="fill:none;" x1="887.7143" x2="887.7143" y1="858"
      /><line y2="72" style="fill:none;" x1="1100.2858" x2="1100.2858" y1="858"
      /><line y2="72" style="fill:none;" x1="1312.8572" x2="1312.8572" y1="858"
      /><line y2="72" style="fill:none;" x1="1525.4286" x2="1525.4286" y1="858"
      /><line y2="72" style="fill:none;" x1="1738" x2="1738" y1="858"
      /><line y2="858" style="fill:none;" x1="1738" x2="250" y1="858"
      /><line y2="700.8" style="fill:none;" x1="1738" x2="250" y1="700.8"
      /><line y2="543.6" style="fill:none;" x1="1738" x2="250" y1="543.6"
      /><line y2="386.4" style="fill:none;" x1="1738" x2="250" y1="386.4"
      /><line y2="229.2" style="fill:none;" x1="1738" x2="250" y1="229.2"
      /><line y2="72" style="fill:none;" x1="1738" x2="250" y1="72"
      /><line x1="250" x2="1738" y1="858" style="stroke-linecap:square; fill-opacity:1; fill:none; stroke-opacity:1;" y2="858"
      /><line x1="250" x2="1738" y1="72" style="stroke-linecap:square; fill-opacity:1; fill:none; stroke-opacity:1;" y2="72"
      /><line x1="250" x2="250" y1="858" style="stroke-linecap:square; fill-opacity:1; fill:none; stroke-opacity:1;" y2="843.12"
      /><line x1="462.5714" x2="462.5714" y1="858" style="stroke-linecap:square; fill-opacity:1; fill:none; stroke-opacity:1;" y2="843.12"
      /><line x1="675.1429" x2="675.1429" y1="858" style="stroke-linecap:square; fill-opacity:1; fill:none; stroke-opacity:1;" y2="843.12"
      /><line x1="887.7143" x2="887.7143" y1="858" style="stroke-linecap:square; fill-opacity:1; fill:none; stroke-opacity:1;" y2="843.12"
      /><line x1="1100.2858" x2="1100.2858" y1="858" style="stroke-linecap:square; fill-opacity:1; fill:none; stroke-opacity:1;" y2="843.12"
      /><line x1="1312.8572" x2="1312.8572" y1="858" style="stroke-linecap:square; fill-opacity:1; fill:none; stroke-opacity:1;" y2="843.12"
      /><line x1="1525.4286" x2="1525.4286" y1="858" style="stroke-linecap:square; fill-opacity:1; fill:none; stroke-opacity:1;" y2="843.12"
      /><line x1="1738" x2="1738" y1="858" style="stroke-linecap:square; fill-opacity:1; fill:none; stroke-opacity:1;" y2="843.12"
      /><line x1="250" x2="250" y1="72" style="stroke-linecap:square; fill-opacity:1; fill:none; stroke-opacity:1;" y2="86.88"
      /><line x1="462.5714" x2="462.5714" y1="72" style="stroke-linecap:square; fill-opacity:1; fill:none; stroke-opacity:1;" y2="86.88"
      /><line x1="675.1429" x2="675.1429" y1="72" style="stroke-linecap:square; fill-opacity:1; fill:none; stroke-opacity:1;" y2="86.88"
      /><line x1="887.7143" x2="887.7143" y1="72" style="stroke-linecap:square; fill-opacity:1; fill:none; stroke-opacity:1;" y2="86.88"
      /><line x1="1100.2858" x2="1100.2858" y1="72" style="stroke-linecap:square; fill-opacity:1; fill:none; stroke-opacity:1;" y2="86.88"
      /><line x1="1312.8572" x2="1312.8572" y1="72" style="stroke-linecap:square; fill-opacity:1; fill:none; stroke-opacity:1;" y2="86.88"
      /><line x1="1525.4286" x2="1525.4286" y1="72" style="stroke-linecap:square; fill-opacity:1; fill:none; stroke-opacity:1;" y2="86.88"
      /><line x1="1738" x2="1738" y1="72" style="stroke-linecap:square; fill-opacity:1; fill:none; stroke-opacity:1;" y2="86.88"
    /></g
    ><g transform="translate(250,863.3333)" style="font-size:13px; fill:rgb(38,38,38); text-rendering:geometricPrecision; color-rendering:optimizeQuality; image-rendering:optimizeQuality; color-interpolation:linearRGB; stroke:rgb(38,38,38);"
    ><text x="-4" xml:space="preserve" y="14" style="stroke:none;"
      >0</text
    ></g
    ><g transform="translate(462.5714,863.3333)" style="font-size:13px; fill:rgb(38,38,38); text-rendering:geometricPrecision; color-rendering:optimizeQuality; image-rendering:optimizeQuality; color-interpolation:linearRGB; stroke:rgb(38,38,38);"
    ><text x="-4" xml:space="preserve" y="14" style="stroke:none;"
      >1</text
    ></g
    ><g transform="translate(675.1429,863.3333)" style="font-size:13px; fill:rgb(38,38,38); text-rendering:geometricPrecision; color-rendering:optimizeQuality; image-rendering:optimizeQuality; color-interpolation:linearRGB; stroke:rgb(38,38,38);"
    ><text x="-4" xml:space="preserve" y="14" style="stroke:none;"
      >2</text
    ></g
    ><g transform="translate(887.7143,863.3333)" style="font-size:13px; fill:rgb(38,38,38); text-rendering:geometricPrecision; color-rendering:optimizeQuality; image-rendering:optimizeQuality; color-interpolation:linearRGB; stroke:rgb(38,38,38);"
    ><text x="-4" xml:space="preserve" y="14" style="stroke:none;"
      >3</text
    ></g
    ><g transform="translate(1100.2858,863.3333)" style="font-size:13px; fill:rgb(38,38,38); text-rendering:geometricPrecision; color-rendering:optimizeQuality; image-rendering:optimizeQuality; color-interpolation:linearRGB; stroke:rgb(38,38,38);"
    ><text x="-4" xml:space="preserve" y="14" style="stroke:none;"
      >4</text
    ></g
    ><g transform="translate(1312.8572,863.3333)" style="font-size:13px; fill:rgb(38,38,38); text-rendering:geometricPrecision; color-rendering:optimizeQuality; image-rendering:optimizeQuality; color-interpolation:linearRGB; stroke:rgb(38,38,38);"
    ><text x="-4" xml:space="preserve" y="14" style="stroke:none;"
      >5</text
    ></g
    ><g transform="translate(1525.4286,863.3333)" style="font-size:13px; fill:rgb(38,38,38); text-rendering:geometricPrecision; color-rendering:optimizeQuality; image-rendering:optimizeQuality; color-interpolation:linearRGB; stroke:rgb(38,38,38);"
    ><text x="-4" xml:space="preserve" y="14" style="stroke:none;"
      >6</text
    ></g
    ><g transform="translate(1738,863.3333)" style="font-size:13px; fill:rgb(38,38,38); text-rendering:geometricPrecision; color-rendering:optimizeQuality; image-rendering:optimizeQuality; color-interpolation:linearRGB; stroke:rgb(38,38,38);"
    ><text x="-4" xml:space="preserve" y="14" style="stroke:none;"
      >7</text
    ></g
    ><g transform="translate(994.0007,881.6666)" style="font-size:15px; fill:rgb(38,38,38); text-rendering:geometricPrecision; color-rendering:optimizeQuality; image-rendering:optimizeQuality; color-interpolation:linearRGB; stroke:rgb(38,38,38);"
    ><text x="-27.5" xml:space="preserve" y="16" style="stroke:none;"
      >Time (s)</text
    ></g
    ><g transform="translate(1702,900)" style="font-size:13px; fill:rgb(38,38,38); text-rendering:geometricPrecision; color-rendering:optimizeQuality; image-rendering:optimizeQuality; font-family:'mwb_cmsy10'; color-interpolation:linearRGB; stroke:rgb(38,38,38);"
    ><text x="0" xml:space="preserve" y="0" style="stroke:none;"
      >#</text
    ></g
    ><g transform="translate(1713,900)" style="font-size:13px; fill:rgb(38,38,38); text-rendering:geometricPrecision; color-rendering:optimizeQuality; image-rendering:optimizeQuality; color-interpolation:linearRGB; stroke:rgb(38,38,38);"
    ><text x="0" xml:space="preserve" y="0" style="stroke:none;"
      >10</text
    ></g
    ><g transform="translate(1728,894)" style="font-size:11px; fill:rgb(38,38,38); text-rendering:geometricPrecision; color-rendering:optimizeQuality; image-rendering:optimizeQuality; color-interpolation:linearRGB; stroke:rgb(38,38,38);"
    ><text x="0" xml:space="preserve" y="0" style="stroke:none;"
      >-3</text
    ></g
    ><g style="fill:rgb(38,38,38); text-rendering:geometricPrecision; color-rendering:optimizeQuality; image-rendering:optimizeQuality; stroke-linejoin:round; color-interpolation:linearRGB; stroke:rgb(38,38,38); stroke-width:0.6667;"
    ><line y2="72" style="fill:none;" x1="250" x2="250" y1="858"
      /><line y2="72" style="fill:none;" x1="1738" x2="1738" y1="858"
      /><line y2="858" style="fill:none;" x1="250" x2="264.88" y1="858"
      /><line y2="700.8" style="fill:none;" x1="250" x2="264.88" y1="700.8"
      /><line y2="543.6" style="fill:none;" x1="250" x2="264.88" y1="543.6"
      /><line y2="386.4" style="fill:none;" x1="250" x2="264.88" y1="386.4"
      /><line y2="229.2" style="fill:none;" x1="250" x2="264.88" y1="229.2"
      /><line y2="72" style="fill:none;" x1="250" x2="264.88" y1="72"
      /><line y2="858" style="fill:none;" x1="1738" x2="1723.12" y1="858"
      /><line y2="700.8" style="fill:none;" x1="1738" x2="1723.12" y1="700.8"
      /><line y2="543.6" style="fill:none;" x1="1738" x2="1723.12" y1="543.6"
      /><line y2="386.4" style="fill:none;" x1="1738" x2="1723.12" y1="386.4"
      /><line y2="229.2" style="fill:none;" x1="1738" x2="1723.12" y1="229.2"
      /><line y2="72" style="fill:none;" x1="1738" x2="1723.12" y1="72"
    /></g
    ><g transform="translate(244.6667,858)" style="font-size:13px; fill:rgb(38,38,38); text-rendering:geometricPrecision; color-rendering:optimizeQuality; image-rendering:optimizeQuality; color-interpolation:linearRGB; stroke:rgb(38,38,38);"
    ><text x="-19" xml:space="preserve" y="5.5" style="stroke:none;"
      >-10</text
    ></g
    ><g transform="translate(244.6667,700.8)" style="font-size:13px; fill:rgb(38,38,38); text-rendering:geometricPrecision; color-rendering:optimizeQuality; image-rendering:optimizeQuality; color-interpolation:linearRGB; stroke:rgb(38,38,38);"
    ><text x="-12" xml:space="preserve" y="5.5" style="stroke:none;"
      >-5</text
    ></g
    ><g transform="translate(244.6667,543.6)" style="font-size:13px; fill:rgb(38,38,38); text-rendering:geometricPrecision; color-rendering:optimizeQuality; image-rendering:optimizeQuality; color-interpolation:linearRGB; stroke:rgb(38,38,38);"
    ><text x="-8" xml:space="preserve" y="5.5" style="stroke:none;"
      >0</text
    ></g
    ><g transform="translate(244.6667,386.4)" style="font-size:13px; fill:rgb(38,38,38); text-rendering:geometricPrecision; color-rendering:optimizeQuality; image-rendering:optimizeQuality; color-interpolation:linearRGB; stroke:rgb(38,38,38);"
    ><text x="-8" xml:space="preserve" y="5.5" style="stroke:none;"
      >5</text
    ></g
    ><g transform="translate(244.6667,229.2)" style="font-size:13px; fill:rgb(38,38,38); text-rendering:geometricPrecision; color-rendering:optimizeQuality; image-rendering:optimizeQuality; color-interpolation:linearRGB; stroke:rgb(38,38,38);"
    ><text x="-15" xml:space="preserve" y="5.5" style="stroke:none;"
      >10</text
    ></g
    ><g transform="translate(244.6667,72)" style="font-size:13px; fill:rgb(38,38,38); text-rendering:geometricPrecision; color-rendering:optimizeQuality; image-rendering:optimizeQuality; color-interpolation:linearRGB; stroke:rgb(38,38,38);"
    ><text x="-15" xml:space="preserve" y="5.5" style="stroke:none;"
      >15</text
    ></g
    ><g transform="translate(221.6667,464.9996) rotate(-90)" style="font-size:15px; fill:rgb(38,38,38); text-rendering:geometricPrecision; color-rendering:optimizeQuality; image-rendering:optimizeQuality; color-interpolation:linearRGB; stroke:rgb(38,38,38);"
    ><text x="-38" xml:space="preserve" y="-4" style="stroke:none;"
      >Voltage (V)</text
    ></g
    ><g transform="translate(994.001,69.25)" style="font-size:15px; text-rendering:geometricPrecision; color-rendering:optimizeQuality; image-rendering:optimizeQuality; color-interpolation:linearRGB; font-weight:bold;"
    ><text x="-107.5" xml:space="preserve" y="-4" style="stroke:none;"
      >Filter response to input signal</text
    ></g
    ><g style="stroke-linecap:butt; fill:rgb(0,114,189); text-rendering:geometricPrecision; color-rendering:optimizeQuality; image-rendering:optimizeQuality; stroke-linejoin:round; color-interpolation:linearRGB; stroke:rgb(0,114,189); stroke-width:0.6667;"
    ><path d="M250 411.552 L252.6572 439.873 L255.3143 497.6198 L257.9714 536.8569 L260.6286 542.2527 L263.2857 532.9324 L265.9429 522.642 L268.6 504.9077 L271.2571 479.1903 L273.9143 464.8139 L276.5714 474.3519 L279.2286 491.6377 L281.8857 496.1095 L284.5428 497.5286 L287.2 521.9524 L289.8571 565.231 L292.5143 586.5692 L295.1714 558.4101 L297.8286 503.4566 L300.4857 467.1227 L303.1429 467.209 L305.8 489.0522 L308.4572 519.1959 L311.1143 556.9248 L313.7714 591.5497 L316.4286 596.7705 L319.0857 563.9576 L321.7429 523.3286 L324.4 511.0398 L327.0571 524.0515 L329.7143 529.5325 L332.3714 515.986 L335.0286 510.1058 L337.6857 535.4558 L340.3429 576.2624 L343 598.296 L345.6571 590.9041 L348.3143 568.4229 L350.9714 539.8138 L353.6286 503.2939 L356.2857 472.0498 L358.9429 476.8755 L361.6 526.7271 L364.2571 584.2377 L366.9143 602.0656 L369.5714 576.32 L372.2286 543.8241 L374.8857 530.1747 L377.5429 524.323 L380.2 509.4776 L382.8571 494.6888 L385.5143 498.5896 L388.1714 517.7796 L390.8286 533.9765 L393.4857 545.1927 L396.1429 564.4372 L398.8 585.7096 L401.4572 577.9235 L404.1143 527.6582 L406.7714 469.8082 L409.4286 454.2339 L412.0857 489.336 L414.7429 538.6287 L417.4 569.3713 L420.0571 581.4276 L422.7143 584.6533 L425.3714 573.9792 L428.0286 544.8568 L430.6857 516.3104 L433.3429 513.3694 L436 531.2677 L438.6571 541.3653 L441.3143 535.5714 L443.9714 540.985 L446.6286 577.9557 L449.2857 622.7681 L451.9429 632.6996 L454.6 599.0065 L457.2571 553.6593 L459.9143 526.8748 L462.5714 521.2571 L465.2286 531.4108 L467.8857 562.6936 L470.5428 612.4641 L473.2 650.4688 L475.8571 644.702 L478.5143 603.8737 L481.1714 570.6747 L483.8286 568.7911 L486.4857 577.8463 L489.1429 570.7173 L491.8 555.4745 L494.4572 560.7401 L497.1143 591.2665 L499.7714 622.0143 L502.4286 633.9529 L505.0857 631.6284 L507.7429 620.1113 L510.4 589.5513 L513.0571 540.0938 L515.7143 504.4922 L518.3714 519.2487 L521.0286 575.9821 L523.6857 624.8548 L526.3428 630.9981 L529 607.8606 L531.6571 586.5592 L534.3143 573.1265 L536.9714 554.5872 L539.6286 532.9638 L542.2857 526.5743 L544.9429 538.855 L547.6 551.2084 L550.2571 554.6199 L552.9143 565.9153 L555.5714 596.1763 L558.2286 619.8377 L560.8857 600.1059 L563.5428 540.8985 L566.2 489.5819 L568.8571 483.5443 L571.5143 513.848 L574.1714 549.7139 L576.8286 577.9666 L579.4857 600.3967 L582.1429 608.0468 L584.8 586.5805 L587.4572 546.6466 L590.1143 522.4671 L592.7714 529.8042 L595.4286 545.0792 L598.0857 541.58 L600.7429 530.7816 L603.4 545.4909 L606.0571 588.7204 L608.7143 624.284 L611.3715 621.9325 L614.0286 590.2621 L616.6857 555.5381 L619.3428 528.4141 L622 509.5692 L624.6572 512.4232 L627.3143 551.6036 L629.9714 609.274 L632.6285 639.9861 L635.2857 621.0044 L637.9429 579.8543 L640.6 557.3024 L643.2571 557.4722 L645.9143 554.2826 L648.5714 537.9518 L651.2286 529.0245 L653.8857 543.6537 L656.5428 569.2558 L659.2 586.5007 L661.8571 595.925 L664.5143 604.0044 L667.1714 596.9981 L669.8286 555.7902 L672.4857 495.7253 L675.1429 464.7556 L677.8 490.1173 L680.4572 544.6174 L683.1143 580.3467 L685.7714 582.0024 L688.4286 568.7411 L691.0857 554.3419 L693.7429 532.366 L696.4 502.3106 L699.0571 483.5365 L701.7143 488.655 L704.3715 501.5371 L707.0286 501.6582 L709.6857 498.8163 L712.3428 519.1042 L715 558.406 L717.6572 575.9583 L720.3143 544.2343 L722.9714 485.9639 L725.6285 446.5854 L728.2857 443.921 L730.9429 463.325 L733.6 491.3555 L736.2571 527.308 L738.9143 560.5001 L741.5714 564.635 L744.2286 531.0821 L746.8857 490.0543 L749.5428 477.6997 L752.2 490.9664 L754.8571 497.0074 L757.5143 484.3072 L760.1714 479.5374 L762.8286 506.2367 L765.4857 548.6041 L768.1429 572.3802 L770.8 566.8807 L773.4572 546.4086 L776.1143 519.8908 L778.7714 485.5091 L781.4286 456.4147 L784.0857 463.3661 L786.7429 515.284 L789.4 574.7676 L792.0572 594.442 L794.7143 570.3852 L797.3715 539.3909 L800.0286 527.0289 L802.6857 522.2259 L805.3428 508.1692 L808 493.8905 L810.6571 498.0079 L813.3143 517.1098 L815.9714 532.9059 L818.6286 543.4048 L821.2857 561.6153 L823.9429 581.5408 L826.6 572.1024 L829.2571 519.8908 L831.9143 459.8153 L834.5714 441.7546 L837.2286 474.131 L839.8857 520.4833 L842.5428 548.0984 L845.2 556.8696 L847.8572 556.6845 L850.5143 542.5079 L853.1714 509.826 L855.8286 477.6997 L858.4857 471.1946 L861.1429 485.5817 L863.8 492.2577 L866.4572 483.168 L869.1143 485.4464 L871.7714 519.4763 L874.4285 561.5742 L877.0858 569.0471 L879.7429 533.1787 L882.4 485.9639 L885.0571 457.641 L887.7143 450.8322 L890.3715 460.1568 L893.0286 490.9834 L895.6857 540.678 L898.3428 578.9904 L901 573.9144 L903.6571 534.1554 L906.3143 502.3962 L908.9714 502.3106 L911.6286 513.5064 L914.2857 508.8416 L916.9429 496.3638 L919.6 504.6703 L922.2571 538.485 L924.9143 572.7382 L927.5714 588.3665 L930.2286 589.8817 L932.8857 582.3186 L935.5429 555.7902 L938.2 510.4048 L940.8572 478.8783 L943.5143 497.6758 L946.1714 558.3799 L948.8286 611.1175 L951.4857 620.9859 L954.1428 601.4018 L956.8 583.4522 L959.4572 573.1423 L962.1143 557.4722 L964.7714 538.4427 L967.4286 534.3539 L970.0858 548.6271 L972.7429 562.6539 L975.4 567.4122 L978.0571 579.7244 L980.7143 610.6724 L983.3714 634.6954 L986.0286 615.0074 L988.6857 555.5381 L991.3428 503.6689 L994 496.8064 L996.6572 526.0348 L999.3143 560.5996 L1001.9714 587.3526 L1004.6286 608.1138 L1007.2857 613.9572 L1009.9429 590.5796 L1012.6 548.6639 L1015.2571 522.4671 L1017.9142 527.7869 L1020.5714 541.0801 L1023.2286 535.6696 L1025.8857 523.0645 L1028.5428 536.1049 L1031.2 577.8347 L1033.8572 612.0972 L1036.5143 608.6703 L1039.1714 576.1752 L1041.8286 540.8985 L1044.4857 513.5126 L1047.1428 494.7116 L1049.7999 497.9271 L1052.4572 537.7945 L1055.1143 596.4816 L1057.7715 628.5406 L1060.4286 611.2322 L1063.0857 572.0747 L1065.7428 551.8235 L1068.4 554.5872 L1071.0571 554.2668 L1073.7142 541.0588 L1076.3715 535.4833 L1079.0286 553.6659 L1081.6858 582.9931 L1084.3428 604.1028 L1087 617.4979 L1089.6571 629.6183 L1092.3143 626.6871 L1094.9714 589.5513 L1097.6285 533.518 L1100.2858 506.5023 L1102.9429 535.7037 L1105.6 593.8936 L1108.2571 633.1282 L1110.9143 638.0723 L1113.5714 627.8517 L1116.2286 616.2178 L1118.8856 596.7059 L1121.5428 568.7911 L1124.2001 551.8151 L1126.8572 558.3733 L1129.5143 572.3247 L1132.1714 573.1365 L1134.8286 570.6024 L1137.4857 590.8144 L1140.1428 629.66 L1142.7999 646.3832 L1145.4572 613.4681 L1148.1143 553.6593 L1150.7715 512.4132 L1153.4286 507.5735 L1156.0857 524.5189 L1158.7429 549.8348 L1161.4 582.8467 L1164.0571 612.9036 L1166.7142 613.7426 L1169.3715 576.7681 L1172.0286 532.2291 L1174.6857 516.3104 L1177.3428 525.9971 L1180 528.4788 L1182.6572 512.276 L1185.3143 504.0955 L1187.9714 527.5096 L1190.6285 566.7495 L1193.2858 587.5853 L1195.9429 579.36 L1198.6 556.4016 L1201.2571 527.6582 L1203.9143 491.3302 L1206.5714 460.5835 L1209.2285 466.188 L1211.8857 517.072 L1214.5428 575.8382 L1217.2001 595.1118 L1219.8572 570.9669 L1222.5143 540.1892 L1225.1714 528.3373 L1227.8286 524.323 L1230.4857 511.315 L1233.1428 498.3237 L1235.7999 503.9427 L1238.4572 524.7334 L1241.1144 542.376 L1243.7714 554.8478 L1246.4286 575.1248 L1249.0857 597.1758 L1251.7429 589.8871 L1254.4 539.8138 L1257.0571 481.8296 L1259.7142 465.778 L1262.3715 500.0468 L1265.0286 548.1416 L1267.6857 577.3175 L1270.3429 587.438 L1273 588.3632 L1275.6572 575.0328 L1278.3143 542.9112 L1280.9714 511.0398 L1283.6285 504.4689 L1286.2858 518.4573 L1288.9429 524.3932 L1291.6 514.2175 L1294.2571 515.0631 L1296.9143 547.3167 L1299.5715 587.3014 L1302.2285 592.3351 L1304.8857 553.7159 L1307.5428 503.4566 L1310.2001 471.8168 L1312.8572 461.4431 L1315.5143 466.9818 L1318.1714 493.8316 L1320.8286 539.3903 L1323.4857 573.4417 L1326.1428 564.015 L1328.8 519.8523 L1331.4572 483.6736 L1334.1144 479.1903 L1336.7714 486.048 L1339.4286 477.1416 L1342.0857 460.5551 L1344.7429 464.9205 L1347.4 494.9952 L1350.0571 525.7406 L1352.7142 538.1222 L1355.3715 536.6781 L1358.0286 526.4663 L1360.6857 497.6198 L1363.3429 450.2636 L1366 417.1266 L1368.6572 434.6831 L1371.3142 494.5212 L1373.9714 546.7693 L1376.6285 556.5225 L1379.2858 537.1912 L1381.9429 519.8523 L1384.6 510.4974 L1387.2572 496.1095 L1389.9143 478.6689 L1392.5714 476.452 L1395.2285 492.8538 L1397.8857 509.237 L1400.5428 516.5484 L1403.2001 531.5774 L1405.8571 565.3719 L1408.5143 592.3351 L1411.1714 575.6454 L1413.8286 519.1959 L1416.4857 470.3315 L1419.1428 466.4236 L1421.8 498.5213 L1424.4572 535.8369 L1427.1143 565.1902 L1429.7714 588.3719 L1432.4286 596.4288 L1435.0857 575.0328 L1437.7429 534.8456 L1440.3999 510.1058 L1443.0571 516.5961 L1445.7144 530.762 L1448.3715 525.9188 L1451.0286 513.5719 L1453.6857 526.5612 L1456.3429 567.9346 L1459 601.5431 L1461.6571 597.1758 L1464.3142 563.4688 L1466.9714 526.7271 L1469.6285 497.6444 L1472.2858 476.9395 L1474.9429 478.0708 L1477.6 515.7033 L1480.2572 572.0364 L1482.9143 601.6552 L1485.5714 581.8549 L1488.2285 540.1892 L1490.8857 517.4492 L1493.5428 517.7796 L1496.2 515.1169 L1498.8571 499.6923 L1501.5143 492.0599 L1504.1715 508.3774 L1506.8286 536.0618 L1509.4857 555.779 L1512.1428 568.0574 L1514.8 579.36 L1517.4572 575.9293 L1520.1143 538.6287 L1522.7714 482.778 L1525.4286 456.3015 L1528.0857 486.4041 L1530.7429 545.8584 L1533.4 586.7185 L1536.0571 593.6426 L1538.7144 585.7467 L1541.3715 576.7681 L1544.0286 560.225 L1546.6857 535.5714 L1549.3429 522.1253 L1552 532.4553 L1554.6571 550.3908 L1557.3142 555.3674 L1559.9714 557.1448 L1562.6287 581.7801 L1565.2858 625.124 L1567.9429 646.3832 L1570.6 618.0042 L1573.2572 562.6936 L1575.9143 525.8707" style="fill:none; fill-rule:evenodd;"
      /><path d="M250 126.0275 L252.6572 461.2104 L255.3143 699.901 L257.9714 743.455 L260.6286 651.2242 L263.2857 550.629 L265.9429 493.0402 L268.6 454.2221 L271.2571 434.3188 L273.9143 471.643 L276.5714 556.2567 L279.2286 611.5407 L281.8857 597.8454 L284.5428 573.8087 L287.2 601.2813 L289.8571 633.6794 L292.5143 572.9067 L295.1714 424.6816 L297.8286 319.5352 L300.4857 358.6541 L303.1429 500.1733 L305.8 632.3326 L308.4572 703.5465 L311.1143 724.987 L313.7714 689.1049 L316.4286 573.2783 L319.0857 425.2508 L321.7429 359.4757 L324.4 425.8298 L327.0571 537.1223 L329.7143 580.1088 L332.3714 560.1826 L335.0286 571.0192 L337.6857 640.2654 L340.3429 684.1082 L343 630.4167 L345.6571 517.4351 L348.3143 430.4546 L350.9714 395.5883 L353.6286 394.5294 L356.2857 443.9033 L358.9429 574.7973 L361.6 733.2258 L364.2571 786.7574 L366.9143 674.2411 L369.5714 495.6505 L372.2286 399.986 L374.8857 418.3812 L377.5429 466.6949 L380.2 488.5194 L382.8571 516.4225 L385.5143 581.731 L388.1714 642.2999 L390.8286 646.7693 L393.4857 616.2891 L396.1429 598.6965 L398.8 574.1215 L401.4572 485.2713 L404.1143 360.8115 L406.7714 326.0894 L409.4286 451.2997 L412.0857 644.8389 L414.7429 751.3293 L417.4 721.5045 L420.0571 628.0755 L422.7143 540.0898 L425.3714 460.6159 L428.0286 394.7627 L430.6857 394.1494 L433.3429 481.3441 L436 583.9479 L438.6571 613.3358 L441.3143 585.509 L443.9714 591.7325 L446.6286 650.6483 L449.2857 666.4832 L451.9429 565.8367 L454.6 414.1385 L457.2571 341.4693 L459.9143 390.026 L462.5714 496.1471 L465.2286 599.1541 L467.8857 689.5943 L470.5428 744.2149 L473.2 699.9529 L475.8571 546.8658 L478.5143 392.9747 L481.1714 363.3274 L483.8286 451.3864 L486.4857 537.0865 L489.1429 550.5305 L491.8 546.7 L494.4572 595.1252 L497.1143 664.3484 L499.7714 671.5972 L502.4286 604.2509 L505.0857 522.767 L507.7429 461.6525 L510.4 405.0649 L513.0571 369.1891 L515.7143 426.1389 L518.3714 594.2267 L521.0286 759.0475 L523.6857 777.4096 L526.3428 644.4072 L529 492.7307 L531.6571 427.8997 L534.3143 431.3556 L536.9714 443.0325 L539.6286 465.5887 L542.2857 530.5422 L544.9429 609.7241 L547.6 638.8078 L550.2571 617.2604 L552.9143 608.2349 L555.5714 625.1248 L558.2286 592.6148 L560.8857 466.2234 L563.5428 335.0628 L566.2 335.2593 L568.8571 480.7715 L571.5143 647.2812 L574.1714 722.8866 L576.8286 708.0046 L579.4857 651.259 L582.1429 562.6182 L584.8 446.1877 L587.4572 366.5606 L590.1143 397.5282 L592.7714 510.8245 L595.4286 592.0427 L598.0857 586.9995 L600.7429 567.1409 L603.4 610.9221 L606.0571 676.541 L608.7143 657.4489 L611.3715 536.4845 L614.0286 411.7959 L616.6857 369.9905 L619.3428 403.5847 L622 473.0056 L624.6572 576.6552 L627.3143 704.0439 L629.9714 772.4349 L632.6285 696.5925 L635.2857 517.4074 L637.9429 384.9077 L640.6 389.6985 L643.2571 469.7966 L645.9143 517.9456 L648.5714 524.692 L651.2286 555.7923 L653.8857 624.5373 L656.5428 666.7506 L659.2 643.1333 L661.8571 590.7455 L664.5143 545.9561 L667.1714 484.192 L669.8286 390.6479 L672.4857 340.9931 L675.1429 429.5143 L677.8 623.6909 L680.4572 767.111 L683.1143 751.0259 L685.7714 625.9756 L688.4286 511.8418 L691.0857 453.7003 L693.7429 422.2177 L696.4 413.5674 L699.0571 463.1265 L701.7143 558.9396 L704.3715 623.1567 L707.0286 615.5402 L709.6857 594.637 L712.3428 622.5632 L715 653.2277 L717.6572 589.1426 L720.3143 436.6592 L722.9714 326.8969 L725.6285 361.5387 L728.2857 499.0978 L730.9429 628.0645 L733.6 696.9808 L736.2571 717.0386 L738.9143 680.622 L741.5714 564.9811 L744.2286 417.6943 L746.8857 353.0358 L749.5428 420.7082 L752.2 533.3654 L754.8571 577.6375 L757.5143 558.8254 L760.1714 570.5481 L762.8286 640.4277 L765.4857 684.655 L768.1429 631.1242 L770.8 518.1196 L773.4572 430.9806 L776.1143 395.8708 L778.7714 394.5314 L781.4286 443.6292 L784.0857 574.2845 L786.7429 732.5347 L789.4 785.9617 L792.0572 673.4187 L794.7143 494.8764 L797.3715 399.3258 L800.0286 417.8879 L802.6857 466.4064 L805.3428 488.4581 L808 516.5964 L810.6571 582.1353 L813.3143 642.9194 L815.9714 647.5817 L818.6286 617.2666 L821.2857 599.8095 L823.9429 575.3398 L826.6 486.5661 L829.2571 362.1562 L831.9143 327.4607 L834.5714 452.6773 L837.2286 646.2057 L839.8857 752.6711 L842.5428 722.8091 L845.2 629.3326 L847.8572 541.2903 L850.5143 461.7512 L853.1714 395.8246 L855.8286 395.1298 L858.4857 482.235 L861.1429 584.7412 L863.8 614.0236 L866.4572 586.0836 L869.1143 592.1869 L871.7714 650.9763 L874.4285 666.6797 L877.0858 565.8979 L879.7429 414.0622 L882.4 341.2548 L885.0571 389.6745 L887.7143 495.6615 L890.3715 598.5391 L893.0286 688.8562 L895.6857 743.3618 L898.3428 698.9941 L901 545.8122 L903.6571 391.8381 L906.3143 362.1207 L908.9714 450.1232 L911.6286 535.7811 L914.2857 549.1974 L916.9429 545.3542 L919.6 593.7817 L922.2571 663.0219 L924.9143 670.3025 L927.5714 603.0021 L930.2286 521.5778 L932.8857 460.5359 L935.5429 404.0331 L938.2 368.2534 L940.8572 425.3093 L943.5143 593.5123 L946.1714 758.456 L948.8286 776.9475 L951.4857 644.0793 L954.1428 492.5407 L956.8 427.8495 L959.4572 431.4457 L962.1143 443.2616 L964.7714 465.9543 L967.4286 531.04 L970.0858 610.3485 L972.7429 639.5516 L975.4 618.1153 L978.0571 609.1912 L980.7143 626.1716 L983.3714 593.7404 L986.0286 467.4152 L988.6857 336.3073 L991.3428 336.5425 L994 482.079 L996.6572 648.5982 L999.3143 724.1985 L1001.9714 709.2966 L1004.6286 652.5165 L1007.2857 563.8273 L1009.9429 447.3347 L1012.6 367.6327 L1015.2571 398.5133 L1017.9142 511.7117 L1020.5714 592.8221 L1023.2286 587.6622 L1025.8857 567.6796 L1028.5428 611.3309 L1031.2 676.8151 L1033.8572 657.5854 L1036.5143 536.4818 L1039.1714 411.6542 L1041.8286 369.7114 L1044.4857 403.1712 L1047.1428 472.4624 L1049.7999 575.9885 L1052.4572 703.2612 L1055.1143 771.5449 L1057.7715 695.6053 L1060.4286 516.334 L1063.0857 383.7602 L1065.7428 388.4899 L1068.4 468.5404 L1071.0571 516.656 L1073.7142 523.3834 L1076.3715 554.4795 L1079.0286 623.235 L1081.6858 665.4736 L1084.3428 641.8959 L1087 589.5616 L1089.6571 544.8391 L1092.3143 483.1546 L1094.9714 389.7017 L1097.6285 340.149 L1100.2858 428.7816 L1102.9429 623.0781 L1105.6 766.6252 L1108.2571 750.6727 L1110.9143 625.7589 L1113.5714 511.7643 L1116.2286 453.7631 L1118.8856 422.4202 L1121.5428 413.9076 L1124.2001 463.6007 L1126.8572 559.5428 L1129.5143 623.8824 L1132.1714 616.3804 L1134.8286 595.5825 L1137.4857 623.6036 L1140.1428 654.3517 L1142.7999 590.3379 L1145.4572 437.9126 L1148.1143 328.1945 L1150.7715 362.8664 L1153.4286 500.4409 L1156.0857 629.4081 L1158.7429 698.3104 L1161.4 718.3393 L1164.0571 681.8796 L1166.7142 566.1817 L1169.3715 418.8249 L1172.0286 354.0838 L1174.6857 421.6621 L1177.3428 534.2149 L1180 578.3732 L1182.6572 559.4394 L1185.3143 571.0337 L1187.9714 640.7798 L1190.6285 684.8698 L1193.2858 631.1994 L1195.9429 518.0547 L1198.6 430.7764 L1201.2571 395.5298 L1203.9143 394.0577 L1206.5714 443.0283 L1209.2285 573.5633 L1211.8857 731.7014 L1214.5428 785.0258 L1217.2001 672.3909 L1219.8572 493.7682 L1222.5143 398.1499 L1225.1714 416.6575 L1227.8286 465.1355 L1230.4857 487.161 L1233.1428 515.2878 L1235.7999 580.8298 L1238.4572 641.632 L1241.1144 646.3267 L1243.7714 616.0583 L1246.4286 598.6614 L1249.0857 574.265 L1251.7429 485.5766 L1254.4 361.2632 L1257.0571 326.6743 L1259.7142 452.0064 L1262.3715 645.658 L1265.0286 752.2527 L1267.6857 722.5248 L1270.3429 629.1856 L1273 541.2823 L1275.6572 461.8824 L1278.3143 396.0936 L1280.9714 395.5338 L1283.6285 482.7693 L1286.2858 585.4001 L1288.9429 614.7996 L1291.6 586.9682 L1294.2571 593.1702 L1296.9143 652.0474 L1299.5715 667.8266 L1302.2285 567.1078 L1304.8857 415.3216 L1307.5428 342.5497 L1310.2001 390.9903 L1312.8572 496.9835 L1315.5143 599.8525 L1318.1714 690.1464 L1320.8286 744.6143 L1323.4857 700.1949 L1326.1428 546.9478 L1328.8 392.8958 L1331.4572 363.0886 L1334.1144 450.9904 L1336.7714 536.5379 L1339.4286 549.8353 L1342.0857 545.866 L1344.7429 594.1614 L1347.4 663.2654 L1350.0571 670.4068 L1352.7142 602.966 L1355.3715 521.4016 L1358.0286 460.2214 L1360.6857 403.5837 L1363.3429 367.674 L1366 424.6062 L1368.6572 592.6932 L1371.3142 757.53 L1373.9714 775.9247 L1376.6285 642.9711 L1379.2858 491.3592 L1381.9429 426.6078 L1384.6 430.1573 L1387.2572 441.9409 L1389.9143 464.6158 L1392.5714 529.6986 L1395.2285 609.0189 L1397.8857 638.2484 L1400.5428 616.8529 L1403.2001 607.9835 L1405.8571 625.032 L1408.5143 592.6813 L1411.1714 466.4482 L1413.8286 335.4432 L1416.4857 335.7905 L1419.1428 481.4475 L1421.8 648.0939 L1424.4572 723.8268 L1427.1143 709.0615 L1429.7714 652.4205 L1432.4286 563.8711 L1435.0857 447.5177 L1437.7429 367.9526 L1440.3999 398.9663 L1443.0571 512.2926 L1445.7144 593.524 L1448.3715 588.4773 L1451.0286 568.5984 L1453.6857 612.343 L1456.3429 677.909 L1459 658.7487 L1461.6571 537.7012 L1464.3142 412.9158 L1466.9714 371.001 L1469.6285 404.4742 L1472.2858 473.7641 L1474.9429 577.274 L1477.6 704.5161 L1480.2572 772.7549 L1482.9143 696.7567 L1485.5714 517.4139 L1488.2285 384.7562 L1490.8857 389.3907 L1493.5428 469.3357 L1496.2 517.3368 L1498.8571 523.9419 L1501.5143 554.9094 L1504.1715 623.5312 L1506.8286 665.6326 L1509.4857 641.9159 L1512.1428 589.4421 L1514.8 544.5814 L1517.4572 482.7613 L1520.1143 389.1772 L1522.7714 339.4989 L1525.4286 428.0131 L1528.0857 622.1996 L1530.7429 765.6464 L1533.4 749.6044 L1536.0571 624.613 L1538.7144 510.5535 L1541.3715 452.5008 L1544.0286 421.1204 L1546.6857 412.5847 L1549.3429 462.2694 L1552 558.2179 L1554.6571 622.5786 L1557.3142 615.1122 L1559.9714 594.3641 L1562.6287 622.4485 L1565.2858 653.2728 L1567.9429 589.347 L1570.6 437.021 L1573.2572 327.412 L1575.9143 362.2018" style="fill:none; fill-rule:evenodd; stroke:rgb(217,83,25);"
    /></g
  ></g
></svg
>
