<?xml version="1.0" encoding="utf-8"?>
<!-- Generator: Adobe Illustrator 19.0.0, SVG Export Plug-In . SVG Version: 6.00 Build 0)  -->
<svg version="1.1" id="Layer_1" xmlns="http://www.w3.org/2000/svg" xmlns:xlink="http://www.w3.org/1999/xlink" x="0px" y="0px"
	 viewBox="863.8427734 -33.6191406 1531.3876953 857.8398438"
	 style="enable-background:new 863.8427734 -33.6191406 1531.3876953 857.8398438;" xml:space="preserve">
<style type="text/css">
	
		.st0{fill:none;stroke:#FFFFFF;stroke-width:0.6667;stroke-linejoin:bevel;stroke-miterlimit:1;stroke-opacity:0.502;stroke-dasharray:1,3;}
	.st1{fill:none;stroke:#000000;stroke-width:0.6667;stroke-linecap:square;stroke-linejoin:round;stroke-miterlimit:10;}
	.st2{font-family:'ArialMT';}
	.st3{font-size:13px;}
	.st4{font-size:15px;}
	.st5{font-size:11px;}
	.st6{font-family:'Arial-BoldMT';}
	.st7{fill:none;stroke:#008000;stroke-width:0.6667;stroke-linejoin:round;stroke-miterlimit:10;}
</style>
<g>
	<g>
		<path d="M904,772h1488V-14H904V772z"/>
	</g>
	<g>
		<line class="st0" x1="904" y1="772" x2="904" y2="-14"/>
		<line class="st0" x1="1052.8000488" y1="772" x2="1052.8000488" y2="-14"/>
		<line class="st0" x1="1201.5999756" y1="772" x2="1201.5999756" y2="-14"/>
		<line class="st0" x1="1350.4000244" y1="772" x2="1350.4000244" y2="-14"/>
		<line class="st0" x1="1499.1999512" y1="772" x2="1499.1999512" y2="-14"/>
		<line class="st0" x1="1648" y1="772" x2="1648" y2="-14"/>
		<line class="st0" x1="1796.8000488" y1="772" x2="1796.8000488" y2="-14"/>
		<line class="st0" x1="1945.5999756" y1="772" x2="1945.5999756" y2="-14"/>
		<line class="st0" x1="2094.3999023" y1="772" x2="2094.3999023" y2="-14"/>
		<line class="st0" x1="2243.1999512" y1="772" x2="2243.1999512" y2="-14"/>
		<line class="st0" x1="2392" y1="772" x2="2392" y2="-14"/>
		<line class="st0" x1="2392" y1="772" x2="904" y2="772"/>
		<line class="st0" x1="2392" y1="684.666687" x2="904" y2="684.666687"/>
		<line class="st0" x1="2392" y1="597.333313" x2="904" y2="597.333313"/>
		<line class="st0" x1="2392" y1="510" x2="904" y2="510"/>
		<line class="st0" x1="2392" y1="422.666687" x2="904" y2="422.666687"/>
		<line class="st0" x1="2392" y1="335.333313" x2="904" y2="335.333313"/>
		<line class="st0" x1="2392" y1="248" x2="904" y2="248"/>
		<line class="st0" x1="2392" y1="160.6667023" x2="904" y2="160.6667023"/>
		<line class="st0" x1="2392" y1="73.3332977" x2="904" y2="73.3332977"/>
		<line class="st0" x1="2392" y1="-14" x2="904" y2="-14"/>
	</g>
	<g>
		<line class="st1" x1="904" y1="772" x2="2392" y2="772"/>
		<line class="st1" x1="904" y1="766.0479736" x2="904" y2="777.9520264"/>
		<line class="st1" x1="1052.8000488" y1="766.0479736" x2="1052.8000488" y2="777.9520264"/>
		<line class="st1" x1="1201.5999756" y1="766.0479736" x2="1201.5999756" y2="777.9520264"/>
		<line class="st1" x1="1350.4000244" y1="766.0479736" x2="1350.4000244" y2="777.9520264"/>
		<line class="st1" x1="1499.1999512" y1="766.0479736" x2="1499.1999512" y2="777.9520264"/>
		<line class="st1" x1="1648" y1="766.0479736" x2="1648" y2="777.9520264"/>
		<line class="st1" x1="1796.8000488" y1="766.0479736" x2="1796.8000488" y2="777.9520264"/>
		<line class="st1" x1="1945.5999756" y1="766.0479736" x2="1945.5999756" y2="777.9520264"/>
		<line class="st1" x1="2094.3999023" y1="766.0479736" x2="2094.3999023" y2="777.9520264"/>
		<line class="st1" x1="2243.1999512" y1="766.0479736" x2="2243.1999512" y2="777.9520264"/>
		<line class="st1" x1="2392" y1="766.0479736" x2="2392" y2="777.9520264"/>
		<line class="st1" x1="918.8800049" y1="769.0239868" x2="918.8800049" y2="774.9760132"/>
		<line class="st1" x1="933.7600098" y1="769.0239868" x2="933.7600098" y2="774.9760132"/>
		<line class="st1" x1="948.6400146" y1="769.0239868" x2="948.6400146" y2="774.9760132"/>
		<line class="st1" x1="963.5200195" y1="769.0239868" x2="963.5200195" y2="774.9760132"/>
		<line class="st1" x1="978.4000244" y1="769.0239868" x2="978.4000244" y2="774.9760132"/>
		<line class="st1" x1="993.2800293" y1="769.0239868" x2="993.2800293" y2="774.9760132"/>
		<line class="st1" x1="1008.1600342" y1="769.0239868" x2="1008.1600342" y2="774.9760132"/>
		<line class="st1" x1="1023.0400391" y1="769.0239868" x2="1023.0400391" y2="774.9760132"/>
		<line class="st1" x1="1037.9200439" y1="769.0239868" x2="1037.9200439" y2="774.9760132"/>
		<line class="st1" x1="1067.6799316" y1="769.0239868" x2="1067.6799316" y2="774.9760132"/>
		<line class="st1" x1="1082.5600586" y1="769.0239868" x2="1082.5600586" y2="774.9760132"/>
		<line class="st1" x1="1097.4399414" y1="769.0239868" x2="1097.4399414" y2="774.9760132"/>
		<line class="st1" x1="1112.3200684" y1="769.0239868" x2="1112.3200684" y2="774.9760132"/>
		<line class="st1" x1="1127.1999512" y1="769.0239868" x2="1127.1999512" y2="774.9760132"/>
		<line class="st1" x1="1142.0799561" y1="769.0239868" x2="1142.0799561" y2="774.9760132"/>
		<line class="st1" x1="1156.9599609" y1="769.0239868" x2="1156.9599609" y2="774.9760132"/>
		<line class="st1" x1="1171.8400879" y1="769.0239868" x2="1171.8400879" y2="774.9760132"/>
		<line class="st1" x1="1186.7199707" y1="769.0239868" x2="1186.7199707" y2="774.9760132"/>
		<line class="st1" x1="1216.4799805" y1="769.0239868" x2="1216.4799805" y2="774.9760132"/>
		<line class="st1" x1="1231.3599854" y1="769.0239868" x2="1231.3599854" y2="774.9760132"/>
		<line class="st1" x1="1246.2399902" y1="769.0239868" x2="1246.2399902" y2="774.9760132"/>
		<line class="st1" x1="1261.1199951" y1="769.0239868" x2="1261.1199951" y2="774.9760132"/>
		<line class="st1" x1="1276" y1="769.0239868" x2="1276" y2="774.9760132"/>
		<line class="st1" x1="1290.8800049" y1="769.0239868" x2="1290.8800049" y2="774.9760132"/>
		<line class="st1" x1="1305.7600098" y1="769.0239868" x2="1305.7600098" y2="774.9760132"/>
		<line class="st1" x1="1320.6400146" y1="769.0239868" x2="1320.6400146" y2="774.9760132"/>
		<line class="st1" x1="1335.5200195" y1="769.0239868" x2="1335.5200195" y2="774.9760132"/>
		<line class="st1" x1="1365.2800293" y1="769.0239868" x2="1365.2800293" y2="774.9760132"/>
		<line class="st1" x1="1380.1599121" y1="769.0239868" x2="1380.1599121" y2="774.9760132"/>
		<line class="st1" x1="1395.0400391" y1="769.0239868" x2="1395.0400391" y2="774.9760132"/>
		<line class="st1" x1="1409.9199219" y1="769.0239868" x2="1409.9199219" y2="774.9760132"/>
		<line class="st1" x1="1424.8000488" y1="769.0239868" x2="1424.8000488" y2="774.9760132"/>
		<line class="st1" x1="1439.6799316" y1="769.0239868" x2="1439.6799316" y2="774.9760132"/>
		<line class="st1" x1="1454.5600586" y1="769.0239868" x2="1454.5600586" y2="774.9760132"/>
		<line class="st1" x1="1469.4399414" y1="769.0239868" x2="1469.4399414" y2="774.9760132"/>
		<line class="st1" x1="1484.3200684" y1="769.0239868" x2="1484.3200684" y2="774.9760132"/>
		<line class="st1" x1="1514.0800781" y1="769.0239868" x2="1514.0800781" y2="774.9760132"/>
		<line class="st1" x1="1528.9599609" y1="769.0239868" x2="1528.9599609" y2="774.9760132"/>
		<line class="st1" x1="1543.8400879" y1="769.0239868" x2="1543.8400879" y2="774.9760132"/>
		<line class="st1" x1="1558.7199707" y1="769.0239868" x2="1558.7199707" y2="774.9760132"/>
		<line class="st1" x1="1573.5999756" y1="769.0239868" x2="1573.5999756" y2="774.9760132"/>
		<line class="st1" x1="1588.4799805" y1="769.0239868" x2="1588.4799805" y2="774.9760132"/>
		<line class="st1" x1="1603.3599854" y1="769.0239868" x2="1603.3599854" y2="774.9760132"/>
		<line class="st1" x1="1618.2399902" y1="769.0239868" x2="1618.2399902" y2="774.9760132"/>
		<line class="st1" x1="1633.1199951" y1="769.0239868" x2="1633.1199951" y2="774.9760132"/>
		<line class="st1" x1="1662.8800049" y1="769.0239868" x2="1662.8800049" y2="774.9760132"/>
		<line class="st1" x1="1677.7600098" y1="769.0239868" x2="1677.7600098" y2="774.9760132"/>
		<line class="st1" x1="1692.6400146" y1="769.0239868" x2="1692.6400146" y2="774.9760132"/>
		<line class="st1" x1="1707.5200195" y1="769.0239868" x2="1707.5200195" y2="774.9760132"/>
		<line class="st1" x1="1722.4000244" y1="769.0239868" x2="1722.4000244" y2="774.9760132"/>
		<line class="st1" x1="1737.2800293" y1="769.0239868" x2="1737.2800293" y2="774.9760132"/>
		<line class="st1" x1="1752.1600342" y1="769.0239868" x2="1752.1600342" y2="774.9760132"/>
		<line class="st1" x1="1767.0400391" y1="769.0239868" x2="1767.0400391" y2="774.9760132"/>
		<line class="st1" x1="1781.9200439" y1="769.0239868" x2="1781.9200439" y2="774.9760132"/>
		<line class="st1" x1="1811.6800537" y1="769.0239868" x2="1811.6800537" y2="774.9760132"/>
		<line class="st1" x1="1826.5600586" y1="769.0239868" x2="1826.5600586" y2="774.9760132"/>
		<line class="st1" x1="1841.4399414" y1="769.0239868" x2="1841.4399414" y2="774.9760132"/>
		<line class="st1" x1="1856.3199463" y1="769.0239868" x2="1856.3199463" y2="774.9760132"/>
		<line class="st1" x1="1871.1999512" y1="769.0239868" x2="1871.1999512" y2="774.9760132"/>
		<line class="st1" x1="1886.0799561" y1="769.0239868" x2="1886.0799561" y2="774.9760132"/>
		<line class="st1" x1="1900.9599609" y1="769.0239868" x2="1900.9599609" y2="774.9760132"/>
		<line class="st1" x1="1915.8399658" y1="769.0239868" x2="1915.8399658" y2="774.9760132"/>
		<line class="st1" x1="1930.7199707" y1="769.0239868" x2="1930.7199707" y2="774.9760132"/>
		<line class="st1" x1="1960.4799805" y1="769.0239868" x2="1960.4799805" y2="774.9760132"/>
		<line class="st1" x1="1975.3599854" y1="769.0239868" x2="1975.3599854" y2="774.9760132"/>
		<line class="st1" x1="1990.2399902" y1="769.0239868" x2="1990.2399902" y2="774.9760132"/>
		<line class="st1" x1="2005.1199951" y1="769.0239868" x2="2005.1199951" y2="774.9760132"/>
		<line class="st1" x1="2020" y1="769.0239868" x2="2020" y2="774.9760132"/>
		<line class="st1" x1="2034.8800049" y1="769.0239868" x2="2034.8800049" y2="774.9760132"/>
		<line class="st1" x1="2049.7600098" y1="769.0239868" x2="2049.7600098" y2="774.9760132"/>
		<line class="st1" x1="2064.6401367" y1="769.0239868" x2="2064.6401367" y2="774.9760132"/>
		<line class="st1" x1="2079.5200195" y1="769.0239868" x2="2079.5200195" y2="774.9760132"/>
		<line class="st1" x1="2109.2800293" y1="769.0239868" x2="2109.2800293" y2="774.9760132"/>
		<line class="st1" x1="2124.1601563" y1="769.0239868" x2="2124.1601563" y2="774.9760132"/>
		<line class="st1" x1="2139.0400391" y1="769.0239868" x2="2139.0400391" y2="774.9760132"/>
		<line class="st1" x1="2153.9199219" y1="769.0239868" x2="2153.9199219" y2="774.9760132"/>
		<line class="st1" x1="2168.8000488" y1="769.0239868" x2="2168.8000488" y2="774.9760132"/>
		<line class="st1" x1="2183.6801758" y1="769.0239868" x2="2183.6801758" y2="774.9760132"/>
		<line class="st1" x1="2198.5600586" y1="769.0239868" x2="2198.5600586" y2="774.9760132"/>
		<line class="st1" x1="2213.4399414" y1="769.0239868" x2="2213.4399414" y2="774.9760132"/>
		<line class="st1" x1="2228.3198242" y1="769.0239868" x2="2228.3198242" y2="774.9760132"/>
		<line class="st1" x1="2258.0800781" y1="769.0239868" x2="2258.0800781" y2="774.9760132"/>
		<line class="st1" x1="2272.9599609" y1="769.0239868" x2="2272.9599609" y2="774.9760132"/>
		<line class="st1" x1="2287.8398438" y1="769.0239868" x2="2287.8398438" y2="774.9760132"/>
		<line class="st1" x1="2302.7199707" y1="769.0239868" x2="2302.7199707" y2="774.9760132"/>
		<line class="st1" x1="2317.6000977" y1="769.0239868" x2="2317.6000977" y2="774.9760132"/>
		<line class="st1" x1="2332.4799805" y1="769.0239868" x2="2332.4799805" y2="774.9760132"/>
		<line class="st1" x1="2347.3598633" y1="769.0239868" x2="2347.3598633" y2="774.9760132"/>
		<line class="st1" x1="2362.2399902" y1="769.0239868" x2="2362.2399902" y2="774.9760132"/>
		<line class="st1" x1="2377.1201172" y1="769.0239868" x2="2377.1201172" y2="774.9760132"/>
	</g>
	<g transform="translate(250,869.2853)">
		<text transform="matrix(1 0 0 1 650 -72)" class="st2 st3">0</text>
	</g>
	<g transform="translate(398.8,869.2853)">
		<text transform="matrix(1 0 0 1 644.5 -72)" class="st2 st3">0.2</text>
	</g>
	<g transform="translate(547.6,869.2853)">
		<text transform="matrix(1 0 0 1 644.5 -72)" class="st2 st3">0.4</text>
	</g>
	<g transform="translate(696.4,869.2853)">
		<text transform="matrix(1 0 0 1 644.5 -72)" class="st2 st3">0.6</text>
	</g>
	<g transform="translate(845.2,869.2853)">
		<text transform="matrix(1 0 0 1 644.5 -72)" class="st2 st3">0.8</text>
	</g>
	<g transform="translate(994,869.2853)">
		<text transform="matrix(1 0 0 1 650 -72)" class="st2 st3">1</text>
	</g>
	<g transform="translate(1142.8,869.2853)">
		<text transform="matrix(1 0 0 1 644.5 -72)" class="st2 st3">1.2</text>
	</g>
	<g transform="translate(1291.6,869.2853)">
		<text transform="matrix(1 0 0 1 644.5 -72)" class="st2 st3">1.4</text>
	</g>
	<g transform="translate(1440.4,869.2853)">
		<text transform="matrix(1 0 0 1 644.5 -72)" class="st2 st3">1.6</text>
	</g>
	<g transform="translate(1589.2,869.2853)">
		<text transform="matrix(1 0 0 1 644.5 -72)" class="st2 st3">1.8</text>
	</g>
	<g transform="translate(1738,869.2853)">
		<text transform="matrix(1 0 0 1 650 -72)" class="st2 st3">2</text>
	</g>
	<g transform="translate(994.0007,887.6187)">
		<text transform="matrix(1 0 0 1 602 -70)" class="st2 st4">Frequency (Hz)</text>
	</g>
	<g transform="translate(1705,906)">
		<text transform="matrix(1 0 0 1 654 -86)" class="st2 st3">#</text>
	</g>
	<g transform="translate(1716,906)">
		<text transform="matrix(1 0 0 1 654 -86)" class="st2 st3">10</text>
	</g>
	<g transform="translate(1731,900)">
		<text transform="matrix(1 0 0 1 654 -86)" class="st2 st5">4</text>
	</g>
	<g>
		<line class="st1" x1="904" y1="772" x2="904" y2="-14"/>
		<line class="st1" x1="909.9520264" y1="772" x2="898.0479736" y2="772"/>
		<line class="st1" x1="909.9520264" y1="684.666687" x2="898.0479736" y2="684.666687"/>
		<line class="st1" x1="909.9520264" y1="597.333313" x2="898.0479736" y2="597.333313"/>
		<line class="st1" x1="909.9520264" y1="510" x2="898.0479736" y2="510"/>
		<line class="st1" x1="909.9520264" y1="422.666687" x2="898.0479736" y2="422.666687"/>
		<line class="st1" x1="909.9520264" y1="335.333313" x2="898.0479736" y2="335.333313"/>
		<line class="st1" x1="909.9520264" y1="248" x2="898.0479736" y2="248"/>
		<line class="st1" x1="909.9520264" y1="160.6667023" x2="898.0479736" y2="160.6667023"/>
		<line class="st1" x1="909.9520264" y1="73.3332977" x2="898.0479736" y2="73.3332977"/>
		<line class="st1" x1="909.9520264" y1="-14" x2="898.0479736" y2="-14"/>
	</g>
	<g transform="translate(238.7147,858)">
		<text transform="matrix(1 0 0 1 646 -80.5)" class="st2 st3">0</text>
	</g>
	<g transform="translate(238.7147,770.6667)">
		<text transform="matrix(1 0 0 1 646 -80.5)" class="st2 st3">1</text>
	</g>
	<g transform="translate(238.7147,683.3333)">
		<text transform="matrix(1 0 0 1 646 -80.5)" class="st2 st3">2</text>
	</g>
	<g transform="translate(238.7147,596)">
		<text transform="matrix(1 0 0 1 646 -80.5)" class="st2 st3">3</text>
	</g>
	<g transform="translate(238.7147,508.6667)">
		<text transform="matrix(1 0 0 1 646 -80.5)" class="st2 st3">4</text>
	</g>
	<g transform="translate(238.7147,421.3333)">
		<text transform="matrix(1 0 0 1 646 -80.5)" class="st2 st3">5</text>
	</g>
	<g transform="translate(238.7147,334)">
		<text transform="matrix(1 0 0 1 646 -80.5)" class="st2 st3">6</text>
	</g>
	<g transform="translate(238.7147,246.6667)">
		<text transform="matrix(1 0 0 1 646 -80.5000153)" class="st2 st3">7</text>
	</g>
	<g transform="translate(238.7147,159.3333)">
		<text transform="matrix(1 0 0 1 646 -80.4999847)" class="st2 st3">8</text>
	</g>
	<g transform="translate(238.7147,72)">
		<text transform="matrix(1 0 0 1 646 -80.5)" class="st2 st3">9</text>
	</g>
	<g transform="translate(226.7147,464.9996) rotate(-90)">
		<text transform="matrix(1 0 0 1 40.4996033 650)" class="st2 st4">Amplitude (V)</text>
	</g>
	<g transform="translate(994.0009,69.25)">
		<text transform="matrix(1 0 0 1 571 -90)" class="st6 st4">Spectrum analyzer plot</text>
	</g>
	<g>
		<path class="st7" d="M904,770.911377l5.8125-1.0888062l5.8125-0.0005493l5.8125-0.0010376l5.8125-0.0007935l5.8125-0.0247192
			l5.8125,0.0166016l5.8125-0.0022583l5.8125-0.0032959l5.8125-0.0038452l5.8125-0.0040894l5.8125-0.0042114l5.8125-0.0043945
			l5.8128662-0.0039673L985.375,769.78302l5.8128662-0.0005493L997,769.7857056l5.8128662-0.4672852l5.8121338,0.2178955
			l5.8128662,0.1102905l5.8121338,0.0147095l5.8128662-0.0010986l5.8121338-0.006897l5.8128662-0.0099487L1043.5,769.6317139
			l5.8128662-0.0131836l5.8121338-0.0145264l5.8128662-0.0155029l5.8121338-0.0164795l5.8128662-0.0176392l5.8121338-0.0184937
			l5.8128662-0.0194092L1090,769.4959717l5.8128662-0.0213623l5.8121338-0.0223999l5.8128662-0.0234375l5.8121338-0.0244751
			l5.8128662-0.0255737l5.8121338-0.0267334l5.8128662-0.027771L1136.5,769.295105l5.8128662-0.0303345l5.8121338-0.0315552
			l5.8128662-0.0328979l5.8121338-0.0343018l5.8128662-0.0358887l5.8121338-0.0373535l5.8129883-0.0388794L1183,769.0131836
			l5.8129883-0.0422974l5.8120117-0.0441895l5.8129883-0.0462036l5.8120117-0.0482178l5.8129883-0.050354l5.8120117-0.0527344
			l5.8129883-0.0549927L1229.5,768.6165161l5.8129883-0.0603027l5.8120117-0.0632935l5.8129883-0.0663452l5.8120117-0.0695801
			l5.8129883-0.0731201l5.8120117-0.0769043l5.8129883-0.0808716L1276,768.0408936l5.8129883-0.0899048l5.8120117-0.0949097
			l5.8129883-0.1002808l5.8120117-0.1062012l5.8129883-0.1126099l5.8120117-0.1195679l5.8129883-0.1271973L1322.5,767.15448
			l5.8129883-0.1446533l5.8120117-0.1549072l5.8129883-0.1661377l5.8120117-0.1787109l5.8129883-0.1924438l5.8120117-0.2081299
			l5.8129883-0.2255859L1369,765.6381836l5.8129883-0.2680664l5.8120117-0.2941895l5.8129883-0.3241577l5.8120117-0.3586426
			l5.8129883-0.3995361l5.8120117-0.4475098l5.8129883-0.5047607L1415.5,762.4672241l5.8129883-0.6587524l5.8120117-0.7636719
			l5.8129883-0.8961792l5.8120117-1.0668945l5.8129883-1.2920532l5.8120117-1.5969849l5.8129883-2.0258789L1462,751.5114746
			l5.8129883-3.6339722l5.8120117-5.2799072l5.8129883-8.3773804L1485.25,718.8745117l5.8129883-37.2453003L1496.875,458.2470703
			l5.8129883,106.3424072L1508.5,694.9055176l5.8129883,30.0891724l5.8120117,13.3856812l5.8129883,7.5765381l5.8120117,4.8800659
			l5.8129883,3.409729l5.8120117,2.5205078l5.8129883,1.9418945L1555,760.2537231l5.8129883,1.2602539l5.8120117,1.0501099
			l5.8129883,0.8901978l5.8120117,0.7665405l5.8129883,0.668396l5.8120117,0.5899048l5.8129883,0.526062L1601.5,766.4790039
			l5.8129883,0.430481l5.8120117,0.3945923l5.8129883,0.364624l5.8120117,0.3394165l5.8129883,0.3183594l5.8120117,0.3009033
			l5.8129883,0.2861938L1648,769.1879883l5.8105469,0.2645264l5.8181152,0.2564697l5.810791,0.2502441l5.8105469,0.2443848
			l5.8105469,0.2384644l5.8181152,0.2303467l5.8106689,0.2160034L1694.5,771.0744019l5.8106689,0.1234741l5.8179932,0.0119019
			l5.8106689-0.1283569l5.8106689-0.2510986l5.8106689-0.3459473l5.8179932-0.4292603l5.8106689-0.5170898L1741,768.9157715
			l5.8106689-0.7585449l5.8179932-0.9459229l5.8106689-1.2167969l5.8106689-1.6323242l5.8106689-2.3189087l5.8179932-3.578186
			l5.8106689-6.2918701L1787.5,738.0770264l5.8106689-60.9289551l5.8179932-53.7919922l5.8106689,104.4154053L1810.75,745.2075195
			l5.8106689,7.2019043l5.8179932,3.9447021l5.8106689,2.49646L1834,760.5770874l5.8106689,1.2683105l5.8179932,0.9733887
			l5.8106689,0.7723389l5.8106689,0.6288452l5.8106689,0.5230103l5.8179932,0.442749l5.8106689,0.3799438L1880.5,765.8961182
			l5.8106689,0.2901001l5.8179932,0.2572632l5.8106689,0.2299194l5.8106689,0.2069702l5.8106689,0.187439l5.8179932,0.1707153
			l5.8106689,0.15625L1927,767.5385132l5.8106689,0.1326904l5.8179932,0.1229858l5.8106689,0.1144409l5.8106689,0.1067505
			l5.8106689,0.0997925l5.8179932,0.09375l5.8106689,0.0881958L1973.5,768.380127l5.8106689,0.0784912l5.8179932,0.0741577
			l5.8106689,0.0704956l5.8106689,0.0669556l5.8106689,0.0635986l5.8179932,0.0605469l5.8106689,0.0579224L2020,768.9074707
			l5.8106689,0.0529175l5.8179932,0.0507202l5.8106689,0.048584l5.8106689,0.0466309l5.8105469,0.0447998l5.8181152,0.0430908
			l5.810791,0.0415039l5.8105469,0.039856l5.8105469,0.0385132l5.8181152,0.0372314l5.810791,0.0360107l5.8105469,0.034668
			l5.8105469,0.0336304l5.8181152,0.0323486l5.810791,0.0314941L2113,769.5499878l5.8105469,0.0296021l5.8183594,0.0286255
			l5.8105469,0.0278931l5.8105469,0.0269775l5.8105469,0.0263062l5.8183594,0.0255127l5.8105469,0.0247803L2159.5,769.763916
			l5.8105469,0.0234985l5.8183594,0.0227661l5.8105469,0.0223999l5.8105469,0.0217285l5.8105469,0.0211792l5.8183594,0.0206299
			l5.8105469,0.0202026L2206,663.5878906l5.8105469,106.3671875l5.8183594,0.0187988l5.8105469,0.0183105l5.8105469,0.0178833
			l5.8105469,0.0175171l5.8183594,0.0170898l5.8105469,0.0167236L2252.5,770.0778198l5.8105469,0.0159912l5.8183594,0.015564
			l5.8105469,0.0154419l5.8105469,0.0149536l5.8105469,0.0147095l5.8183594,0.0144043l5.8105469,0.0140991L2299,770.1967773
			l5.8105469,0.0136108l5.8183594,0.0133057l5.8105469,0.0130005l5.8105469,0.0128174l5.8105469,0.0125122l5.8183594,0.0123901
			l5.8105469,0.0119629L2345.5,770.2982788l5.8105469,0.0115967l5.8183594,0.0115356l5.8105469,0.0111694l5.8105469,0.0110474
			l5.8105469,0.0107422l5.8183594,0.0107422l5.8105469,0.010376L2392,770.3856812l0.1489258,0.0003052"/>
	</g>
</g>
</svg>
