<?xml version="1.0"?>
<!DOCTYPE svg PUBLIC '-//W3C//DTD SVG 1.0//EN'
          'http://www.w3.org/TR/2001/REC-SVG-20010904/DTD/svg10.dtd'>
<svg xmlns:xlink="http://www.w3.org/1999/xlink" style="fill-opacity:1; color-rendering:auto; color-interpolation:auto; stroke:black; text-rendering:auto; stroke-linecap:square; stroke-miterlimit:10; stroke-opacity:1; shape-rendering:auto; fill:black; stroke-dasharray:none; font-weight:normal; stroke-width:1; font-family:'Dialog'; font-style:normal; stroke-linejoin:miter; font-size:12px; stroke-dashoffset:0; image-rendering:auto;" width="1920" height="964" xmlns="http://www.w3.org/2000/svg"
><!--Generated by the Batik Graphics2D SVG Generator--><defs id="genericDefs"
  /><g
  ><defs id="defs1"
    ><clipPath clipPathUnits="userSpaceOnUse" id="clipPath1"
      ><path d="M0 0 L1920 0 L1920 964 L0 964 L0 0 Z"
      /></clipPath
      ><font horiz-adv-x="75.0" id="font1"
      ><font-face ascent="100.53711" descent="21.972656" units-per-em="100" style="font-style:normal; font-family:Dialog; font-weight:normal;"
        /><missing-glyph horiz-adv-x="75.0" d="M12.5 0 L12.5 62.5 L62.5 62.5 L62.5 0 L12.5 0 ZM14.0625 1.5625 L60.9375 1.5625 L60.9375 60.9375 L14.0625 60.9375 L14.0625 1.5625 Z"
        /><glyph unicode="0" horiz-adv-x="55.615234" d="M4.1562 35.2969 Q4.1562 48 6.7656 55.7422 Q9.375 63.4844 14.5234 67.6797 Q19.6719 71.875 27.4844 71.875 Q33.25 71.875 37.5938 69.5547 Q41.9375 67.2344 44.7734 62.8672 Q47.6094 58.5 49.2188 52.2266 Q50.8281 45.9531 50.8281 35.2969 Q50.8281 22.7031 48.2422 14.9688 Q45.6562 7.2344 40.5078 3.0078 Q35.3594 -1.2188 27.4844 -1.2188 Q17.1406 -1.2188 11.2344 6.2031 Q4.1562 15.1406 4.1562 35.2969 ZM13.1875 35.2969 Q13.1875 17.6719 17.3125 11.8359 Q21.4375 6 27.4844 6 Q33.5469 6 37.6719 11.8594 Q41.7969 17.7188 41.7969 35.2969 Q41.7969 52.9844 37.6719 58.7891 Q33.5469 64.5938 27.3906 64.5938 Q21.3438 64.5938 17.7188 59.4688 Q13.1875 52.9375 13.1875 35.2969 Z"
        /><glyph unicode="5" horiz-adv-x="55.615234" d="M4.1562 18.75 L13.375 19.5312 Q14.4062 12.7969 18.1406 9.3984 Q21.875 6 27.1562 6 Q33.5 6 37.8906 10.7891 Q42.2812 15.5781 42.2812 23.4844 Q42.2812 31 38.0625 35.3516 Q33.8438 39.7031 27 39.7031 Q22.75 39.7031 19.3359 37.7734 Q15.9219 35.8438 13.9688 32.7656 L5.7188 33.8438 L12.6406 70.6094 L48.25 70.6094 L48.25 62.2031 L19.6719 62.2031 L15.8281 42.9688 Q22.2656 47.4688 29.3438 47.4688 Q38.7188 47.4688 45.1641 40.9688 Q51.6094 34.4688 51.6094 24.2656 Q51.6094 14.5469 45.9531 7.4688 Q39.0625 -1.2188 27.1562 -1.2188 Q17.3906 -1.2188 11.2109 4.25 Q5.0312 9.7188 4.1562 18.75 Z"
        /><glyph unicode="1" horiz-adv-x="55.615234" d="M37.25 0 L28.4688 0 L28.4688 56 Q25.2969 52.9844 20.1406 49.9531 Q14.9844 46.9219 10.8906 45.4062 L10.8906 53.9062 Q18.2656 57.375 23.7812 62.3047 Q29.2969 67.2344 31.5938 71.875 L37.25 71.875 L37.25 0 Z"
        /><glyph unicode="2" horiz-adv-x="55.615234" d="M50.3438 8.4531 L50.3438 0 L3.0312 0 Q2.9375 3.1719 4.0469 6.1094 Q5.8594 10.9375 9.8359 15.625 Q13.8125 20.3125 21.3438 26.4688 Q33.0156 36.0312 37.1172 41.625 Q41.2188 47.2188 41.2188 52.2031 Q41.2188 57.4219 37.4766 61.0078 Q33.7344 64.5938 27.7344 64.5938 Q21.3906 64.5938 17.5781 60.7891 Q13.7656 56.9844 13.7188 50.25 L4.6875 51.1719 Q5.6094 61.2812 11.6641 66.5781 Q17.7188 71.875 27.9375 71.875 Q38.2344 71.875 44.2422 66.1641 Q50.25 60.4531 50.25 52 Q50.25 47.7031 48.4922 43.5547 Q46.7344 39.4062 42.6562 34.8125 Q38.5781 30.2188 29.1094 22.2188 Q21.1875 15.5781 18.9453 13.2109 Q16.7031 10.8438 15.2344 8.4531 L50.3438 8.4531 Z"
        /><glyph unicode="3" horiz-adv-x="55.615234" d="M4.2031 18.8906 L12.9844 20.0625 Q14.5 12.5938 18.1406 9.2969 Q21.7812 6 27 6 Q33.2031 6 37.4766 10.2969 Q41.75 14.5938 41.75 20.9531 Q41.75 27 37.7969 30.9297 Q33.8438 34.8594 27.7344 34.8594 Q25.25 34.8594 21.5312 33.8906 L22.5156 41.6094 Q23.3906 41.5 23.9219 41.5 Q29.5469 41.5 34.0391 44.4297 Q38.5312 47.3594 38.5312 53.4688 Q38.5312 58.2969 35.2578 61.4766 Q31.9844 64.6562 26.8125 64.6562 Q21.6875 64.6562 18.2656 61.4297 Q14.8438 58.2031 13.875 51.7656 L5.0781 53.3281 Q6.6875 62.1562 12.3984 67.0156 Q18.1094 71.875 26.6094 71.875 Q32.4688 71.875 37.3984 69.3594 Q42.3281 66.8438 44.9453 62.5 Q47.5625 58.1562 47.5625 53.2656 Q47.5625 48.6406 45.0703 44.8281 Q42.5781 41.0156 37.7031 38.7656 Q44.0469 37.3125 47.5625 32.6953 Q51.0781 28.0781 51.0781 21.1406 Q51.0781 11.7656 44.2422 5.25 Q37.4062 -1.2656 26.9531 -1.2656 Q17.5312 -1.2656 11.3047 4.3516 Q5.0781 9.9688 4.2031 18.8906 Z"
        /><glyph unicode="4" horiz-adv-x="55.615234" d="M32.3281 0 L32.3281 17.1406 L1.2656 17.1406 L1.2656 25.2031 L33.9375 71.5781 L41.1094 71.5781 L41.1094 25.2031 L50.7812 25.2031 L50.7812 17.1406 L41.1094 17.1406 L41.1094 0 L32.3281 0 ZM32.3281 25.2031 L32.3281 57.4688 L9.9062 25.2031 L32.3281 25.2031 Z"
        /><glyph unicode=")" horiz-adv-x="33.30078" d="M12.3594 -21.0469 L6.0625 -21.0469 Q20.6562 2.3906 20.6562 25.875 Q20.6562 35.0625 18.5625 44.0938 Q16.8906 51.4219 13.9219 58.1562 Q12.0156 62.5469 6.0625 72.7969 L12.3594 72.7969 Q21.5312 60.5469 25.9219 48.1875 Q29.6875 37.5469 29.6875 25.9219 Q29.6875 12.75 24.6328 0.4453 Q19.5781 -11.8594 12.3594 -21.0469 Z"
        /><glyph unicode="z" horiz-adv-x="50.0" d="M1.9531 0 L1.9531 7.125 L34.9688 45.0156 Q29.3438 44.7344 25.0469 44.7344 L3.9062 44.7344 L3.9062 51.8594 L46.2969 51.8594 L46.2969 46.0469 L18.2188 13.1406 L12.7969 7.125 Q18.7031 7.5625 23.875 7.5625 L47.8594 7.5625 L47.8594 0 L1.9531 0 Z"
        /><glyph unicode="H" horiz-adv-x="72.2168" d="M8.0156 0 L8.0156 71.5781 L17.4844 71.5781 L17.4844 42.1875 L54.6875 42.1875 L54.6875 71.5781 L64.1562 71.5781 L64.1562 0 L54.6875 0 L54.6875 33.7344 L17.4844 33.7344 L17.4844 0 L8.0156 0 Z"
        /><glyph unicode="(" horiz-adv-x="33.30078" d="M23.3906 -21.0469 Q16.1094 -11.8594 11.0859 0.4453 Q6.0625 12.75 6.0625 25.9219 Q6.0625 37.5469 9.8125 48.1875 Q14.2031 60.5469 23.3906 72.7969 L29.6875 72.7969 Q23.7812 62.6406 21.875 58.2969 Q18.8906 51.5625 17.1875 44.2344 Q15.0938 35.1094 15.0938 25.875 Q15.0938 2.3906 29.6875 -21.0469 L23.3906 -21.0469 Z"
        /><glyph unicode=" " horiz-adv-x="27.783203" d=""
        /><glyph unicode="y" horiz-adv-x="50.0" d="M6.2031 -19.9688 L5.2188 -11.7188 Q8.1094 -12.5 10.25 -12.5 Q13.1875 -12.5 14.9453 -11.5234 Q16.7031 -10.5469 17.8281 -8.7969 Q18.6562 -7.4688 20.5156 -2.25 Q20.75 -1.5156 21.2969 -0.0938 L1.6094 51.8594 L11.0781 51.8594 L21.875 21.8281 Q23.9688 16.1094 25.6406 9.8125 Q27.1562 15.875 29.25 21.625 L40.3281 51.8594 L49.125 51.8594 L29.3906 -0.875 Q26.2188 -9.4219 24.4688 -12.6406 Q22.125 -17 19.0938 -19.0234 Q16.0625 -21.0469 11.8594 -21.0469 Q9.3281 -21.0469 6.2031 -19.9688 Z"
        /><glyph unicode="c" horiz-adv-x="50.0" d="M40.4375 19 L49.0781 17.875 Q47.6562 8.9375 41.8203 3.8828 Q35.9844 -1.1719 27.4844 -1.1719 Q16.8438 -1.1719 10.375 5.7891 Q3.9062 12.75 3.9062 25.7344 Q3.9062 34.125 6.6875 40.4297 Q9.4688 46.7344 15.1562 49.8828 Q20.8438 53.0312 27.5469 53.0312 Q35.9844 53.0312 41.3594 48.7578 Q46.7344 44.4844 48.25 36.625 L39.7031 35.2969 Q38.4844 40.5312 35.3828 43.1641 Q32.2812 45.7969 27.875 45.7969 Q21.2344 45.7969 17.0859 41.0391 Q12.9375 36.2812 12.9375 25.9844 Q12.9375 15.5312 16.9453 10.7969 Q20.9531 6.0625 27.3906 6.0625 Q32.5625 6.0625 36.0312 9.2344 Q39.5 12.4062 40.4375 19 Z"
        /><glyph unicode="n" horiz-adv-x="55.615234" d="M6.5938 0 L6.5938 51.8594 L14.5 51.8594 L14.5 44.4844 Q20.2188 53.0312 31 53.0312 Q35.6875 53.0312 39.625 51.3438 Q43.5625 49.6562 45.5156 46.9219 Q47.4688 44.1875 48.25 40.4375 Q48.7344 37.9844 48.7344 31.8906 L48.7344 0 L39.9375 0 L39.9375 31.5469 Q39.9375 36.9219 38.9141 39.5781 Q37.8906 42.2344 35.2812 43.8203 Q32.6719 45.4062 29.1562 45.4062 Q23.5312 45.4062 19.4531 41.8438 Q15.375 38.2812 15.375 28.3281 L15.375 0 L6.5938 0 Z"
        /><glyph unicode="u" horiz-adv-x="55.615234" d="M40.5781 0 L40.5781 7.625 Q34.5156 -1.1719 24.125 -1.1719 Q19.5312 -1.1719 15.5547 0.5859 Q11.5781 2.3438 9.6484 5.0078 Q7.7188 7.6719 6.9375 11.5312 Q6.3906 14.1094 6.3906 19.7344 L6.3906 51.8594 L15.1875 51.8594 L15.1875 23.0938 Q15.1875 16.2188 15.7188 13.8125 Q16.5469 10.3594 19.2344 8.375 Q21.9219 6.3906 25.875 6.3906 Q29.8281 6.3906 33.2969 8.4219 Q36.7656 10.4531 38.2109 13.9453 Q39.6562 17.4375 39.6562 24.0781 L39.6562 51.8594 L48.4375 51.8594 L48.4375 0 L40.5781 0 Z"
        /><glyph unicode="q" horiz-adv-x="55.615234" d="M39.6562 -19.875 L39.6562 5.5156 Q37.5938 2.6406 33.9062 0.7344 Q30.2188 -1.1719 26.0781 -1.1719 Q16.8438 -1.1719 10.1797 6.2031 Q3.5156 13.5781 3.5156 26.4219 Q3.5156 34.2344 6.2266 40.4297 Q8.9375 46.625 14.0859 49.8281 Q19.2344 53.0312 25.3906 53.0312 Q35.0156 53.0312 40.5312 44.9219 L40.5312 51.8594 L48.4375 51.8594 L48.4375 -19.875 L39.6562 -19.875 ZM12.5469 26.0781 Q12.5469 16.0625 16.75 11.0625 Q20.9531 6.0625 26.8125 6.0625 Q32.4219 6.0625 36.4766 10.8203 Q40.5312 15.5781 40.5312 25.2969 Q40.5312 35.6406 36.2578 40.8672 Q31.9844 46.0938 26.2188 46.0938 Q20.5156 46.0938 16.5312 41.2344 Q12.5469 36.375 12.5469 26.0781 Z"
        /><glyph unicode="e" horiz-adv-x="55.615234" d="M42.0938 16.7031 L51.1719 15.5781 Q49.0312 7.625 43.2188 3.2266 Q37.4062 -1.1719 28.375 -1.1719 Q17 -1.1719 10.3281 5.8359 Q3.6562 12.8438 3.6562 25.4844 Q3.6562 38.5781 10.3984 45.8047 Q17.1406 53.0312 27.875 53.0312 Q38.2812 53.0312 44.875 45.9531 Q51.4688 38.875 51.4688 26.0312 Q51.4688 25.25 51.4219 23.6875 L12.75 23.6875 Q13.2344 15.1406 17.5781 10.6016 Q21.9219 6.0625 28.4219 6.0625 Q33.25 6.0625 36.6719 8.6016 Q40.0938 11.1406 42.0938 16.7031 ZM13.2344 30.9062 L42.1875 30.9062 Q41.6094 37.4531 38.875 40.7188 Q34.6719 45.7969 27.9844 45.7969 Q21.9219 45.7969 17.7969 41.75 Q13.6719 37.7031 13.2344 30.9062 Z"
        /><glyph unicode="r" horiz-adv-x="33.30078" d="M6.5 0 L6.5 51.8594 L14.4062 51.8594 L14.4062 44 Q17.4375 49.5156 20 51.2734 Q22.5625 53.0312 25.6406 53.0312 Q30.0781 53.0312 34.6719 50.2031 L31.6406 42.0469 Q28.4219 43.9531 25.2031 43.9531 Q22.3125 43.9531 20.0156 42.2188 Q17.7188 40.4844 16.75 37.4062 Q15.2812 32.7188 15.2812 27.1562 L15.2812 0 L6.5 0 Z"
        /><glyph unicode="F" horiz-adv-x="61.083984" d="M8.2031 0 L8.2031 71.5781 L56.5 71.5781 L56.5 63.1406 L17.6719 63.1406 L17.6719 40.9688 L51.2656 40.9688 L51.2656 32.5156 L17.6719 32.5156 L17.6719 0 L8.2031 0 Z"
        /><glyph unicode="." horiz-adv-x="27.783203" d="M9.0781 0 L9.0781 10.0156 L19.0938 10.0156 L19.0938 0 L9.0781 0 Z"
        /><glyph unicode="6" horiz-adv-x="55.615234" d="M49.75 54.0469 L41.0156 53.375 Q39.8438 58.5469 37.7031 60.8906 Q34.125 64.6562 28.9062 64.6562 Q24.7031 64.6562 21.5312 62.3125 Q17.3906 59.2812 14.9922 53.4688 Q12.5938 47.6562 12.5 36.9219 Q15.6719 41.75 20.2656 44.0938 Q24.8594 46.4375 29.8906 46.4375 Q38.6719 46.4375 44.8516 39.9688 Q51.0312 33.5 51.0312 23.25 Q51.0312 16.5 48.125 10.7188 Q45.2188 4.9375 40.1406 1.8594 Q35.0625 -1.2188 28.6094 -1.2188 Q17.625 -1.2188 10.6953 6.8594 Q3.7656 14.9375 3.7656 33.5 Q3.7656 54.25 11.4219 63.6719 Q18.1094 71.875 29.4375 71.875 Q37.8906 71.875 43.2891 67.1406 Q48.6875 62.4062 49.75 54.0469 ZM13.875 23.1875 Q13.875 18.6562 15.7969 14.5078 Q17.7188 10.3594 21.1875 8.1797 Q24.6562 6 28.4688 6 Q34.0312 6 38.0391 10.4922 Q42.0469 14.9844 42.0469 22.7031 Q42.0469 30.125 38.0859 34.3984 Q34.125 38.6719 28.125 38.6719 Q22.1719 38.6719 18.0234 34.3984 Q13.875 30.125 13.875 23.1875 Z"
        /><glyph unicode="7" horiz-adv-x="55.615234" d="M4.7344 62.2031 L4.7344 70.6562 L51.0781 70.6562 L51.0781 63.8125 Q44.2344 56.5469 37.5234 44.4844 Q30.8125 32.4219 27.1562 19.6719 Q24.5156 10.6875 23.7812 0 L14.75 0 Q14.8906 8.4531 18.0625 20.4141 Q21.2344 32.375 27.1719 43.4844 Q33.1094 54.5938 39.7969 62.2031 L4.7344 62.2031 Z"
        /><glyph unicode="8" horiz-adv-x="55.615234" d="M17.6719 38.8125 Q12.2031 40.8281 9.5703 44.5391 Q6.9375 48.25 6.9375 53.4219 Q6.9375 61.2344 12.5547 66.5547 Q18.1719 71.875 27.4844 71.875 Q36.8594 71.875 42.5781 66.4297 Q48.2969 60.9844 48.2969 53.1719 Q48.2969 48.1875 45.6797 44.5078 Q43.0625 40.8281 37.75 38.8125 Q44.3438 36.6719 47.7812 31.8828 Q51.2188 27.0938 51.2188 20.4531 Q51.2188 11.2812 44.7266 5.0312 Q38.2344 -1.2188 27.6406 -1.2188 Q17.0469 -1.2188 10.5469 5.0547 Q4.0469 11.3281 4.0469 20.7031 Q4.0469 27.6875 7.5938 32.3984 Q11.1406 37.1094 17.6719 38.8125 ZM15.9219 53.7188 Q15.9219 48.6406 19.1953 45.4141 Q22.4688 42.1875 27.6875 42.1875 Q32.7656 42.1875 36.0156 45.3828 Q39.2656 48.5781 39.2656 53.2188 Q39.2656 58.0625 35.9141 61.3594 Q32.5625 64.6562 27.5938 64.6562 Q22.5625 64.6562 19.2422 61.4297 Q15.9219 58.2031 15.9219 53.7188 ZM13.0938 20.6562 Q13.0938 16.8906 14.875 13.375 Q16.6562 9.8594 20.1719 7.9297 Q23.6875 6 27.7344 6 Q34.0312 6 38.1328 10.0547 Q42.2344 14.1094 42.2344 20.3594 Q42.2344 26.7031 38.0156 30.8594 Q33.7969 35.0156 27.4375 35.0156 Q21.2344 35.0156 17.1641 30.9141 Q13.0938 26.8125 13.0938 20.6562 Z"
        /><glyph unicode="9" horiz-adv-x="55.615234" d="M5.4688 16.5469 L13.9219 17.3281 Q14.9844 11.375 18.0156 8.6875 Q21.0469 6 25.7812 6 Q29.8281 6 32.8828 7.8594 Q35.9375 9.7188 37.8906 12.8203 Q39.8438 15.9219 41.1641 21.1953 Q42.4844 26.4688 42.4844 31.9375 Q42.4844 32.5156 42.4375 33.6875 Q39.7969 29.5 35.2344 26.8828 Q30.6719 24.2656 25.3438 24.2656 Q16.4531 24.2656 10.3047 30.7109 Q4.1562 37.1562 4.1562 47.7031 Q4.1562 58.5938 10.5781 65.2344 Q17 71.875 26.6562 71.875 Q33.6406 71.875 39.4297 68.1172 Q45.2188 64.3594 48.2188 57.3984 Q51.2188 50.4375 51.2188 37.25 Q51.2188 23.5312 48.2422 15.4062 Q45.2656 7.2812 39.3828 3.0312 Q33.5 -1.2188 25.5938 -1.2188 Q17.1875 -1.2188 11.8672 3.4453 Q6.5469 8.1094 5.4688 16.5469 ZM41.4531 48.1406 Q41.4531 55.7188 37.4297 60.1562 Q33.4062 64.5938 27.7344 64.5938 Q21.875 64.5938 17.5312 59.8125 Q13.1875 55.0312 13.1875 47.4062 Q13.1875 40.5781 17.3125 36.3047 Q21.4375 32.0312 27.4844 32.0312 Q33.5938 32.0312 37.5234 36.3047 Q41.4531 40.5781 41.4531 48.1406 Z"
        /><glyph unicode="V" horiz-adv-x="66.69922" d="M28.1719 0 L0.4375 71.5781 L10.6875 71.5781 L29.2969 19.5781 Q31.5469 13.3281 33.0625 7.8594 Q34.7188 13.7188 36.9219 19.5781 L56.25 71.5781 L65.9219 71.5781 L37.8906 0 L28.1719 0 Z"
        /><glyph unicode="d" horiz-adv-x="55.615234" d="M40.2344 0 L40.2344 6.5469 Q35.2969 -1.1719 25.7344 -1.1719 Q19.5312 -1.1719 14.3281 2.25 Q9.125 5.6719 6.2734 11.7969 Q3.4219 17.9219 3.4219 25.875 Q3.4219 33.6406 6.0078 39.9688 Q8.5938 46.2969 13.7734 49.6641 Q18.9531 53.0312 25.3438 53.0312 Q30.0312 53.0312 33.6953 51.0547 Q37.3594 49.0781 39.6562 45.9062 L39.6562 71.5781 L48.3906 71.5781 L48.3906 0 L40.2344 0 ZM12.4531 25.875 Q12.4531 15.9219 16.6484 10.9922 Q20.8438 6.0625 26.5625 6.0625 Q32.3281 6.0625 36.3516 10.7734 Q40.375 15.4844 40.375 25.1406 Q40.375 35.7969 36.2734 40.7734 Q32.1719 45.75 26.1719 45.75 Q20.3125 45.75 16.3828 40.9688 Q12.4531 36.1875 12.4531 25.875 Z"
        /><glyph unicode="t" horiz-adv-x="27.783203" d="M25.7812 7.8594 L27.0469 0.0938 Q23.3438 -0.6875 20.4062 -0.6875 Q15.625 -0.6875 12.9922 0.8281 Q10.3594 2.3438 9.2812 4.8125 Q8.2031 7.2812 8.2031 15.1875 L8.2031 45.0156 L1.7656 45.0156 L1.7656 51.8594 L8.2031 51.8594 L8.2031 64.7031 L16.9375 69.9688 L16.9375 51.8594 L25.7812 51.8594 L25.7812 45.0156 L16.9375 45.0156 L16.9375 14.7031 Q16.9375 10.9375 17.4062 9.8672 Q17.875 8.7969 18.9219 8.1562 Q19.9688 7.5156 21.9219 7.5156 Q23.3906 7.5156 25.7812 7.8594 Z"
        /><glyph unicode="i" horiz-adv-x="22.216797" d="M6.6406 61.4688 L6.6406 71.5781 L15.4375 71.5781 L15.4375 61.4688 L6.6406 61.4688 ZM6.6406 0 L6.6406 51.8594 L15.4375 51.8594 L15.4375 0 L6.6406 0 Z"
        /><glyph unicode="l" horiz-adv-x="22.216797" d="M6.3906 0 L6.3906 71.5781 L15.1875 71.5781 L15.1875 0 L6.3906 0 Z"
        /><glyph unicode="p" horiz-adv-x="55.615234" d="M6.5938 -19.875 L6.5938 51.8594 L14.5938 51.8594 L14.5938 45.125 Q17.4375 49.0781 21 51.0547 Q24.5625 53.0312 29.6406 53.0312 Q36.2812 53.0312 41.3594 49.6094 Q46.4375 46.1875 49.0234 39.9609 Q51.6094 33.7344 51.6094 26.3125 Q51.6094 18.3594 48.7578 11.9844 Q45.9062 5.6094 40.4609 2.2188 Q35.0156 -1.1719 29 -1.1719 Q24.6094 -1.1719 21.1172 0.6875 Q17.625 2.5469 15.375 5.375 L15.375 -19.875 L6.5938 -19.875 ZM14.5469 25.6406 Q14.5469 15.625 18.6016 10.8438 Q22.6562 6.0625 28.4219 6.0625 Q34.2812 6.0625 38.4531 11.0156 Q42.625 15.9688 42.625 26.375 Q42.625 36.2812 38.5469 41.2109 Q34.4688 46.1406 28.8125 46.1406 Q23.1875 46.1406 18.8672 40.8906 Q14.5469 35.6406 14.5469 25.6406 Z"
        /><glyph unicode="m" horiz-adv-x="83.30078" d="M6.5938 0 L6.5938 51.8594 L14.4531 51.8594 L14.4531 44.5781 Q16.8906 48.3906 20.9453 50.7109 Q25 53.0312 30.1719 53.0312 Q35.9375 53.0312 39.625 50.6406 Q43.3125 48.25 44.8281 43.9531 Q50.9844 53.0312 60.8438 53.0312 Q68.5625 53.0312 72.7109 48.7578 Q76.8594 44.4844 76.8594 35.5938 L76.8594 0 L68.1094 0 L68.1094 32.6719 Q68.1094 37.9375 67.2578 40.2578 Q66.4062 42.5781 64.1641 43.9922 Q61.9219 45.4062 58.8906 45.4062 Q53.4219 45.4062 49.8047 41.7734 Q46.1875 38.1406 46.1875 30.125 L46.1875 0 L37.4062 0 L37.4062 33.6875 Q37.4062 39.5469 35.2578 42.4766 Q33.1094 45.4062 28.2188 45.4062 Q24.5156 45.4062 21.3672 43.4531 Q18.2188 41.5 16.7969 37.7422 Q15.375 33.9844 15.375 26.9062 L15.375 0 L6.5938 0 Z"
        /><glyph unicode="A" horiz-adv-x="66.69922" d="M-0.1406 0 L27.3438 71.5781 L37.5469 71.5781 L66.8438 0 L56.0625 0 L47.7031 21.6875 L17.7812 21.6875 L9.9062 0 L-0.1406 0 ZM20.5156 29.3906 L44.7812 29.3906 L37.3125 49.2188 Q33.8906 58.25 32.2344 64.0625 Q30.8594 57.1719 28.375 50.3906 L20.5156 29.3906 Z"
      /></font
      ><font horiz-adv-x="75.0" id="font2"
      ><font-face ascent="100.53711" descent="21.972656" units-per-em="100" style="font-style:normal; font-family:Dialog; font-weight:bold;"
        /><missing-glyph horiz-adv-x="75.0" d="M12.5 0 L12.5 62.5 L62.5 62.5 L62.5 0 L12.5 0 ZM14.0625 1.5625 L60.9375 1.5625 L60.9375 60.9375 L14.0625 60.9375 L14.0625 1.5625 Z"
        /><glyph unicode="o" horiz-adv-x="61.083984" d="M4 26.6562 Q4 33.5 7.375 39.8984 Q10.75 46.2969 16.9219 49.6641 Q23.0938 53.0312 30.7188 53.0312 Q42.4844 53.0312 50 45.3906 Q57.5156 37.75 57.5156 26.0781 Q57.5156 14.3125 49.9219 6.5703 Q42.3281 -1.1719 30.8125 -1.1719 Q23.6875 -1.1719 17.2188 2.0547 Q10.75 5.2812 7.375 11.5 Q4 17.7188 4 26.6562 ZM18.0625 25.9219 Q18.0625 18.2188 21.7266 14.1172 Q25.3906 10.0156 30.7656 10.0156 Q36.1406 10.0156 39.7734 14.1172 Q43.4062 18.2188 43.4062 26.0312 Q43.4062 33.6406 39.7734 37.7422 Q36.1406 41.8438 30.7656 41.8438 Q25.3906 41.8438 21.7266 37.7422 Q18.0625 33.6406 18.0625 25.9219 Z"
        /><glyph unicode="z" horiz-adv-x="50.0" d="M1.6562 0 L1.6562 10.6875 L21.0938 33.0156 Q25.875 38.4844 28.1719 40.7656 Q25.7812 40.625 21.875 40.5781 L3.5625 40.4844 L3.5625 51.8594 L46.4375 51.8594 L46.4375 42.1406 L26.6094 19.2812 L19.625 11.7188 Q25.3438 12.0625 26.7031 12.0625 L47.9531 12.0625 L47.9531 0 L1.6562 0 Z"
        /><glyph unicode="y" horiz-adv-x="55.615234" d="M0.6875 51.8594 L15.2812 51.8594 L27.6875 15.0469 L39.7969 51.8594 L54 51.8594 L35.6875 1.9531 L32.4219 -7.0781 Q30.6094 -11.625 28.9766 -14.0156 Q27.3438 -16.4062 25.2188 -17.8984 Q23.0938 -19.3906 19.9922 -20.2188 Q16.8906 -21.0469 12.9844 -21.0469 Q9.0312 -21.0469 5.2188 -20.2188 L4 -9.4688 Q7.2344 -10.1094 9.8125 -10.1094 Q14.5938 -10.1094 16.8906 -7.3047 Q19.1875 -4.5 20.4062 -0.1406 L0.6875 51.8594 Z"
        /><glyph unicode="l" horiz-adv-x="27.783203" d="M7.1719 0 L7.1719 71.5781 L20.9062 71.5781 L20.9062 0 L7.1719 0 Z"
        /><glyph unicode="n" horiz-adv-x="61.083984" d="M54.3438 0 L40.625 0 L40.625 26.4688 Q40.625 34.8594 39.75 37.3281 Q38.875 39.7969 36.8906 41.1641 Q34.9062 42.5312 32.125 42.5312 Q28.5625 42.5312 25.7344 40.5781 Q22.9062 38.625 21.8516 35.3984 Q20.7969 32.1719 20.7969 23.4844 L20.7969 0 L7.0781 0 L7.0781 51.8594 L19.8281 51.8594 L19.8281 44.2344 Q26.6094 53.0312 36.9219 53.0312 Q41.4531 53.0312 45.2109 51.3906 Q48.9688 49.75 50.8984 47.2109 Q52.8281 44.6719 53.5859 41.4531 Q54.3438 38.2344 54.3438 32.2344 L54.3438 0 Z"
        /><glyph unicode="a" horiz-adv-x="55.615234" d="M17.4375 36.0312 L4.9844 38.2812 Q7.0781 45.7969 12.2031 49.4141 Q17.3281 53.0312 27.4375 53.0312 Q36.625 53.0312 41.1172 50.8594 Q45.6094 48.6875 47.4375 45.3438 Q49.2656 42 49.2656 33.0625 L49.125 17.0469 Q49.125 10.2031 49.7812 6.9609 Q50.4375 3.7188 52.25 0 L38.6719 0 Q38.1406 1.375 37.3594 4.0469 Q37.0156 5.2812 36.8594 5.6719 Q33.3438 2.25 29.3438 0.5391 Q25.3438 -1.1719 20.7969 -1.1719 Q12.7969 -1.1719 8.1797 3.1719 Q3.5625 7.5156 3.5625 14.1562 Q3.5625 18.5625 5.6641 22 Q7.7656 25.4375 11.5469 27.2734 Q15.3281 29.1094 22.4688 30.4688 Q32.0781 32.2812 35.7969 33.8438 L35.7969 35.2031 Q35.7969 39.1562 33.8438 40.8438 Q31.8906 42.5312 26.4688 42.5312 Q22.7969 42.5312 20.75 41.0938 Q18.7031 39.6562 17.4375 36.0312 ZM35.7969 24.9062 Q33.1562 24.0312 27.4453 22.8047 Q21.7344 21.5781 19.9688 20.4062 Q17.2812 18.5 17.2812 15.5781 Q17.2812 12.7031 19.4297 10.6016 Q21.5781 8.5 24.9062 8.5 Q28.6094 8.5 31.9844 10.9375 Q34.4688 12.7969 35.25 15.4844 Q35.7969 17.2344 35.7969 22.1719 L35.7969 24.9062 Z"
        /><glyph unicode=" " horiz-adv-x="27.783203" d=""
        /><glyph unicode="m" horiz-adv-x="88.916016" d="M6.1562 51.8594 L18.7969 51.8594 L18.7969 44.7812 Q25.5938 53.0312 34.9688 53.0312 Q39.9375 53.0312 43.6016 50.9766 Q47.2656 48.9219 49.6094 44.7812 Q53.0312 48.9219 56.9844 50.9766 Q60.9375 53.0312 65.4375 53.0312 Q71.1406 53.0312 75.0938 50.7109 Q79.0469 48.3906 81 43.8906 Q82.4219 40.5781 82.4219 33.1562 L82.4219 0 L68.7031 0 L68.7031 29.6406 Q68.7031 37.3594 67.2812 39.5938 Q65.375 42.5312 61.4219 42.5312 Q58.5469 42.5312 56.0078 40.7734 Q53.4688 39.0156 52.3438 35.625 Q51.2188 32.2344 51.2188 24.9062 L51.2188 0 L37.5 0 L37.5 28.4219 Q37.5 35.9844 36.7656 38.1797 Q36.0312 40.375 34.4922 41.4531 Q32.9531 42.5312 30.3281 42.5312 Q27.1562 42.5312 24.6172 40.8203 Q22.0781 39.1094 20.9766 35.8906 Q19.875 32.6719 19.875 25.2031 L19.875 0 L6.1562 0 L6.1562 51.8594 Z"
        /><glyph unicode="u" horiz-adv-x="61.083984" d="M41.3125 0 L41.3125 7.7656 Q38.4844 3.6094 33.8672 1.2188 Q29.25 -1.1719 24.125 -1.1719 Q18.8906 -1.1719 14.7422 1.125 Q10.5938 3.4219 8.7422 7.5703 Q6.8906 11.7188 6.8906 19.0469 L6.8906 51.8594 L20.6094 51.8594 L20.6094 28.0312 Q20.6094 17.0938 21.3672 14.625 Q22.125 12.1562 24.125 10.7188 Q26.125 9.2812 29.2031 9.2812 Q32.7188 9.2812 35.5 11.2109 Q38.2812 13.1406 39.3047 15.9922 Q40.3281 18.8438 40.3281 29.9844 L40.3281 51.8594 L54.0469 51.8594 L54.0469 0 L41.3125 0 Z"
        /><glyph unicode="r" horiz-adv-x="38.916016" d="M20.3125 0 L6.5938 0 L6.5938 51.8594 L19.3438 51.8594 L19.3438 44.4844 Q22.6094 49.7031 25.2188 51.3672 Q27.8281 53.0312 31.1562 53.0312 Q35.8438 53.0312 40.1875 50.4375 L35.9375 38.4844 Q32.4688 40.7188 29.5 40.7188 Q26.6094 40.7188 24.6094 39.1328 Q22.6094 37.5469 21.4609 33.3984 Q20.3125 29.25 20.3125 16.0156 L20.3125 0 Z"
        /><glyph unicode="t" horiz-adv-x="33.30078" d="M30.9531 51.8594 L30.9531 40.9219 L21.5781 40.9219 L21.5781 20.0156 Q21.5781 13.6719 21.8516 12.625 Q22.125 11.5781 23.0781 10.8906 Q24.0312 10.2031 25.3906 10.2031 Q27.2969 10.2031 30.9062 11.5312 L32.0781 0.875 Q27.2969 -1.1719 21.2344 -1.1719 Q17.5312 -1.1719 14.5547 0.0703 Q11.5781 1.3125 10.1875 3.2969 Q8.7969 5.2812 8.25 8.6406 Q7.8125 11.0312 7.8125 18.3125 L7.8125 40.9219 L1.5156 40.9219 L1.5156 51.8594 L7.8125 51.8594 L7.8125 62.1562 L21.5781 70.1719 L21.5781 51.8594 L30.9531 51.8594 Z"
        /><glyph unicode="c" horiz-adv-x="55.615234" d="M52.3906 36.5312 L38.875 34.0781 Q38.1875 38.1406 35.7656 40.1875 Q33.3438 42.2344 29.5 42.2344 Q24.3594 42.2344 21.3125 38.6953 Q18.2656 35.1562 18.2656 26.8594 Q18.2656 17.625 21.3672 13.8203 Q24.4688 10.0156 29.6875 10.0156 Q33.5938 10.0156 36.0859 12.2344 Q38.5781 14.4531 39.5938 19.875 L53.0781 17.5781 Q50.9844 8.2969 45.0234 3.5625 Q39.0625 -1.1719 29.0469 -1.1719 Q17.6719 -1.1719 10.9141 6.0078 Q4.1562 13.1875 4.1562 25.875 Q4.1562 38.7188 10.9375 45.875 Q17.7188 53.0312 29.2969 53.0312 Q38.7656 53.0312 44.3594 48.9531 Q49.9531 44.875 52.3906 36.5312 Z"
        /><glyph unicode="e" horiz-adv-x="55.615234" d="M37.2031 16.5 L50.875 14.2031 Q48.25 6.6875 42.5547 2.7578 Q36.8594 -1.1719 28.3281 -1.1719 Q14.7969 -1.1719 8.2969 7.6719 Q3.1719 14.75 3.1719 25.5312 Q3.1719 38.4219 9.9141 45.7266 Q16.6562 53.0312 26.9531 53.0312 Q38.5312 53.0312 45.2188 45.3906 Q51.9062 37.75 51.6094 21.9688 L17.2344 21.9688 Q17.3906 15.875 20.5625 12.4766 Q23.7344 9.0781 28.4688 9.0781 Q31.6875 9.0781 33.8828 10.8359 Q36.0781 12.5938 37.2031 16.5 ZM37.9844 30.375 Q37.8438 36.3281 34.9141 39.4297 Q31.9844 42.5312 27.7812 42.5312 Q23.2969 42.5312 20.3594 39.2656 Q17.4375 35.9844 17.4844 30.375 L37.9844 30.375 Z"
        /><glyph unicode="p" horiz-adv-x="61.083984" d="M6.7812 51.8594 L19.5781 51.8594 L19.5781 44.2344 Q22.0781 48.1406 26.3203 50.5859 Q30.5625 53.0312 35.75 53.0312 Q44.7812 53.0312 51.0781 45.9531 Q57.375 38.875 57.375 26.2188 Q57.375 13.2344 51.0234 6.0312 Q44.6719 -1.1719 35.6406 -1.1719 Q31.3438 -1.1719 27.8516 0.5391 Q24.3594 2.25 20.5156 6.3906 L20.5156 -19.7344 L6.7812 -19.7344 L6.7812 51.8594 ZM20.3594 26.8125 Q20.3594 18.0625 23.8281 13.8906 Q27.2969 9.7188 32.2812 9.7188 Q37.0625 9.7188 40.2344 13.5547 Q43.4062 17.3906 43.4062 26.125 Q43.4062 34.2812 40.1328 38.2344 Q36.8594 42.1875 32.0312 42.1875 Q27 42.1875 23.6797 38.3047 Q20.3594 34.4219 20.3594 26.8125 Z"
        /><glyph unicode="S" horiz-adv-x="66.69922" d="M3.6094 23.2969 L17.6719 24.6562 Q18.9531 17.5781 22.8281 14.2578 Q26.7031 10.9375 33.2969 10.9375 Q40.2812 10.9375 43.8203 13.8906 Q47.3594 16.8438 47.3594 20.7969 Q47.3594 23.3438 45.875 25.125 Q44.3906 26.9062 40.6719 28.2188 Q38.1406 29.1094 29.1094 31.3438 Q17.4844 34.2344 12.7969 38.4219 Q6.2031 44.3438 6.2031 52.8281 Q6.2031 58.2969 9.3047 63.0625 Q12.4062 67.8281 18.2422 70.3125 Q24.0781 72.7969 32.3281 72.7969 Q45.7969 72.7969 52.6094 66.8906 Q59.4219 60.9844 59.7656 51.125 L45.3125 50.4844 Q44.3906 56 41.3359 58.4219 Q38.2812 60.8438 32.1719 60.8438 Q25.875 60.8438 22.3125 58.25 Q20.0156 56.5938 20.0156 53.8125 Q20.0156 51.2656 22.1719 49.4688 Q24.9062 47.1719 35.4531 44.6797 Q46 42.1875 51.0547 39.5234 Q56.1094 36.8594 58.9609 32.25 Q61.8125 27.6406 61.8125 20.8438 Q61.8125 14.7031 58.3984 9.3281 Q54.9844 3.9531 48.7344 1.3438 Q42.4844 -1.2656 33.1562 -1.2656 Q19.5781 -1.2656 12.3047 5.0078 Q5.0312 11.2812 3.6094 23.2969 Z"
      /></font
    ></defs
    ><g style="fill:white; stroke:white;"
    ><rect x="0" y="0" width="1920" style="clip-path:url(#clipPath1); stroke:none;" height="964"
    /></g
    ><g style="fill:white; text-rendering:optimizeSpeed; color-rendering:optimizeSpeed; image-rendering:optimizeSpeed; shape-rendering:crispEdges; color-interpolation:sRGB; stroke:white;"
    ><rect x="0" width="1920" height="964" y="0" style="stroke:none;"
      /><path d="M250 858 L1738 858 L1738 72 L250 72 Z" style="fill:black; stroke:none;"
    /></g
    ><g style="fill-opacity:0.502; color-rendering:optimizeQuality; color-interpolation:linearRGB; text-rendering:geometricPrecision; stroke:rgb(255,255,255); stroke-linecap:butt; stroke-miterlimit:1; stroke-opacity:0.502; fill:rgb(255,255,255); stroke-dasharray:1,3; stroke-width:0.6667; stroke-linejoin:bevel; image-rendering:optimizeQuality;"
    ><line y2="72" style="fill:none;" x1="250" x2="250" y1="858"
      /><line y2="72" style="fill:none;" x1="398.8" x2="398.8" y1="858"
      /><line y2="72" style="fill:none;" x1="547.6" x2="547.6" y1="858"
      /><line y2="72" style="fill:none;" x1="696.4" x2="696.4" y1="858"
      /><line y2="72" style="fill:none;" x1="845.2" x2="845.2" y1="858"
      /><line y2="72" style="fill:none;" x1="994" x2="994" y1="858"
      /><line y2="72" style="fill:none;" x1="1142.8" x2="1142.8" y1="858"
      /><line y2="72" style="fill:none;" x1="1291.6" x2="1291.6" y1="858"
      /><line y2="72" style="fill:none;" x1="1440.4" x2="1440.4" y1="858"
      /><line y2="72" style="fill:none;" x1="1589.2" x2="1589.2" y1="858"
      /><line y2="72" style="fill:none;" x1="1738" x2="1738" y1="858"
      /><line y2="858" style="fill:none;" x1="1738" x2="250" y1="858"
      /><line y2="779.4" style="fill:none;" x1="1738" x2="250" y1="779.4"
      /><line y2="700.8" style="fill:none;" x1="1738" x2="250" y1="700.8"
      /><line y2="622.2" style="fill:none;" x1="1738" x2="250" y1="622.2"
      /><line y2="543.6" style="fill:none;" x1="1738" x2="250" y1="543.6"
      /><line y2="465" style="fill:none;" x1="1738" x2="250" y1="465"
      /><line y2="386.4" style="fill:none;" x1="1738" x2="250" y1="386.4"
      /><line y2="307.8" style="fill:none;" x1="1738" x2="250" y1="307.8"
      /><line y2="229.2" style="fill:none;" x1="1738" x2="250" y1="229.2"
      /><line y2="150.6" style="fill:none;" x1="1738" x2="250" y1="150.6"
      /><line y2="72" style="fill:none;" x1="1738" x2="250" y1="72"
    /></g
    ><g style="text-rendering:geometricPrecision; stroke-width:0.6667; color-interpolation:linearRGB; color-rendering:optimizeQuality; stroke-linejoin:round; image-rendering:optimizeQuality;"
    ><line y2="858" style="fill:none;" x1="250" x2="1738" y1="858"
      /><line y2="863.952" style="fill:none;" x1="250" x2="250" y1="852.048"
      /><line y2="863.952" style="fill:none;" x1="398.8" x2="398.8" y1="852.048"
      /><line y2="863.952" style="fill:none;" x1="547.6" x2="547.6" y1="852.048"
      /><line y2="863.952" style="fill:none;" x1="696.4" x2="696.4" y1="852.048"
      /><line y2="863.952" style="fill:none;" x1="845.2" x2="845.2" y1="852.048"
      /><line y2="863.952" style="fill:none;" x1="994" x2="994" y1="852.048"
      /><line y2="863.952" style="fill:none;" x1="1142.8" x2="1142.8" y1="852.048"
      /><line y2="863.952" style="fill:none;" x1="1291.6" x2="1291.6" y1="852.048"
      /><line y2="863.952" style="fill:none;" x1="1440.4" x2="1440.4" y1="852.048"
      /><line y2="863.952" style="fill:none;" x1="1589.2" x2="1589.2" y1="852.048"
      /><line y2="863.952" style="fill:none;" x1="1738" x2="1738" y1="852.048"
      /><line y2="860.976" style="fill:none;" x1="264.88" x2="264.88" y1="855.024"
      /><line y2="860.976" style="fill:none;" x1="279.76" x2="279.76" y1="855.024"
      /><line y2="860.976" style="fill:none;" x1="294.64" x2="294.64" y1="855.024"
      /><line y2="860.976" style="fill:none;" x1="309.52" x2="309.52" y1="855.024"
      /><line y2="860.976" style="fill:none;" x1="324.4" x2="324.4" y1="855.024"
      /><line y2="860.976" style="fill:none;" x1="339.28" x2="339.28" y1="855.024"
      /><line y2="860.976" style="fill:none;" x1="354.16" x2="354.16" y1="855.024"
      /><line y2="860.976" style="fill:none;" x1="369.04" x2="369.04" y1="855.024"
      /><line y2="860.976" style="fill:none;" x1="383.92" x2="383.92" y1="855.024"
      /><line y2="860.976" style="fill:none;" x1="413.68" x2="413.68" y1="855.024"
      /><line y2="860.976" style="fill:none;" x1="428.56" x2="428.56" y1="855.024"
      /><line y2="860.976" style="fill:none;" x1="443.44" x2="443.44" y1="855.024"
      /><line y2="860.976" style="fill:none;" x1="458.32" x2="458.32" y1="855.024"
      /><line y2="860.976" style="fill:none;" x1="473.2" x2="473.2" y1="855.024"
      /><line y2="860.976" style="fill:none;" x1="488.08" x2="488.08" y1="855.024"
      /><line y2="860.976" style="fill:none;" x1="502.96" x2="502.96" y1="855.024"
      /><line y2="860.976" style="fill:none;" x1="517.84" x2="517.84" y1="855.024"
      /><line y2="860.976" style="fill:none;" x1="532.72" x2="532.72" y1="855.024"
      /><line y2="860.976" style="fill:none;" x1="562.48" x2="562.48" y1="855.024"
      /><line y2="860.976" style="fill:none;" x1="577.36" x2="577.36" y1="855.024"
      /><line y2="860.976" style="fill:none;" x1="592.24" x2="592.24" y1="855.024"
      /><line y2="860.976" style="fill:none;" x1="607.12" x2="607.12" y1="855.024"
      /><line y2="860.976" style="fill:none;" x1="622" x2="622" y1="855.024"
      /><line y2="860.976" style="fill:none;" x1="636.88" x2="636.88" y1="855.024"
      /><line y2="860.976" style="fill:none;" x1="651.76" x2="651.76" y1="855.024"
      /><line y2="860.976" style="fill:none;" x1="666.64" x2="666.64" y1="855.024"
      /><line y2="860.976" style="fill:none;" x1="681.52" x2="681.52" y1="855.024"
      /><line y2="860.976" style="fill:none;" x1="711.28" x2="711.28" y1="855.024"
      /><line y2="860.976" style="fill:none;" x1="726.16" x2="726.16" y1="855.024"
      /><line y2="860.976" style="fill:none;" x1="741.04" x2="741.04" y1="855.024"
      /><line y2="860.976" style="fill:none;" x1="755.92" x2="755.92" y1="855.024"
      /><line y2="860.976" style="fill:none;" x1="770.8" x2="770.8" y1="855.024"
      /><line y2="860.976" style="fill:none;" x1="785.68" x2="785.68" y1="855.024"
      /><line y2="860.976" style="fill:none;" x1="800.56" x2="800.56" y1="855.024"
      /><line y2="860.976" style="fill:none;" x1="815.44" x2="815.44" y1="855.024"
      /><line y2="860.976" style="fill:none;" x1="830.32" x2="830.32" y1="855.024"
      /><line y2="860.976" style="fill:none;" x1="860.08" x2="860.08" y1="855.024"
      /><line y2="860.976" style="fill:none;" x1="874.96" x2="874.96" y1="855.024"
      /><line y2="860.976" style="fill:none;" x1="889.84" x2="889.84" y1="855.024"
      /><line y2="860.976" style="fill:none;" x1="904.72" x2="904.72" y1="855.024"
      /><line y2="860.976" style="fill:none;" x1="919.6" x2="919.6" y1="855.024"
      /><line y2="860.976" style="fill:none;" x1="934.48" x2="934.48" y1="855.024"
      /><line y2="860.976" style="fill:none;" x1="949.36" x2="949.36" y1="855.024"
      /><line y2="860.976" style="fill:none;" x1="964.24" x2="964.24" y1="855.024"
      /><line y2="860.976" style="fill:none;" x1="979.12" x2="979.12" y1="855.024"
      /><line y2="860.976" style="fill:none;" x1="1008.88" x2="1008.88" y1="855.024"
      /><line y2="860.976" style="fill:none;" x1="1023.76" x2="1023.76" y1="855.024"
      /><line y2="860.976" style="fill:none;" x1="1038.64" x2="1038.64" y1="855.024"
      /><line y2="860.976" style="fill:none;" x1="1053.52" x2="1053.52" y1="855.024"
      /><line y2="860.976" style="fill:none;" x1="1068.4" x2="1068.4" y1="855.024"
      /><line y2="860.976" style="fill:none;" x1="1083.28" x2="1083.28" y1="855.024"
      /><line y2="860.976" style="fill:none;" x1="1098.16" x2="1098.16" y1="855.024"
      /><line y2="860.976" style="fill:none;" x1="1113.04" x2="1113.04" y1="855.024"
      /><line y2="860.976" style="fill:none;" x1="1127.92" x2="1127.92" y1="855.024"
      /><line y2="860.976" style="fill:none;" x1="1157.6801" x2="1157.6801" y1="855.024"
      /><line y2="860.976" style="fill:none;" x1="1172.5601" x2="1172.5601" y1="855.024"
      /><line y2="860.976" style="fill:none;" x1="1187.4399" x2="1187.4399" y1="855.024"
      /><line y2="860.976" style="fill:none;" x1="1202.3199" x2="1202.3199" y1="855.024"
      /><line y2="860.976" style="fill:none;" x1="1217.2" x2="1217.2" y1="855.024"
      /><line y2="860.976" style="fill:none;" x1="1232.08" x2="1232.08" y1="855.024"
      /><line y2="860.976" style="fill:none;" x1="1246.96" x2="1246.96" y1="855.024"
      /><line y2="860.976" style="fill:none;" x1="1261.84" x2="1261.84" y1="855.024"
      /><line y2="860.976" style="fill:none;" x1="1276.72" x2="1276.72" y1="855.024"
      /><line y2="860.976" style="fill:none;" x1="1306.48" x2="1306.48" y1="855.024"
      /><line y2="860.976" style="fill:none;" x1="1321.36" x2="1321.36" y1="855.024"
      /><line y2="860.976" style="fill:none;" x1="1336.24" x2="1336.24" y1="855.024"
      /><line y2="860.976" style="fill:none;" x1="1351.12" x2="1351.12" y1="855.024"
      /><line y2="860.976" style="fill:none;" x1="1366" x2="1366" y1="855.024"
      /><line y2="860.976" style="fill:none;" x1="1380.88" x2="1380.88" y1="855.024"
      /><line y2="860.976" style="fill:none;" x1="1395.76" x2="1395.76" y1="855.024"
      /><line y2="860.976" style="fill:none;" x1="1410.64" x2="1410.64" y1="855.024"
      /><line y2="860.976" style="fill:none;" x1="1425.52" x2="1425.52" y1="855.024"
      /><line y2="860.976" style="fill:none;" x1="1455.28" x2="1455.28" y1="855.024"
      /><line y2="860.976" style="fill:none;" x1="1470.16" x2="1470.16" y1="855.024"
      /><line y2="860.976" style="fill:none;" x1="1485.04" x2="1485.04" y1="855.024"
      /><line y2="860.976" style="fill:none;" x1="1499.92" x2="1499.92" y1="855.024"
      /><line y2="860.976" style="fill:none;" x1="1514.8" x2="1514.8" y1="855.024"
      /><line y2="860.976" style="fill:none;" x1="1529.6801" x2="1529.6801" y1="855.024"
      /><line y2="860.976" style="fill:none;" x1="1544.5601" x2="1544.5601" y1="855.024"
      /><line y2="860.976" style="fill:none;" x1="1559.4399" x2="1559.4399" y1="855.024"
      /><line y2="860.976" style="fill:none;" x1="1574.3199" x2="1574.3199" y1="855.024"
      /><line y2="860.976" style="fill:none;" x1="1604.08" x2="1604.08" y1="855.024"
      /><line y2="860.976" style="fill:none;" x1="1618.96" x2="1618.96" y1="855.024"
      /><line y2="860.976" style="fill:none;" x1="1633.84" x2="1633.84" y1="855.024"
      /><line y2="860.976" style="fill:none;" x1="1648.72" x2="1648.72" y1="855.024"
      /><line y2="860.976" style="fill:none;" x1="1663.6" x2="1663.6" y1="855.024"
      /><line y2="860.976" style="fill:none;" x1="1678.48" x2="1678.48" y1="855.024"
      /><line y2="860.976" style="fill:none;" x1="1693.36" x2="1693.36" y1="855.024"
      /><line y2="860.976" style="fill:none;" x1="1708.24" x2="1708.24" y1="855.024"
      /><line y2="860.976" style="fill:none;" x1="1723.12" x2="1723.12" y1="855.024"
    /></g
    ><g transform="translate(250,869.2853)" style="text-rendering:geometricPrecision; font-size:13px; color-interpolation:linearRGB; color-rendering:optimizeQuality; image-rendering:optimizeQuality;"
    ><text x="-4" xml:space="preserve" y="14" style="stroke:none;"
      >0</text
    ></g
    ><g transform="translate(398.8,869.2853)" style="text-rendering:geometricPrecision; font-size:13px; color-interpolation:linearRGB; color-rendering:optimizeQuality; image-rendering:optimizeQuality;"
    ><text x="-11" xml:space="preserve" y="14" style="stroke:none;"
      >500</text
    ></g
    ><g transform="translate(547.6,869.2853)" style="text-rendering:geometricPrecision; font-size:13px; color-interpolation:linearRGB; color-rendering:optimizeQuality; image-rendering:optimizeQuality;"
    ><text x="-14.5" xml:space="preserve" y="14" style="stroke:none;"
      >1000</text
    ></g
    ><g transform="translate(696.4,869.2853)" style="text-rendering:geometricPrecision; font-size:13px; color-interpolation:linearRGB; color-rendering:optimizeQuality; image-rendering:optimizeQuality;"
    ><text x="-14.5" xml:space="preserve" y="14" style="stroke:none;"
      >1500</text
    ></g
    ><g transform="translate(845.2,869.2853)" style="text-rendering:geometricPrecision; font-size:13px; color-interpolation:linearRGB; color-rendering:optimizeQuality; image-rendering:optimizeQuality;"
    ><text x="-14.5" xml:space="preserve" y="14" style="stroke:none;"
      >2000</text
    ></g
    ><g transform="translate(994,869.2853)" style="text-rendering:geometricPrecision; font-size:13px; color-interpolation:linearRGB; color-rendering:optimizeQuality; image-rendering:optimizeQuality;"
    ><text x="-14.5" xml:space="preserve" y="14" style="stroke:none;"
      >2500</text
    ></g
    ><g transform="translate(1142.8,869.2853)" style="text-rendering:geometricPrecision; font-size:13px; color-interpolation:linearRGB; color-rendering:optimizeQuality; image-rendering:optimizeQuality;"
    ><text x="-14.5" xml:space="preserve" y="14" style="stroke:none;"
      >3000</text
    ></g
    ><g transform="translate(1291.6,869.2853)" style="text-rendering:geometricPrecision; font-size:13px; color-interpolation:linearRGB; color-rendering:optimizeQuality; image-rendering:optimizeQuality;"
    ><text x="-14.5" xml:space="preserve" y="14" style="stroke:none;"
      >3500</text
    ></g
    ><g transform="translate(1440.4,869.2853)" style="text-rendering:geometricPrecision; font-size:13px; color-interpolation:linearRGB; color-rendering:optimizeQuality; image-rendering:optimizeQuality;"
    ><text x="-14.5" xml:space="preserve" y="14" style="stroke:none;"
      >4000</text
    ></g
    ><g transform="translate(1589.2,869.2853)" style="text-rendering:geometricPrecision; font-size:13px; color-interpolation:linearRGB; color-rendering:optimizeQuality; image-rendering:optimizeQuality;"
    ><text x="-14.5" xml:space="preserve" y="14" style="stroke:none;"
      >4500</text
    ></g
    ><g transform="translate(1738,869.2853)" style="text-rendering:geometricPrecision; font-size:13px; color-interpolation:linearRGB; color-rendering:optimizeQuality; image-rendering:optimizeQuality;"
    ><text x="-14.5" xml:space="preserve" y="14" style="stroke:none;"
      >5000</text
    ></g
    ><g transform="translate(994.0007,887.6187)" style="text-rendering:geometricPrecision; font-size:15px; color-interpolation:linearRGB; color-rendering:optimizeQuality; image-rendering:optimizeQuality;"
    ><text x="-52" xml:space="preserve" y="16" style="stroke:none;"
      >Frequency (Hz)</text
    ></g
    ><g style="text-rendering:geometricPrecision; stroke-width:0.6667; color-interpolation:linearRGB; color-rendering:optimizeQuality; stroke-linejoin:round; image-rendering:optimizeQuality;"
    ><line y2="72" style="fill:none;" x1="250" x2="250" y1="858"
      /><line y2="858" style="fill:none;" x1="255.952" x2="244.048" y1="858"
      /><line y2="779.4" style="fill:none;" x1="255.952" x2="244.048" y1="779.4"
      /><line y2="700.8" style="fill:none;" x1="255.952" x2="244.048" y1="700.8"
      /><line y2="622.2" style="fill:none;" x1="255.952" x2="244.048" y1="622.2"
      /><line y2="543.6" style="fill:none;" x1="255.952" x2="244.048" y1="543.6"
      /><line y2="465" style="fill:none;" x1="255.952" x2="244.048" y1="465"
      /><line y2="386.4" style="fill:none;" x1="255.952" x2="244.048" y1="386.4"
      /><line y2="307.8" style="fill:none;" x1="255.952" x2="244.048" y1="307.8"
      /><line y2="229.2" style="fill:none;" x1="255.952" x2="244.048" y1="229.2"
      /><line y2="150.6" style="fill:none;" x1="255.952" x2="244.048" y1="150.6"
      /><line y2="72" style="fill:none;" x1="255.952" x2="244.048" y1="72"
    /></g
    ><g transform="translate(238.7147,858)" style="text-rendering:geometricPrecision; font-size:13px; color-interpolation:linearRGB; color-rendering:optimizeQuality; image-rendering:optimizeQuality;"
    ><text x="-8" xml:space="preserve" y="5.5" style="stroke:none;"
      >0</text
    ></g
    ><g transform="translate(238.7147,779.4)" style="text-rendering:geometricPrecision; font-size:13px; color-interpolation:linearRGB; color-rendering:optimizeQuality; image-rendering:optimizeQuality;"
    ><text x="-19" xml:space="preserve" y="5.5" style="stroke:none;"
      >0.1</text
    ></g
    ><g transform="translate(238.7147,700.8)" style="text-rendering:geometricPrecision; font-size:13px; color-interpolation:linearRGB; color-rendering:optimizeQuality; image-rendering:optimizeQuality;"
    ><text x="-19" xml:space="preserve" y="5.5" style="stroke:none;"
      >0.2</text
    ></g
    ><g transform="translate(238.7147,622.2)" style="text-rendering:geometricPrecision; font-size:13px; color-interpolation:linearRGB; color-rendering:optimizeQuality; image-rendering:optimizeQuality;"
    ><text x="-19" xml:space="preserve" y="5.5" style="stroke:none;"
      >0.3</text
    ></g
    ><g transform="translate(238.7147,543.6)" style="text-rendering:geometricPrecision; font-size:13px; color-interpolation:linearRGB; color-rendering:optimizeQuality; image-rendering:optimizeQuality;"
    ><text x="-19" xml:space="preserve" y="5.5" style="stroke:none;"
      >0.4</text
    ></g
    ><g transform="translate(238.7147,465)" style="text-rendering:geometricPrecision; font-size:13px; color-interpolation:linearRGB; color-rendering:optimizeQuality; image-rendering:optimizeQuality;"
    ><text x="-19" xml:space="preserve" y="5.5" style="stroke:none;"
      >0.5</text
    ></g
    ><g transform="translate(238.7147,386.4)" style="text-rendering:geometricPrecision; font-size:13px; color-interpolation:linearRGB; color-rendering:optimizeQuality; image-rendering:optimizeQuality;"
    ><text x="-19" xml:space="preserve" y="5.5" style="stroke:none;"
      >0.6</text
    ></g
    ><g transform="translate(238.7147,307.8)" style="text-rendering:geometricPrecision; font-size:13px; color-interpolation:linearRGB; color-rendering:optimizeQuality; image-rendering:optimizeQuality;"
    ><text x="-19" xml:space="preserve" y="5.5" style="stroke:none;"
      >0.7</text
    ></g
    ><g transform="translate(238.7147,229.2)" style="text-rendering:geometricPrecision; font-size:13px; color-interpolation:linearRGB; color-rendering:optimizeQuality; image-rendering:optimizeQuality;"
    ><text x="-19" xml:space="preserve" y="5.5" style="stroke:none;"
      >0.8</text
    ></g
    ><g transform="translate(238.7147,150.6)" style="text-rendering:geometricPrecision; font-size:13px; color-interpolation:linearRGB; color-rendering:optimizeQuality; image-rendering:optimizeQuality;"
    ><text x="-19" xml:space="preserve" y="5.5" style="stroke:none;"
      >0.9</text
    ></g
    ><g transform="translate(238.7147,72)" style="text-rendering:geometricPrecision; font-size:13px; color-interpolation:linearRGB; color-rendering:optimizeQuality; image-rendering:optimizeQuality;"
    ><text x="-8" xml:space="preserve" y="5.5" style="stroke:none;"
      >1</text
    ></g
    ><g transform="translate(215.7147,464.9996) rotate(-90)" style="text-rendering:geometricPrecision; font-size:15px; color-interpolation:linearRGB; color-rendering:optimizeQuality; image-rendering:optimizeQuality;"
    ><text x="-45.5" xml:space="preserve" y="-4" style="stroke:none;"
      >Amplitude (V)</text
    ></g
    ><g transform="translate(994.0009,69.25)" style="font-size:15px; text-rendering:geometricPrecision; color-rendering:optimizeQuality; image-rendering:optimizeQuality; color-interpolation:linearRGB; font-weight:bold;"
    ><text x="-83" xml:space="preserve" y="-4" style="stroke:none;"
      >Spectrum analyzer plot</text
    ></g
    ><g style="stroke-linecap:butt; fill:rgb(255,128,0); text-rendering:geometricPrecision; color-rendering:optimizeQuality; image-rendering:optimizeQuality; stroke-linejoin:round; color-interpolation:linearRGB; stroke:rgb(255,128,0); stroke-width:0.6667;"
    ><path d="M250 855.062 L261.625 851.6863 L273.25 850.2786 L284.8752 847.5197 L296.5 842.3444 L308.1252 831.4921 L319.75 799.9163 L331.3752 257.6194 L343 756.0361 L354.6252 802.4767 L366.25 815.6461 L377.8752 821.1465 L389.5 823.5061 L401.1252 824.0937 L412.75 823.3771 L424.3752 821.4283 L436 818.025 L447.6252 812.5526 L459.25 803.6016 L470.8752 787.6061 L482.5 752.7821 L494.1252 625.1373 L505.75 151.588 L517.3751 726.6492 L529 787.842 L540.6251 810.8453 L552.2515 822.4996 L563.8757 829.0566 L575.5 832.6476 L587.1243 834.1101 L598.7515 833.7578 L610.3757 831.6171 L622 827.4245 L633.6243 820.4167 L645.2515 808.7067 L656.8757 787.1836 L668.5 737.2444 L680.1243 503.8771 L691.7515 413.2348 L703.3757 714.2217 L715 769.6811 L726.6243 792.9656 L738.2515 805.7521 L749.8757 813.8121 L761.5 819.3378 L773.1243 823.3435 L784.7515 826.3628 L796.3757 828.7026 L808 830.5519 L819.6243 832.0325 L831.2515 833.2267 L842.8757 834.1914 L854.5 834.9665 L866.1243 835.5806 L877.7515 836.0538 L889.3757 836.4001 L901 836.6285 L912.6243 836.7436 L924.2515 836.746 L935.8757 836.6328 L947.5 836.3962 L959.1243 836.0238 L970.7515 835.4963 L982.3757 834.7856 L994 833.8508 L1005.6243 832.6321 L1017.2515 831.0398 L1028.8757 828.9341 L1040.5 826.0872 L1052.1243 822.1028 L1063.7515 816.2271 L1075.3757 806.8337 L1087 789.6554 L1098.6243 748.801 L1110.2515 533.1784 L1121.8757 583.0234 L1133.5 766.971 L1145.1243 805.056 L1156.7515 821.1175 L1168.3757 829.5743 L1180 834.3467 L1191.6243 836.8783 L1203.2515 837.7626 L1214.8757 837.2056 L1226.5 835.1376 L1238.1243 831.1193 L1249.7515 823.9219 L1261.3757 809.9746 L1273 774.9308 L1284.6243 546.2669 L1296.2515 678.4006 L1307.8757 787.8314 L1319.5 814.2094 L1331.1243 826.0807 L1342.7515 832.8383 L1354.3757 837.2059 L1366 840.2642 L1377.6243 842.5273 L1389.2515 844.2709 L1400.8757 845.6561 L1412.5 846.7834 L1424.1243 847.7191 L1435.7515 848.5078 L1447.3757 849.1817 L1459 849.7642 L1470.6243 850.2723 L1482.2515 850.7193 L1493.8757 851.1155 L1505.5 851.4689 L1517.1243 851.786 L1528.7515 852.072 L1540.3757 852.3309 L1552 852.5666 L1563.6243 852.7817 L1575.2515 852.9789 L1586.8757 853.1602 L1598.5 853.3272 L1610.1243 853.4818 L1621.7515 853.6249 L1633.3757 853.758 L1645 853.8818 L1656.6243 853.9974 L1668.2515 854.1055 L1679.8757 854.2067 L1691.5 854.3017 L1703.1243 854.391 L1714.7515 854.475 L1726.3757 854.5542 L1738 854.629 L1738.1488 854.6299" style="fill:none; fill-rule:evenodd;"
      /><path d="M250 857.4326 L261.625 856.7416 L273.25 856.4232 L284.8752 855.9895 L296.5 855.4832 L308.1252 854.9194 L319.75 854.2994 L331.3752 853.6203 L343 852.8569 L354.6252 852.0065 L366.25 851.0387 L377.8752 849.92 L389.5 848.6029 L401.1252 847.019 L412.75 845.0663 L424.3752 842.5862 L436 839.321 L447.6252 834.8289 L459.25 828.3156 L470.8752 818.1857 L482.5 779.921 L494.1252 509.6283 L505.75 252.7439 L517.3751 830.9395 L529 802.5221 L540.6251 800.8261 L552.2515 818.4849 L563.8757 830.832 L575.5 834.5463 L587.1243 837.4289 L598.7515 839.6664 L610.3757 841.4343 L622 842.8613 L633.6243 844.0354 L645.2515 845.0154 L656.8757 845.8392 L668.5 846.5193 L680.1243 846.9248 L691.7515 848.2753 L703.3757 848.4761 L715 848.8669 L726.6243 849.2451 L738.2515 849.5959 L749.8757 849.9188 L761.5 850.216 L773.1243 850.49 L784.7515 850.7433 L796.3757 850.9782 L808 851.1966 L819.6243 851.4001 L831.2515 851.5903 L842.8757 851.7686 L854.5 851.9359 L866.1243 852.0933 L877.7515 852.2416 L889.3757 852.3817 L901 852.5143 L912.6243 852.64 L924.2515 852.7592 L935.8757 852.8725 L947.5 852.9804 L959.1243 853.0832 L970.7515 853.1813 L982.3757 853.275 L994 853.3647 L1005.6243 853.4505 L1017.2515 853.5327 L1028.8757 853.6116 L1040.5 853.6874 L1052.1243 853.7603 L1063.7515 853.8303 L1075.3757 853.8978 L1087 853.9629 L1098.6243 854.0259 L1110.2515 854.0891 L1121.8757 854.1396 L1133.5 854.1982 L1145.1243 854.2531 L1156.7515 854.3058 L1168.3757 854.3568 L1180 854.4061 L1191.6243 854.4539 L1203.2515 854.5001 L1214.8757 854.5449 L1226.5 854.5884 L1238.1243 854.6306 L1249.7515 854.6714 L1261.3757 854.7112 L1273 854.7497 L1284.6243 854.7864 L1296.2515 854.8248 L1307.8757 854.8599 L1319.5 854.8943 L1331.1243 854.9279 L1342.7515 854.9606 L1354.3757 854.9926 L1366 855.0236 L1377.6243 855.0539 L1389.2515 855.0834 L1400.8757 855.1122 L1412.5 855.1403 L1424.1243 855.1677 L1435.7515 855.1945 L1447.3757 855.2206 L1459 855.2461 L1470.6243 855.271 L1482.2515 855.2953 L1493.8757 855.3191 L1505.5 855.3423 L1517.1243 855.365 L1528.7515 855.3872 L1540.3757 855.4089 L1552 855.4301 L1563.6243 855.4509 L1575.2515 855.4713 L1586.8757 855.4911 L1598.5 855.5106 L1610.1243 855.5296 L1621.7515 855.5483 L1633.3757 855.5665 L1645 855.5844 L1656.6243 855.6019 L1668.2515 855.6191 L1679.8757 855.6359 L1691.5 855.6524 L1703.1243 855.6685 L1714.7515 855.6844 L1726.3757 855.6999 L1738 855.7151 L1738.1488 855.7153" style="fill:none; fill-rule:evenodd; stroke:green;"
    /></g
  ></g
></svg
>
