<?xml version="1.0" encoding="utf-8"?>
<!-- Generator: Adobe Illustrator 19.0.0, SVG Export Plug-In . SVG Version: 6.00 Build 0)  -->
<svg version="1.1" id="Layer_1" xmlns="http://www.w3.org/2000/svg" xmlns:xlink="http://www.w3.org/1999/xlink" x="0px" y="0px"
	 viewBox="852.8427734 -33.6191406 1549.2744141 860.109375"
	 style="enable-background:new 852.8427734 -33.6191406 1549.2744141 860.109375;" xml:space="preserve">
<style type="text/css">
	
		.st0{fill:none;stroke:#FFFFFF;stroke-width:0.6667;stroke-linejoin:bevel;stroke-miterlimit:1;stroke-opacity:0.502;stroke-dasharray:1,3;}
	.st1{fill:none;stroke:#000000;stroke-width:0.6667;stroke-linecap:square;stroke-linejoin:round;stroke-miterlimit:10;}
	.st2{font-family:'ArialMT';}
	.st3{font-size:13px;}
	.st4{font-size:11px;}
	.st5{font-size:15px;}
	.st6{font-family:'Arial-BoldMT';}
	.st7{fill:none;stroke:#FF8000;stroke-width:0.6667;stroke-linejoin:round;stroke-miterlimit:10;}
</style>
<g>
	<g>
		<path d="M904,772h1488V-14H904V772z"/>
	</g>
	<g>
		<line class="st0" x1="1127.9663086" y1="772" x2="1127.9663086" y2="-14"/>
		<line class="st0" x1="1258.9782715" y1="772" x2="1258.9782715" y2="-14"/>
		<line class="st0" x1="1351.9326172" y1="772" x2="1351.9326172" y2="-14"/>
		<line class="st0" x1="1424.0336914" y1="772" x2="1424.0336914" y2="-14"/>
		<line class="st0" x1="1482.9445801" y1="772" x2="1482.9445801" y2="-14"/>
		<line class="st0" x1="1532.7529297" y1="772" x2="1532.7529297" y2="-14"/>
		<line class="st0" x1="1575.8989258" y1="772" x2="1575.8989258" y2="-14"/>
		<line class="st0" x1="1613.9564209" y1="772" x2="1613.9564209" y2="-14"/>
		<line class="st0" x1="1871.9663086" y1="772" x2="1871.9663086" y2="-14"/>
		<line class="st0" x1="2002.9781494" y1="772" x2="2002.9781494" y2="-14"/>
		<line class="st0" x1="2095.9326172" y1="772" x2="2095.9326172" y2="-14"/>
		<line class="st0" x1="2168.0336914" y1="772" x2="2168.0336914" y2="-14"/>
		<line class="st0" x1="2226.9445801" y1="772" x2="2226.9445801" y2="-14"/>
		<line class="st0" x1="2276.7529297" y1="772" x2="2276.7529297" y2="-14"/>
		<line class="st0" x1="2319.8989258" y1="772" x2="2319.8989258" y2="-14"/>
		<line class="st0" x1="2357.956543" y1="772" x2="2357.956543" y2="-14"/>
		<line class="st0" x1="904" y1="772" x2="904" y2="-14"/>
		<line class="st0" x1="1648" y1="772" x2="1648" y2="-14"/>
		<line class="st0" x1="2392" y1="772" x2="2392" y2="-14"/>
		<line class="st0" x1="2392" y1="772" x2="904" y2="772"/>
		<line class="st0" x1="2392" y1="693.4000244" x2="904" y2="693.4000244"/>
		<line class="st0" x1="2392" y1="614.7999878" x2="904" y2="614.7999878"/>
		<line class="st0" x1="2392" y1="536.2000122" x2="904" y2="536.2000122"/>
		<line class="st0" x1="2392" y1="457.5999756" x2="904" y2="457.5999756"/>
		<line class="st0" x1="2392" y1="379" x2="904" y2="379"/>
		<line class="st0" x1="2392" y1="300.3999939" x2="904" y2="300.3999939"/>
		<line class="st0" x1="2392" y1="221.7999878" x2="904" y2="221.7999878"/>
		<line class="st0" x1="2392" y1="143.1999969" x2="904" y2="143.1999969"/>
		<line class="st0" x1="2392" y1="64.6000061" x2="904" y2="64.6000061"/>
		<line class="st0" x1="2392" y1="-14" x2="904" y2="-14"/>
	</g>
	<g>
		<line class="st1" x1="904" y1="772" x2="2392" y2="772"/>
		<line class="st1" x1="904" y1="766.0479736" x2="904" y2="777.9520264"/>
		<line class="st1" x1="1648" y1="766.0479736" x2="1648" y2="777.9520264"/>
		<line class="st1" x1="2392" y1="766.0479736" x2="2392" y2="777.9520264"/>
		<line class="st1" x1="1127.9663086" y1="769.0239868" x2="1127.9663086" y2="774.9760132"/>
		<line class="st1" x1="1258.9782715" y1="769.0239868" x2="1258.9782715" y2="774.9760132"/>
		<line class="st1" x1="1351.9326172" y1="769.0239868" x2="1351.9326172" y2="774.9760132"/>
		<line class="st1" x1="1424.0336914" y1="769.0239868" x2="1424.0336914" y2="774.9760132"/>
		<line class="st1" x1="1482.9445801" y1="769.0239868" x2="1482.9445801" y2="774.9760132"/>
		<line class="st1" x1="1532.7529297" y1="769.0239868" x2="1532.7529297" y2="774.9760132"/>
		<line class="st1" x1="1575.8989258" y1="769.0239868" x2="1575.8989258" y2="774.9760132"/>
		<line class="st1" x1="1613.9564209" y1="769.0239868" x2="1613.9564209" y2="774.9760132"/>
		<line class="st1" x1="1871.9663086" y1="769.0239868" x2="1871.9663086" y2="774.9760132"/>
		<line class="st1" x1="2002.9781494" y1="769.0239868" x2="2002.9781494" y2="774.9760132"/>
		<line class="st1" x1="2095.9326172" y1="769.0239868" x2="2095.9326172" y2="774.9760132"/>
		<line class="st1" x1="2168.0336914" y1="769.0239868" x2="2168.0336914" y2="774.9760132"/>
		<line class="st1" x1="2226.9445801" y1="769.0239868" x2="2226.9445801" y2="774.9760132"/>
		<line class="st1" x1="2276.7529297" y1="769.0239868" x2="2276.7529297" y2="774.9760132"/>
		<line class="st1" x1="2319.8989258" y1="769.0239868" x2="2319.8989258" y2="774.9760132"/>
		<line class="st1" x1="2357.956543" y1="769.0239868" x2="2357.956543" y2="774.9760132"/>
	</g>
	<g transform="translate(239,887)">
		<text transform="matrix(1 0 0 1 654 -86)" class="st2 st3">10</text>
	</g>
	<g transform="translate(254,881)">
		<text transform="matrix(1 0 0 1 654 -86)" class="st2 st4">2</text>
	</g>
	<g transform="translate(983,887)">
		<text transform="matrix(1 0 0 1 654 -86)" class="st2 st3">10</text>
	</g>
	<g transform="translate(998,881)">
		<text transform="matrix(1 0 0 1 654 -86)" class="st2 st4">3</text>
	</g>
	<g transform="translate(1727,887)">
		<text transform="matrix(1 0 0 1 654 -86)" class="st2 st3">10</text>
	</g>
	<g transform="translate(1742,881)">
		<text transform="matrix(1 0 0 1 654 -86)" class="st2 st4">4</text>
	</g>
	<g transform="translate(994.0007,891.6187)">
		<text transform="matrix(1 0 0 1 602 -70)" class="st2 st5">Frequency (Hz)</text>
	</g>
	<g>
		<line class="st1" x1="904" y1="772" x2="904" y2="-14"/>
		<line class="st1" x1="909.9520264" y1="772" x2="898.0479736" y2="772"/>
		<line class="st1" x1="909.9520264" y1="693.4000244" x2="898.0479736" y2="693.4000244"/>
		<line class="st1" x1="909.9520264" y1="614.7999878" x2="898.0479736" y2="614.7999878"/>
		<line class="st1" x1="909.9520264" y1="536.2000122" x2="898.0479736" y2="536.2000122"/>
		<line class="st1" x1="909.9520264" y1="457.5999756" x2="898.0479736" y2="457.5999756"/>
		<line class="st1" x1="909.9520264" y1="379" x2="898.0479736" y2="379"/>
		<line class="st1" x1="909.9520264" y1="300.3999939" x2="898.0479736" y2="300.3999939"/>
		<line class="st1" x1="909.9520264" y1="221.7999878" x2="898.0479736" y2="221.7999878"/>
		<line class="st1" x1="909.9520264" y1="143.1999969" x2="898.0479736" y2="143.1999969"/>
		<line class="st1" x1="909.9520264" y1="64.6000061" x2="898.0479736" y2="64.6000061"/>
		<line class="st1" x1="909.9520264" y1="-14" x2="898.0479736" y2="-14"/>
	</g>
	<g transform="translate(238.7147,858)">
		<text transform="matrix(1 0 0 1 635 -80.5)" class="st2 st3">-90</text>
	</g>
	<g transform="translate(238.7147,779.4)">
		<text transform="matrix(1 0 0 1 635 -80.5)" class="st2 st3">-80</text>
	</g>
	<g transform="translate(238.7147,700.8)">
		<text transform="matrix(1 0 0 1 635 -80.5)" class="st2 st3">-70</text>
	</g>
	<g transform="translate(238.7147,622.2)">
		<text transform="matrix(1 0 0 1 635 -80.5)" class="st2 st3">-60</text>
	</g>
	<g transform="translate(238.7147,543.6)">
		<text transform="matrix(1 0 0 1 635 -80.5)" class="st2 st3">-50</text>
	</g>
	<g transform="translate(238.7147,465)">
		<text transform="matrix(1 0 0 1 635 -80.5)" class="st2 st3">-40</text>
	</g>
	<g transform="translate(238.7147,386.4)">
		<text transform="matrix(1 0 0 1 635 -80.5)" class="st2 st3">-30</text>
	</g>
	<g transform="translate(238.7147,307.8)">
		<text transform="matrix(1 0 0 1 635 -80.5)" class="st2 st3">-20</text>
	</g>
	<g transform="translate(238.7147,229.2)">
		<text transform="matrix(1 0 0 1 635 -80.4999847)" class="st2 st3">-10</text>
	</g>
	<g transform="translate(238.7147,150.6)">
		<text transform="matrix(1 0 0 1 646 -80.5000305)" class="st2 st3">0</text>
	</g>
	<g transform="translate(238.7147,72)">
		<text transform="matrix(1 0 0 1 639 -80.5)" class="st2 st3">10</text>
	</g>
	<g transform="translate(215.7147,464.9996) rotate(-90)">
		<text transform="matrix(1 0 0 1 53.4996033 650)" class="st2 st5">Gain (dB)</text>
	</g>
	<g transform="translate(994.001,69.25)">
		<text transform="matrix(1 0 0 1 619 -90)" class="st6 st5">Bode plot</text>
	</g>
	<g>
		<path class="st7" d="M1286.1364746,772.0786133l0.2797852-0.3095093l0.7440186-0.8239746l0.7434082-0.8252563l0.744751-0.8261719
			l0.7438965-0.8273315l0.7441406-0.8284912l0.7434082-0.8292847l0.7436523-0.8305054l0.7449951-0.831604l0.743042-0.8327026
			l0.7443848-0.8338013l0.7436523-0.8348999l0.744873-0.8360596l0.7438965-0.8370361l0.7434082-0.8382568l0.7443848-0.8393555
			l0.7436523-0.8405762l0.7438965-0.8416748l0.7441406-0.8428345l0.7442627-0.8439941l0.7435303-0.8452148l0.7446289-0.8462524
			l0.7438965-0.8475342l0.7438965-0.8488159l0.7441406-0.8498535l0.7434082-0.8511963l0.7443848-0.852417l0.7437744-0.8535156
			l0.7438965-0.8549194l0.7440186-0.855957l0.7441406-0.8572998l0.7442627-0.8586426l0.7435303-0.8595581l0.7443848-0.8613281
			l0.7438965-0.8623047l0.7437744-0.8637085l0.7438965-0.8648682l0.7441406-0.8662109l0.7442627-0.8676147l0.7441406-0.8688965
			l0.7434082-0.8701782l0.7443848-0.871521l0.7437744-0.8728638l0.7446289-0.8742065l0.7437744-0.8757324l0.7438965-0.8769531
			l0.7440186-0.878418l0.7440186-0.8796387l0.7441406-0.8811646l0.7440186-0.8826294l0.7440186-0.8839722l0.7434082-0.885437
			l0.7443848-0.8867798l0.7443848-0.8883667l0.7435303-0.8897095l0.7442627-0.8912354l0.7436523-0.8927002l0.7443848-0.894104
			l0.7436523-0.8956909l0.7445068-0.8971558l0.7436523-0.8988037l0.7435303-0.9002075l0.7446289-0.9017334l0.7436523-0.9033813
			l0.7443848-0.9047852l0.7437744-0.9064331l0.7437744-0.907959l0.7443848-0.9096069l0.7436523-0.9111938l0.7443848-0.9128418
			l0.7436523-0.9143677l0.7443848-0.9161377l0.7434082-0.9176636l0.7443848-0.9194336l0.7442627-0.9208984l0.7434082-0.9226685
			l0.7442627-0.9244385l0.7440186-0.9260864l0.7441406-0.9277954l0.7440186-0.9295654l0.7438965-0.9312134l0.7438965-0.9329834
			l0.7438965-0.9347534l0.7443848-0.9365845l0.7437744-0.9382935l0.7443848-0.9401245l0.7434082-0.9419556l0.7442627-0.9437256
			l0.7441406-0.9456177l0.7440186-0.9474487l0.7440186-0.9493408l0.7437744-0.9508057l0.7437744-0.9534912l0.7443848-0.9544678
			l0.7442627-0.9573975l0.7434082-0.9584961l0.7440186-0.9608154l0.7438965-0.9627075l0.7443848-0.9650269l0.7438965-0.9662476
			l0.7441406-0.968811l0.7442627-0.9707031l0.7440186-0.9725342l0.7438965-0.9750977l0.7436523-0.9768066l0.7443848-0.9787598
			l0.7434082-0.9807129l0.7438965-0.9830933l0.7446289-0.9854126l0.7436523-0.9874268l0.7443848-0.9893799l0.7441406-0.991272
			l0.7438965-0.9938965l0.7436523-0.9962158l0.7442627-0.9981079l0.7434082-1.0006714l0.7445068-1.0029297l0.7438965-1.0048828
			l0.7442627-1.0071411l0.7432861-1.0097046l0.7446289-1.0115967l0.7436523-1.0145874l0.7441406-1.0161743l0.7440186-1.0189819
			l0.7437744-1.0214233l0.7441406-1.0236816l0.7441406-1.0263062l0.7436523-1.0288086l0.7445068-1.0310059l0.7440186-1.0336304
			l0.7437744-1.0359497l0.7435303-1.0386963l0.7441406-1.0410156l0.7445068-1.0437012l0.7435303-1.0460815l0.7438965-1.0492554
			l0.7446289-1.0514526l0.7434082-1.053894l0.7441406-1.0568237l0.7441406-1.0596924l0.7441406-1.0621338l0.7438965-1.0650635
			l0.7441406-1.067627l0.7441406-1.0704956l0.7435303-1.0731201l0.7442627-1.0759888l0.7437744-1.0789795l0.7442627-1.0817871
			l0.7438965-1.0847168l0.7441406-1.0872803l0.7441406-1.0906982l0.7435303-1.0934448l0.7441406-1.0964966l0.7437744-1.0993652
			l0.7441406-1.1026001l0.7438965-1.1055908l0.7441406-1.1083984l0.7438965-1.1119385l0.7440186-1.1146851l0.7438965-1.117981
			l0.7442627-1.1213989l0.7437744-1.1243286l0.7441406-1.1278687l0.7440186-1.1307373l0.7440186-1.1342773l0.7437744-1.1376343
			l0.7441406-1.1409912l0.7437744-1.1444092l0.7440186-1.1477051l0.7445068-1.1511841l0.7438965-1.15448l0.7435303-1.1580811
			l0.7446289-1.1618042l0.7436523-1.1653442l0.7436523-1.1687622l0.7441406-1.1727295l0.7443848-1.1759644l0.7440186-1.1798096
			l0.7442627-1.1835938l0.7438965-1.1875l0.7438965-1.19104l0.7436523-1.1950073l0.7438965-1.1987915l0.7441406-1.2027588
			l0.7438965-1.2067261l0.7445068-1.2105713l0.7436523-1.2147217l0.7443848-1.218689l0.7438965-1.2228394l0.7435303-1.2267456
			l0.7443848-1.2312012l0.7438965-1.2353516l0.7436523-1.239502l0.7443848-1.2436523l0.7438965-1.2481079l0.7441406-1.2526245
			l0.7436523-1.2567749l0.7446289-1.2614136l0.7438965-1.265686l0.7435303-1.2703857l0.7442627-1.2749023l0.7438965-1.2796021
			l0.7440186-1.2842407l0.7442627-1.2890015l0.7435303-1.2935791l0.7440186-1.2985229l0.7438965-1.3034058l0.7441406-1.3082886
			l0.7442627-1.3131104l0.7437744-1.3182983l0.7438965-1.3231812l0.7440186-1.3283691l0.7441406-1.3334961l0.7442627-1.3388062
			l0.7436523-1.3439941l0.7443848-1.3494263l0.7438965-1.3546753l0.7438965-1.3600464l0.7441406-1.3656616l0.7436523-1.3710938
			l0.7443848-1.3769531l0.7436523-1.3823853l0.7443848-1.3880615l0.7438965-1.394043l0.7438965-1.3997803l0.7438965-1.4057007
			l0.7441406-1.4116821l0.7441406-1.4177246l0.7435303-1.423584l0.7441406-1.4301147l0.7442627-1.4367065l0.7436523-1.4422607
			l0.7443848-1.4489136l0.7436523-1.4556274l0.7445068-1.4616089l0.7436523-1.468689l0.7437744-1.4754639l0.7443848-1.4820557
			l0.7438965-1.4888916l0.7437744-1.4957886l0.7445068-1.5025635l0.7436523-1.5097046l0.7438965-1.5172119l0.7443848-1.5239258
			l0.7437744-1.5318604l0.7436523-1.5390015l0.7445068-1.5464478l0.7436523-1.5540771l0.7441406-1.5620117l0.7441406-1.5697021
			l0.7436523-1.5772705l0.7441406-1.5853882l0.7438965-1.5936279l0.7441406-1.6018677l0.7438965-1.6099243l0.7438965-1.6187744
			l0.7443848-1.6269531l0.7438965-1.6355591l0.7441406-1.644104l0.7436523-1.6533203l0.7441406-1.6621094l0.7438965-1.6713867
			l0.7438965-1.6802979l0.7446289-1.6898193l0.7436523-1.6991577l0.7441406-1.7084961l0.7440186-1.7185059l0.7440186-1.7283325
			l0.7437744-1.7384644l0.7437744-1.7483521l0.7442627-1.7585449l0.7440186-1.769104l0.7438965-1.779541l0.7438965-1.7902832
			l0.7441406-1.8012085l0.7441406-1.8121948l0.7438965-1.8234253l0.7437744-1.8346558l0.7441406-1.8461914l0.7440186-1.8578491
			l0.7438965-1.869751l0.7442627-1.8818359l0.7440186-1.8939819l0.7438965-1.9064331l0.7437744-1.9189453l0.7440186-1.9319458
			l0.7440186-1.9447021l0.7442627-1.9580078l0.7441406-1.9714966l0.7437744-1.9852905l0.7442627-1.9989624l0.7434082-2.0130005
			l0.7443848-2.0275269l0.7441406-2.0419006l0.7440186-2.0568848l0.7436523-2.0720215l0.7440186-2.0871887l0.7443848-2.1028137
			l0.7435303-2.1187744l0.7442627-2.1347961l0.7436523-2.1513062l0.7445068-2.1682129l0.7436523-2.1850891l0.7440186-2.2025146
			l0.7441406-2.2201843l0.7441406-2.2382202l0.7436523-2.2565918l0.7443848-2.2753906l0.7437744-2.2944031l0.7440186-2.3138123
			l0.7441406-2.3336792l0.7438965-2.3539124l0.7441406-2.3746948l0.7438965-2.3956909l0.7441406-2.4169006l0.7437744-2.439209
			l0.7440186-2.4617004l0.7441406-2.4844055l0.7440186-2.5079956l0.7435303-2.5321045l0.7445068-2.5563965l0.7440186-2.5813904
			l0.7436523-2.6069031l0.7438965-2.6331177l0.7441406-2.65979l0.7441406-2.6872864l0.7438965-2.7156982l0.7441406-2.7444153
			l0.7437744-2.7738037l0.7442627-2.8041992l0.7436523-2.8348999l0.7441406-2.8668823l0.7438965-2.8995056l0.7438965-2.9331055
			l0.7441406-2.9674988l0.7443848-3.0032043l0.7438965-3.0391846l0.7438965-3.0770264l0.7441406-3.1149902l0.7438965-3.1549988
			l0.7438965-3.1958008l0.7438965-3.237793l0.7440186-3.2814026l0.7440186-3.3258972l0.7437744-3.3723145l0.7445068-3.4197998
			l0.7438965-3.4690857l0.7438965-3.5202026l0.7441406-3.572998l0.7441406-3.6273193l0.7436523-3.684082l0.7442627-3.7427979
			l0.7437744-3.8034973l0.7440186-3.8668213l0.7438965-3.932373l0.7440186-4.0006104l0.7440186-4.0717163l0.7440186-4.1456909
			l0.7441406-4.2226868l0.7440186-4.3032227l0.7441406-4.3872986l0.7436523-4.4749756l0.7441406-4.5665283l0.7442627-4.6629944
			l0.7436523-4.7626038l0.7441406-4.8684998l0.7441406-4.9786987l0.7436523-5.0941772l0.7441406-5.21521l0.7441406-5.3416138
			l0.7441406-5.4747009l0.7435303-5.6127014l0.7440186-5.7565918l0.7438965-5.905899l0.7443848-6.0597992l0.7438965-6.216095
			l0.7438965-6.3739014l0.7442627-6.5290985l0.7437744-6.6768036l0.7441406-6.8100891l0.7440186-6.9187012l0.7440186-6.9886017
			l0.7438965-7.0006104l0.7438965-6.9308014l0.7441406-6.7504883l0.7436523-6.4298096l0.7441406-5.9432983l0.7438965-5.2814941
			l0.7443848-4.4604034l0.7437744-3.5287933l0.7440186-2.5635071l0.7438965-1.6477966l0.7438965-0.856308l0.7442627-0.2279968
			l0.7441406,0.2248077l0.7438965,0.5175934l0.7442627,0.677597l0.7436523,0.7338104l0.7438965,0.7164917l0.7442627,0.6473999
			l0.7440186,0.5467072l0.7438965,0.4263l0.7440186,0.2977905l0.7440186,0.1683044l0.7438965,0.0429993l0.7441406-0.0740051
			l0.7440186-0.1800995l0.7437744-0.2726898l0.7441406-0.3511047l0.7438965-0.4131927l0.7441406-0.458313l0.7438965-0.4870911
			l0.7441406-0.4981995l0.7438965-0.4933014l0.7438965-0.4707947l0.7438965-0.4341125l0.7441406-0.384491l0.7438965-0.3222046
			l0.7442627-0.252594l0.7438965-0.1749115l0.7442627-0.0945892l0.7438965-0.0133057l0.7441406,0.0666046l0.7438965,0.1416931
			l0.7438965,0.2102051l0.7436523,0.2704926l0.7443848,0.3209991l0.7437744,0.3601074l0.7442627,0.3892975l0.7438965,0.4060059
			l0.7441406,0.4122925l0.7438965,0.4082031l0.7438965,0.3934021l0.7441406,0.3701019l0.7438965,0.338501l0.7440186,0.300293
			l0.7440186,0.2554016l0.7437744,0.205307l0.7442627,0.1526947l0.7440186,0.0960999l0.7440186,0.0379944l0.7438965-0.0206909
			l0.7438965-0.0792999l0.7441406-0.1363983l0.7441406-0.1912079l0.7436523-0.2420959l0.7442627-0.2891998l0.7437744-0.3309021
			l0.7438965-0.3645935l0.7443848-0.3919067l0.7440186-0.410202l0.7435303-0.4187927l0.7441406-0.4170074l0.7442627-0.4046936
			l0.7436523-0.3804016l0.7442627-0.3462067l0.7438965-0.2993011l0.7441406-0.2438965l0.7438965-0.1784058l0.7438965-0.1064911
			l0.7443848-0.0278015l0.7438965,0.0518951l0.7438965,0.1338043l0.7437744,0.2115936l0.7442627,0.2844086l0.7438965,0.3500061
			l0.7441406,0.4045868l0.7438965,0.4454041l0.7441406,0.473999l0.7437744,0.4844055l0.7440186,0.4799957l0.7441406,0.4580078
			l0.7438965,0.4185944l0.7440186,0.3623962l0.7440186,0.2901001l0.7441406,0.2021027l0.7436523,0.1009064l0.7441406-0.0129089
			l0.7440186-0.1342926l0.7440186-0.2631073l0.7438965-0.3916016l0.7441406-0.5139923l0.7438965-0.621109l0.7441406-0.7001953
			l0.7438965-0.7326965l0.7440186-0.6992035L1648,59.9329987l0.7454834-0.316803l0.7437744,0.091507l0.7421875,0.6718903
			l0.7436523,1.4227142l0.7451172,2.3098907l0.7434082,3.2707062l0.744751,4.2198029l0.743042,5.0771942l0.7446289,5.7852936
			l0.7429199,6.3194122l0.7443848,6.6829987l0.7457275,6.8983917l0.7442627,6.9953003l0.7421875,7.0023956l0.7437744,6.9464111
			l0.7452393,6.8466949l0.7434082,6.7187958l0.744873,6.5740051l0.7431641,6.4199066l0.7443848,6.2630005l0.7429199,6.1053925
			l0.7441406,5.9508057l0.7456055,5.799881l0.7437744,5.6549988l0.7420654,5.5146179l0.7463379,5.3804932l0.7419434,5.2518005
			l0.7459717,5.1296997l0.741333,5.012207l0.7458496,4.9006958l0.7438965,4.7940979l0.7451172,4.6925049l0.7436523,4.5949097
			l0.7418213,4.5020752l0.7462158,4.4132996l0.7442627,4.328125l0.7427979,4.2468872l0.7438965,4.1687012l0.7451172,4.0939026
			l0.7434082,4.0219116l0.744751,3.9529724l0.7429199,3.8865051l0.7442627,3.8228149l0.7424316,3.7611084l0.7437744,3.7018738
			l0.744873,3.6447144l0.7431641,3.5895081l0.7443848,3.5362854l0.7456055,3.4848938l0.7437744,3.434906l0.7421875,3.3869019
			l0.7460938,3.34021l0.7443848,3.2948914l0.7427979,3.2513123l0.7438965,3.2086792l0.7449951,3.1676941l0.7432861,3.1277161
			l0.7443848,3.0886841l0.7427979,3.0510254l0.7437744,3.0144043l0.744873,2.9783936l0.7431641,2.9440918l0.7442627,2.9100037
			l0.7453613,2.8769836l0.7436523,2.8451233l0.744751,2.8136902l0.743042,2.7833862l0.7440186,2.7538147l0.7451172,2.7246094
			l0.7434082,2.6959839l0.7445068,2.6687012l0.7426758,2.64151l0.7437744,2.615387l0.744751,2.5895996l0.743042,2.5639954
			l0.7440186,2.5396118l0.7451172,2.515686l0.7432861,2.4923096l0.7442627,2.4689941l0.7426758,2.4464111l0.7463379,2.4238892
			l0.7418213,2.4024963l0.7454834,2.3814087l0.7438965,2.3605957l0.744751,2.3401184l0.7429199,2.320282l0.7441406,2.3005981
			l0.744873,2.2814026l0.7431641,2.2626038l0.7441406,2.2441101l0.7424316,2.2259827l0.7459717,2.2082214l0.7441406,2.1907043
			l0.7425537,2.1736755l0.7434082,2.1567078l0.7442627,2.1401978l0.7451172,2.1239014l0.7434082,2.1079102l0.7443848,2.0922852
			l0.7451172,2.0769043l0.7435303,2.0617065l0.7442627,2.046875l0.7425537,2.0320435l0.7434082,2.0177612l0.7443848,2.0036011
			l0.7449951,1.9897461l0.7434082,1.9758911l0.7441406,1.9622803l0.7451172,1.9492798l0.7431641,1.9360352l0.7441406,1.9231567
			l0.744873,1.9104004l0.743042,1.8982544l0.7438965,1.8856812l0.744751,1.8735962l0.743042,1.8618774l0.7436523,1.8499146
			l0.7445068,1.8383789l0.7427979,1.8272095l0.7459717,1.8156128l0.7443848,1.8048096l0.7424316,1.7940063l0.7434082,1.7830811
			l0.7438965,1.7723999l0.744751,1.762085l0.7454834,1.751709l0.7436523,1.7416382l0.7419434,1.7315674l0.7451172,1.7216187
			l0.7434082,1.7119141l0.7441406,1.7021484l0.744751,1.6929321l0.743042,1.6834717l0.7437744,1.6741943l0.7443848,1.6652222
			l0.7449951,1.6558838l0.7432861,1.647522l0.7438965,1.6383057l0.7446289,1.6298218l0.7429199,1.6210938l0.7457275,1.6130981
			l0.7441406,1.6044922l0.7424316,1.5960693l0.7453613,1.5881348l0.7436523,1.5802002l0.7442627,1.5725098l0.7425537,1.56427
			l0.7453613,1.5565186l0.7437744,1.5490723l0.7442627,1.5413818l0.7425537,1.5342407l0.7454834,1.5266724l0.7436523,1.5194092
			l0.7442627,1.5123291l0.7425537,1.5050049l0.7453613,1.4980469l0.7436523,1.4911499l0.7442627,1.4839478l0.7446289,1.477417
			l0.743042,1.4708252l0.7435303,1.4641724l0.7440186,1.4578857l0.7446289,1.4509277l0.7427979,1.4448242l0.7456055,1.4382935
			l0.7437744,1.4317627l0.7443848,1.4259033l0.7426758,1.4197998l0.7452393,1.4136963l0.7436523,1.4077148l0.7441406,1.4017944
			l0.7443848,1.395813l0.7429199,1.3900757l0.7432861,1.3843384l0.7458496,1.3786621l0.7420654,1.3730469l0.7446289,1.3674927
			l0.7449951,1.3618774l0.7432861,1.3566284l0.7437744,1.3509521l0.7442627,1.3458252l0.7446289,1.3405151l0.7429199,1.3352051
			l0.7453613,1.3302002l0.7437744,1.3247681l0.7440186,1.3198853l0.7424316,1.3149414l0.744751,1.3098755l0.7431641,1.3049927
			l0.7457275,1.3001099l0.7438965,1.2952881l0.7442627,1.2904053l0.7425537,1.2858887l0.7449951,1.28125l0.7434082,1.2762451
			l0.7436523,1.2719116l0.7438965,1.267334l0.7442627,1.2627563l0.744751,1.2585449l0.7429199,1.2539063l0.7453613,1.2494507
			l0.7436523,1.2453003l0.7437744,1.2409058l0.7443848,1.2366333l0.7443848,1.232605l0.7427979,1.2282715l0.7452393,1.2241211
			l0.7434082,1.2199707l0.7436523,1.2160034l0.7440186,1.2120361l0.7442627,1.2080078l0.7445068,1.2040405l0.7427979,1.2001343
			l0.7451172,1.196167l0.7434082,1.1925049l0.7436523,1.1885376l0.7437744,1.1848755l0.7441406,1.1810913l0.7443848,1.1774292
			l0.7446289,1.1737061l0.7429199,1.1699829l0.7449951,1.166626l0.7432861,1.1626587l0.7435303,1.1594238l0.7437744,1.1558228
			l0.7441406,1.1522827l0.7440186,1.1488647l0.7445068,1.1455078l0.7446289,1.1420898l0.7427979,1.1387329l0.7449951,1.1353149
			l0.7432861,1.131958l0.7453613,1.1289063l0.7436523,1.1254883l0.7437744,1.1222534l0.7440186,1.1190796l0.7441406,1.1159058
			l0.7441406,1.112793l0.7426758,1.1096802l0.7445068,1.1066284l0.744751,1.1034546l0.743042,1.1005249l0.7449951,1.0975342
			l0.7432861,1.0942993l0.7434082,1.0914917l0.7454834,1.088562l0.7436523,1.0856934l0.7437744,1.0825195l0.7438965,1.0800781
			l0.7440186,1.0768433l0.7441406,1.0741577l0.7441406,1.0714111l0.7442627,1.0685425l0.7426758,1.065979l0.7445068,1.0631714
			l0.7445068,1.0602417l0.7429199,1.0576782l0.744751,1.0551758l0.744751,1.0522461l0.743042,1.0498047l0.744873,1.0470581
			l0.7432861,1.0447998l0.7432861,1.0419922l0.7449951,1.0393066l0.7434082,1.0371094l0.7451172,1.0341187l0.7434082,1.0321045
			l0.7435303,1.02948l0.7435303,1.0269775l0.7452393,1.0244141l0.7435303,1.0223389l0.7435303,1.0197754l0.7436523,1.0172119
			l0.7453613,1.0150757l0.7436523,1.0128174l0.7435303,1.0100098l0.7436523,1.0078735l0.7453613,1.0060425l0.7435303,1.00354
			l0.7436523,1.0009155l0.7435303,0.9993896l0.7452393,0.9966431l0.7434082,0.9945068l0.7435303,0.9924927l0.7435303,0.9902954
			l0.7451172,0.9876099l0.7434082,0.9863892l0.7449951,0.9837036l0.7432861,0.9812622l0.7432861,0.9796143l0.744873,0.9777222
			l0.743042,0.9754639l0.744751,0.9735107l0.744751,0.9713135l0.7427979,0.9694214l0.7446289,0.9671021l0.7443848,0.9651489
			l0.7426758,0.9637451l0.7442627,0.9610596l0.7441406,0.9597168l0.7441406,0.9572754l0.7438965,0.9559326l0.7438965,0.9536133
			l0.7437744,0.9516602l0.7452393,0.9501953l0.7436523,0.9478149l0.7434082,0.946228l0.744873,0.944397l0.7431641,0.9425049
			l0.7446289,0.9407959l0.743042,0.9387817l0.7443848,0.9371948l0.7441406,0.9354248l0.7441406,0.9334717l0.7440186,0.9318848
			l0.7437744,0.9301147l0.7437744,0.9282837l0.7449951,0.9267578l0.7432861,0.9249878l0.744751,0.9231567l0.743042,0.9216309
			l0.7443848,0.9199219l0.7442627,0.9181519l0.7440186,0.916748l0.7438965,0.914856l0.7436523,0.9133911l0.7435303,0.9117432
			l0.744751,0.9100952l0.7431641,0.9085083l0.7443848,0.9069824l0.7442627,0.9053955l0.7440186,0.9038086l0.7438965,0.9022827
			l0.7435303,0.9006958l0.744873,0.899231l0.7431641,0.8977051l0.7443848,0.8961792l0.7442627,0.8947144l0.7438965,0.8931885
			l0.7437744,0.8917236l0.7435303,0.8902588l0.744751,0.8887329l0.7445068,0.8872681l0.7427979,0.8859863l0.7440186,0.8843384
			l0.7452393,0.8831787l0.7434082,0.8815918l0.744751,0.880249l0.743042,0.8787842l0.7440186,0.8775024l0.7438965,0.8760986
			l0.7436523,0.8745728l0.744751,0.8734131l0.7445068,0.8718872l0.7427979,0.8707275l0.7438965,0.8692627l0.7451172,0.868103
			l0.7432861,0.8666382l0.7445068,0.8653564l0.7441406,0.8641357l0.7438965,0.8626709l0.7435303,0.8616333l0.7446289,0.8601685
			l0.7429199,0.8590088l0.7440186,0.8577271l0.7451172,0.8565063l0.7434082,0.8552856l0.7443848,0.8537598l0.7441406,0.8528442
			l0.7437744,0.8515625l0.7434082,0.8503418l0.7445068,0.8490601l0.7442627,0.8479004l0.7437744,0.8469238l0.7434082,0.84552
			l0.7443848,0.8442993l0.7441406,0.8433838l0.7437744,0.8419189l0.744751,0.8410034l0.743042,0.8397827l0.7440186,0.8386841
			l0.7449951,0.8375244l0.7432861,0.8363037l0.7442627,0.8352661l0.7437744,0.8342285l0.7435303,0.8330078l0.7443848,0.8319702
			l0.7440186,0.8308105l0.7437744,0.8297729l0.7445068,0.8287964l0.7441406,0.8276367l0.7437744,0.8265991l0.7434082,0.8255615
			l0.7442627,0.8243408l0.5303955,0.5870972"/>
	</g>
</g>
</svg>
